Division,WeightClassKg,Place,Name,Team,BodyweightKg,Best3SquatKg,Best3BenchKg,Best3DeadliftKg,TotalKg,Equipment,Event,Sex
Boys,55.79,1,Sam Foley,Waskom,54.88,147.42,88.45,167.83,403.7,Single-ply,SBD,M
Boys,59.87,1,Marcos Jimenez,Waskom,57.15,124.74,70.31,147.42,342.46,Single-ply,SBD,M
Boys,59.87,2,Brandon Glenn,Big Sandy Harmony,58.97,122.47,74.84,122.47,319.78,Single-ply,SBD,M
Boys,59.87,3,Michael Suddeth,Hallsville,59.24,106.59,56.7,113.4,276.69,Single-ply,SBD,M
Boys,67.13,1,Alec Pack,Longview Spring Hill,67.13,183.7,106.59,185.97,476.27,Single-ply,SBD,M
Boys,67.13,2,Christian Bean,Hallsville,65.32,136.08,99.79,181.44,417.3,Single-ply,SBD,M
Boys,67.13,3,JC Garcia,Waskom,66.68,158.76,81.65,167.83,408.23,Single-ply,SBD,M
Boys,67.13,4,Jacob Deagruro,White Oak,66.68,149.69,92.99,149.69,392.36,Single-ply,SBD,M
Boys,67.13,5,Shelton Booth,Waskom,62.6,142.88,90.72,136.08,369.68,Single-ply,SBD,M
Boys,67.13,6,Justin Spurlin,Waskom,60.33,127.01,74.84,161.03,362.87,Single-ply,SBD,M
Boys,67.13,7,Matt Hosea,Big Sandy Harmony,66.22,108.86,81.65,127.01,317.51,Single-ply,SBD,M
Boys,67.13,8,Tyler Minetree,Hallsville,62.51,111.13,74.84,122.47,308.44,Single-ply,SBD,M
Boys,74.84,1,Santos Estrada,Hallsville,70.13,181.44,122.47,199.58,503.49,Single-ply,SBD,M
Boys,74.84,2,Greg Martens,Longview Spring Hill,72.57,188.24,122.47,192.78,503.49,Single-ply,SBD,M
Boys,74.84,3,Ashton Everret,Longview Spring Hill,74.84,181.44,117.93,174.63,474,Single-ply,SBD,M
Boys,74.84,4,Cody Stevenson,Hallsville,70.76,167.83,113.4,170.1,451.32,Single-ply,SBD,M
Boys,74.84,5,Dalton Huffman,Longview Spring Hill,74.84,147.42,102.06,142.88,392.36,Single-ply,SBD,M
Boys,74.84,6,Spencer Hendricks,Longview Spring Hill,73.48,131.54,88.45,165.56,385.55,Single-ply,SBD,M
Boys,74.84,7,Nolan Stowe,White Oak,73.48,117.93,86.18,122.47,326.59,Single-ply,SBD,M
Boys,74.84,8,Ben Wise,Waskom,68.04,97.52,65.77,122.47,285.76,Single-ply,SBD,M
Boys,82.1,1,Eric Whittemore,Big Sandy Harmony,80.74,210.92,131.54,210.92,553.38,Single-ply,SBD,M
Boys,82.1,2,Cayden Ferrill,Hallsville,79.83,197.31,133.81,210.92,542.04,Single-ply,SBD,M
Boys,82.1,3,Roderick Boyd,Hallsville,82.1,199.58,120.2,190.51,510.29,Single-ply,SBD,M
Boys,82.1,4,Brent Black,Hallsville,80.74,158.76,104.33,183.7,446.79,Single-ply,SBD,M
Boys,82.1,5,Alex Downing,Hallsville,81.65,147.42,117.93,167.83,433.18,Single-ply,SBD,M
Boys,82.1,6,Danny Galvan,Waskom,82.1,181.44,90.72,158.76,430.91,Single-ply,SBD,M
Boys,82.1,7,Rahan Tariq,Longview Spring Hill,77.56,147.42,115.67,163.29,426.38,Single-ply,SBD,M
Boys,82.1,8,John Mccellon,Gilmer Union Hill,81.65,149.69,108.86,158.76,417.3,Single-ply,SBD,M
Boys,82.1,9,Dallas Green,Longview Spring Hill,78.93,142.88,86.18,161.03,390.09,Single-ply,SBD,M
Boys,82.1,10,Dylan Whitford,Hallsville,75.75,131.54,97.52,129.27,358.34,Single-ply,SBD,M
Boys,89.81,1,Stephen Godwin,Hallsville,89.45,217.72,147.42,174.63,539.77,Single-ply,SBD,M
Boys,89.81,2,Justin Miller,Big Sandy Harmony,86.18,176.9,102.06,172.37,451.32,Single-ply,SBD,M
Boys,89.81,3,Jason Spurlin,Waskom,88.9,161.03,99.79,185.97,446.79,Single-ply,SBD,M
Boys,89.81,4,Casey Whittemore,Big Sandy Harmony,86.18,172.37,86.18,158.76,417.3,Single-ply,SBD,M
Boys,89.81,5,Mason Smith,White Oak,85.73,113.4,79.38,140.61,333.39,Single-ply,SBD,M
Boys,89.81,6,Timmy Powers,White Oak,85.28,108.86,56.7,122.47,288.03,Single-ply,SBD,M
Boys,99.79,1,John Sartor,Hallsville,95.71,192.78,115.67,215.46,523.9,Single-ply,SBD,M
Boys,99.79,2,Ethan Land,White Oak,98.43,170.1,113.4,142.88,426.38,Single-ply,SBD,M
Boys,99.79,3,Caleb Gentry,Waskom,92.53,170.1,102.06,151.95,424.11,Single-ply,SBD,M
Boys,99.79,4,Austin Anderson,Big Sandy Harmony,98.88,149.69,90.72,167.83,408.23,Single-ply,SBD,M
Boys,109.77,1,Daniel Hicks,Waskom,102.06,226.8,138.35,224.53,589.67,Single-ply,SBD,M
Boys,109.77,2,Adrian Zapata,Longview Spring Hill,101.15,206.38,99.79,206.38,512.56,Single-ply,SBD,M
Boys,109.77,3,Janiel Sanchez,Waskom,104.33,190.51,108.86,181.44,480.81,Single-ply,SBD,M
Boys,109.77,4,Logan Walters,White Oak,108.86,167.83,104.33,204.12,476.27,Single-ply,SBD,M
Boys,109.77,5,Cody Duvall,Longview Spring Hill,100.7,176.9,88.45,151.95,417.3,Single-ply,SBD,M
Boys,109.77,6,Lucas Robers,Hallsville,102.06,163.29,90.72,158.76,412.77,Single-ply,SBD,M
Boys,109.77,7,James Davis,Hallsville,102.97,138.35,102.06,149.69,390.09,Single-ply,SBD,M
Boys,109.77,DQ,Morgan Knight,Longview Spring Hill,100.7,138.35,113.4,,,Single-ply,SBD,M
Boys,109.77,DQ,Alex Plunkett,Gilmer Union Hill,105.23,,,,,Single-ply,SBD,M
Boys,124.74,1,Brent Rogers,Hallsville,113.4,192.78,113.4,165.56,471.74,Single-ply,SBD,M
Boys,124.74,2,Hayden Wall,Hallsville,112.04,151.95,104.33,185.97,442.25,Single-ply,SBD,M
Boys,124.74,3,Stephen Merrill,White Oak,111.58,154.22,81.65,154.22,390.09,Single-ply,SBD,M
Boys,124.74,4,Grant Worley,Longview Spring Hill,115.67,131.54,104.33,142.88,378.75,Single-ply,SBD,M
Boys,124.74,DQ,Dylan Weatherby,Big Sandy Harmony,119.29,199.58,,156.49,,Single-ply,SBD,M
Boys,124.74+,1,Tim Taylor,Gilmer Union Hill,133.81,215.46,115.67,188.24,519.36,Single-ply,SBD,M
Boys,124.74+,2,Logan Sallee,Hallsville,151.95,204.12,131.54,145.15,480.81,Single-ply,SBD,M
Boys,124.74+,3,Wesley Prince,Waskom,137.44,181.44,99.79,172.37,453.59,Single-ply,SBD,M
