Division,WeightClassKg,Place,Name,Team,BodyweightKg,Best3SquatKg,Best3BenchKg,Best3DeadliftKg,TotalKg,Equipment,Event,Sex
Boys,51.71,1,Preston Box,Santo,51.26,79.38,47.63,92.99,219.99,Single-ply,SBD,M
Boys,51.71,2,Victor Garza,Meridian,46.63,74.84,40.82,90.72,206.38,Single-ply,SBD,M
Boys,55.79,1,Houston Tucker,Hamilton,53.89,136.08,65.77,142.88,344.73,Single-ply,SBD,M
Boys,55.79,2,Luc Hyles,Hico,54.61,129.27,68.04,127.01,324.32,Single-ply,SBD,M
Boys,55.79,3,Martin Velazquez,Hico,53.61,106.59,61.23,113.4,281.23,Single-ply,SBD,M
Boys,55.79,4,Stephen Rebeiro,Lingleville,54.34,90.72,45.36,117.93,254.01,Single-ply,SBD,M
Boys,55.79,5,Carlos Moreno,Lingleville,54.34,79.38,47.63,124.74,251.74,Single-ply,SBD,M
Boys,59.87,1,Carlos Villanueva,Strawn,59.69,158.76,83.91,154.22,396.89,Single-ply,SBD,M
Boys,59.87,2,Hunter Burton,Millsap,57.79,129.27,77.11,136.08,342.46,Single-ply,SBD,M
Boys,59.87,3,Baylor Burkett,Millsap,59.87,124.74,65.77,124.74,315.25,Single-ply,SBD,M
Boys,59.87,4,Enrique Prado,Lometa,58.69,86.18,43.09,97.52,226.8,Single-ply,SBD,M
Boys,67.13,1,Franklin Lopez,Millsap,64.23,181.44,90.72,174.63,446.79,Single-ply,SBD,M
Boys,67.13,2,Blake Pettit,Hamilton,67.13,158.76,88.45,183.7,430.91,Single-ply,SBD,M
Boys,67.13,3,Jw Montgomery,Strawn,64.86,149.69,86.18,158.76,394.63,Single-ply,SBD,M
Boys,67.13,4,Patyne Ruiz,Strawn,67.13,124.74,106.59,149.69,381.02,Single-ply,SBD,M
Boys,67.13,5,Stephen Fritz,Lingleville,63.59,136.08,90.72,142.88,369.68,Single-ply,SBD,M
Boys,67.13,6,Logan Evans,Lometa,67.13,111.13,79.38,158.76,349.27,Single-ply,SBD,M
Boys,67.13,7,Trevor Wilkerson,Clyde,66.59,127.01,70.31,111.13,308.44,Single-ply,SBD,M
Boys,67.13,8,Jayton Pimentel,Clyde,60.06,117.93,61.23,104.33,283.5,Single-ply,SBD,M
Boys,67.13,DQ,Tyler Wilkerson,Clyde,67.04,133.81,,,,Single-ply,SBD,M
Boys,74.84,1,Kameron Sisson,Whitney,72.76,172.37,113.4,195.04,480.81,Single-ply,SBD,M
Boys,74.84,2,Ivan Ruiz,Strawn,74.48,181.44,113.4,170.1,464.93,Single-ply,SBD,M
Boys,74.84,3,Rj Hoffman,Clyde,70.85,183.7,86.18,167.83,437.72,Single-ply,SBD,M
Boys,74.84,4,Champ Whisenhunt,Rio Vista,74.03,151.95,108.86,172.37,433.18,Single-ply,SBD,M
Boys,74.84,5,Jordan Degallado,Meridian,74.39,158.76,88.45,167.83,415.04,Single-ply,SBD,M
Boys,74.84,6,Jace Davis,Millsap,72.57,158.76,77.11,170.1,405.97,Single-ply,SBD,M
Boys,74.84,7,Briley Johnson,Hico,74.48,174.63,74.84,156.49,405.97,Single-ply,SBD,M
Boys,74.84,8,Blayz Ingle,Clyde,69.13,158.76,83.91,161.03,403.7,Single-ply,SBD,M
Boys,74.84,9,Auston McBroom,Millsap,71.85,142.88,81.65,151.95,376.48,Single-ply,SBD,M
Boys,74.84,10,Juble Stevens,Millsap,73.39,136.08,68.04,158.76,362.87,Single-ply,SBD,M
Boys,74.84,11,Lorenzo Garcia,Strawn,73.3,136.08,70.31,136.08,342.46,Single-ply,SBD,M
Boys,74.84,12,Adrian Jimenez,Hico,73.39,145.15,61.23,129.27,335.66,Single-ply,SBD,M
Boys,74.84,13,Areben Bullard,Hamilton,67.77,124.74,70.31,124.74,319.78,Single-ply,SBD,M
Boys,74.84,14,Colton Cotton,Millsap,69.76,113.4,61.23,115.67,290.3,Single-ply,SBD,M
Boys,74.84,15,Tyler Weimar,Brock,74.66,97.52,77.11,113.4,288.03,Single-ply,SBD,M
Boys,74.84,DQ,Pablo Cruz,Hico,72.48,165.56,,138.35,,Single-ply,SBD,M
Boys,74.84,DQ,Malik Torres,Lometa,68.13,68.04,,102.06,,Single-ply,SBD,M
Boys,74.84,DQ,Hunter Carpenter,Rio Vista,71.21,129.27,,136.08,,Single-ply,SBD,M
Boys,74.84,DQ,Kannen Adams,Tolar,69.4,113.4,77.11,,,Single-ply,SBD,M
Boys,74.84,DQ,Ethan LaGrande,Hamilton,69.04,,,142.88,,Single-ply,SBD,M
Boys,82.1,1,Tanner Hodgkins,Strawn,82.1,226.8,129.27,204.12,560.19,Single-ply,SBD,M
Boys,82.1,2,Martin Najera,Hamilton,79.38,190.51,102.06,226.8,519.36,Single-ply,SBD,M
Boys,82.1,3,Jacob Winter,Lingleville,80.83,183.7,99.79,195.04,478.54,Single-ply,SBD,M
Boys,82.1,4,Staurt Cortez,Hamilton,81.74,174.63,108.86,192.78,476.27,Single-ply,SBD,M
Boys,82.1,5,Jacob Flores,Strawn,80.47,158.76,95.25,185.97,439.98,Single-ply,SBD,M
Boys,82.1,6,James Young,Hamilton,75.66,165.56,97.52,174.63,437.72,Single-ply,SBD,M
Boys,82.1,7,Zack Yost,Clyde,76.02,163.29,97.52,172.37,433.18,Single-ply,SBD,M
Boys,82.1,8,Jared Matzke,Brock,81.65,154.22,102.06,142.88,399.16,Single-ply,SBD,M
Boys,82.1,9,Gage Schade,Millsap,81.37,158.76,81.65,151.95,392.36,Single-ply,SBD,M
Boys,82.1,10,Breagan Berry,Tolar,82.1,161.03,83.91,147.42,392.36,Single-ply,SBD,M
Boys,82.1,11,Dylan Felan,Meridian,78.65,165.56,86.18,133.81,385.55,Single-ply,SBD,M
Boys,82.1,12,Jake Hearn,Brock,78.83,140.61,83.91,124.74,349.27,Single-ply,SBD,M
Boys,82.1,13,Brenden McKinney,Hico,80.92,136.08,68.04,138.35,342.46,Single-ply,SBD,M
Boys,82.1,14,Griffen Fallwell,Whitney,77.84,127.01,77.11,136.08,340.19,Single-ply,SBD,M
Boys,82.1,15,Rhody Duncan,Tolar,80.83,133.81,65.77,136.08,335.66,Single-ply,SBD,M
Boys,82.1,16,Jacob Harvin,Hico,82.1,129.27,70.31,129.27,328.85,Single-ply,SBD,M
Boys,82.1,17,Michael Stephens,Tolar,79.56,58.97,52.16,68.04,179.17,Single-ply,SBD,M
Boys,82.1,DQ,Wesley Miller,Tolar,81.92,102.06,,122.47,,Single-ply,SBD,M
Boys,89.81,1,Gavin Duncan,Strawn,86.09,204.12,102.06,192.78,498.95,Single-ply,SBD,M
Boys,89.81,2,Athen Fish,Clyde,83.73,154.22,97.52,170.1,421.84,Single-ply,SBD,M
Boys,89.81,3,Trevor Herron,Brock,82.83,151.95,97.52,129.27,378.75,Single-ply,SBD,M
Boys,89.81,4,Damien Thomas,Millsap,84.91,149.69,90.72,136.08,376.48,Single-ply,SBD,M
Boys,89.81,5,Brent Batch,Rio Vista,84.37,129.27,74.84,158.76,362.87,Single-ply,SBD,M
Boys,99.79,1,Jacob King,Hamilton,95.25,195.04,92.99,204.12,492.15,Single-ply,SBD,M
Boys,99.79,2,Noble Stevens,Millsap,99.06,185.97,113.4,183.7,483.08,Single-ply,SBD,M
Boys,99.79,3,Kutter McDowell,Clyde,92.26,188.24,106.59,170.1,464.93,Single-ply,SBD,M
Boys,99.79,4,Arturo Guerrero,Millsap,96.52,185.97,97.52,181.44,464.93,Single-ply,SBD,M
Boys,99.79,5,Jacob McNab,Tolar,94.35,174.63,106.59,156.49,437.72,Single-ply,SBD,M
Boys,99.79,6,Karson Zant,Hico,96.25,142.88,65.77,140.61,349.27,Single-ply,SBD,M
Boys,99.79,7,Rayce Holt,Strawn,95.44,120.2,77.11,124.74,322.05,Single-ply,SBD,M
Boys,99.79,DQ,Dalton Bartley,Tolar,98.07,149.69,,140.61,,Single-ply,SBD,M
Boys,109.77,1,Austin Schoonmaker,Clyde,109.13,240.4,140.61,192.78,573.79,Single-ply,SBD,M
Boys,109.77,2,Julio Sanchez,Brock,109.77,215.46,124.74,208.65,548.85,Single-ply,SBD,M
Boys,109.77,3,Daniel Aguilar,Millsap,103.78,206.38,117.93,192.78,517.1,Single-ply,SBD,M
Boys,109.77,4,Stedham Buchanan,Clyde,109.68,195.04,108.86,147.42,451.32,Single-ply,SBD,M
Boys,109.77,5,Damon McClary,Hico,105.6,183.7,88.45,142.88,415.04,Single-ply,SBD,M
Boys,109.77,DQ,Julian Ortuno,Lingleville,109.77,158.76,81.65,,,Single-ply,SBD,M
Boys,109.77,DQ,Max Stava,Brock,103.87,163.29,,158.76,,Single-ply,SBD,M
Boys,109.77,DQ,Daniel McKenzie,Hico,101.51,136.08,,158.76,,Single-ply,SBD,M
Boys,109.77,DQ,Astin Carr,Hamilton,103.69,,113.4,170.1,,Single-ply,SBD,M
Boys,109.77,DQ,Jayden Chancellor,Brock,106.14,,113.4,154.22,,Single-ply,SBD,M
Boys,109.77,DQ,Anthony Coker,Santo,108.59,,115.67,206.38,,Single-ply,SBD,M
Boys,124.74,1,Rob Warren,Hico,122.92,226.8,136.08,204.12,566.99,Single-ply,SBD,M
Boys,124.74,2,Ethan Cumins,Rio Vista,120.38,151.95,97.52,156.49,405.97,Single-ply,SBD,M
Boys,124.74,3,Tyler Crisp,Rio Vista,117.93,158.76,83.91,149.69,392.36,Single-ply,SBD,M
Boys,124.74,4,Troy Lockridge,Hico,121.47,158.76,83.91,138.35,381.02,Single-ply,SBD,M
Boys,124.74+,1,Diesel Ceresini,Hamilton,135.17,249.48,124.74,226.8,601.01,Single-ply,SBD,M
