Division,WeightClassKg,Place,Name,Team,BodyweightKg,Best3SquatKg,Best3BenchKg,Best3DeadliftKg,TotalKg,Equipment,Event,Sex
Boys,51.71,1,Gabriel Hancock,Bovina,51.62,149.69,92.99,158.76,401.43,Single-ply,SBD,M
Boys,55.79,2,Matt Cordova,Amarillo Highland Park,51.89,129.27,81.65,138.35,349.27,Single-ply,SBD,M
Boys,51.71,3,Dang Nguyen,Amarillo Highland Park,51.71,129.27,61.23,138.35,328.85,Single-ply,SBD,M
Boys,51.71,4,Brian Tran,Amarillo Highland Park,47.08,102.06,54.43,117.93,274.42,Single-ply,SBD,M
Boys,51.71,5,Favian Castellanos,Sunray,44.81,106.59,52.16,102.06,260.82,Single-ply,SBD,M
Boys,51.71,6,Juan Moreno,Amarillo Highland Park,51.35,92.99,54.43,104.33,251.74,Single-ply,SBD,M
Boys,51.71,7,Ronnie Doty,Panhandle,48.44,83.91,43.09,106.59,233.6,Single-ply,SBD,M
Boys,51.71,8,Kordell Lawrence,Dalhart,41.37,70.31,38.56,79.38,188.24,Single-ply,SBD,M
Boys,55.79,1,Colten Brown,Stinnett West Texas,53.89,140.61,70.31,149.69,360.61,Single-ply,SBD,M
Boys,55.79,2,Hector Bustillos,Sunray,53.98,131.54,63.5,136.08,331.12,Single-ply,SBD,M
Boys,55.79,3,Fernando Corpus,Amarillo Highland Park,54.16,127.01,61.23,133.81,322.05,Single-ply,SBD,M
Boys,67.13,1,Trent Morgan,Amarillo Highland Park,60.06,136.08,86.18,163.29,385.55,Single-ply,SBD,M
Boys,59.87,2,Fabian Bencomo,Dalhart,59.87,142.88,77.11,158.76,378.75,Single-ply,SBD,M
Boys,67.13,3,Miguel Espino,Perryton,59.96,136.08,81.65,154.22,371.95,Single-ply,SBD,M
Boys,67.13,4,Garrett Ely,Sunray,60.06,136.08,74.84,154.22,365.14,Single-ply,SBD,M
Boys,67.13,5,Ramiro Carmona,Bovina,60.1,136.08,70.31,158.76,365.14,Single-ply,SBD,M
Boys,59.87,6,Ryan Shemwell,Panhandle,58.79,136.08,88.45,138.35,362.87,Single-ply,SBD,M
Boys,59.87,7,Dominic Pham,Amarillo Highland Park,57.24,136.08,72.57,151.95,360.61,Single-ply,SBD,M
Boys,59.87,8,Jason Lee,Amarillo Highland Park,56.43,117.93,61.23,138.35,317.51,Single-ply,SBD,M
Boys,59.87,9,Steven Tello,Dalhart,58.97,108.86,52.16,136.08,297.1,Single-ply,SBD,M
Boys,67.13,DQ,Joey Rios,Dumas,60.1,129.27,,,,Single-ply,SBD,M
Boys,59.87,DQ,Bernie De La Cruz,Bovina,58.42,,,,,Single-ply,SBD,M
Boys,67.13,1,Corey Barker,Clarendon,65.59,176.9,115.67,188.24,480.81,Single-ply,SBD,M
Boys,67.13,2,Joseph Tran,Amarillo Highland Park,64.68,181.44,83.91,185.97,451.32,Single-ply,SBD,M
Boys,67.13,3,Franky Medina,Dalhart,67.13,183.7,102.06,158.76,444.52,Single-ply,SBD,M
Boys,67.13,4,Dominic Baca,Dalhart,66.68,142.88,97.52,188.24,428.64,Single-ply,SBD,M
Boys,67.13,5,Julian Nevarez,Dumas,62.69,138.35,102.06,185.97,426.38,Single-ply,SBD,M
Boys,67.13,6,Eddie Garcia,Friona,65.05,149.69,83.91,172.37,405.97,Single-ply,SBD,M
Boys,67.13,7,Alex Davis,Panhandle,66.41,138.35,68.04,151.95,358.34,Single-ply,SBD,M
Boys,67.13,8,Rene Cantu,Memphis,62.05,120.2,65.77,165.56,351.53,Single-ply,SBD,M
Boys,67.13,9,Julio Sanchez,Perryton,66.04,120.2,70.31,149.69,340.19,Single-ply,SBD,M
Boys,67.13,10,Chuck Durham,Stinnett West Texas,64.95,124.74,63.5,149.69,337.93,Single-ply,SBD,M
Boys,67.13,11,Sammy Sanchez,Amarillo Highland Park,61.78,111.13,68.04,136.08,315.25,Single-ply,SBD,M
Boys,67.13,DQ,Sergio Zapata,Sunray,63.59,,,,,Single-ply,SBD,M
Boys,74.84,1,Adan Ramirez,Friona,68.95,219.99,104.33,190.51,514.83,Single-ply,SBD,M
Boys,74.84,2,Guillermo Davila,Dalhart,74.48,208.65,108.86,195.04,512.56,Single-ply,SBD,M
Boys,82.1,3,Phong Nguyen,Amarillo Highland Park,75.07,185.97,97.52,199.58,483.08,Single-ply,SBD,M
Boys,74.84,4,Dalten Lumen,Panhandle,73.39,158.76,95.25,176.9,430.91,Single-ply,SBD,M
Boys,82.1,5,Andrew Bichsel,White Deer,75.02,151.95,106.59,165.56,424.11,Single-ply,SBD,M
Boys,82.1,6,Austin Bullock,Bushland,74.93,156.49,83.91,174.63,415.04,Single-ply,SBD,M
Boys,74.84,7,Orlando Hidalgo,Perryton,73.39,156.49,81.65,174.63,412.77,Single-ply,SBD,M
Boys,74.84,8,Dustin Baumgardner,Panhandle,70.4,142.88,83.91,158.76,385.55,Single-ply,SBD,M
Boys,74.84,9,Dominiqe De la Rosa,Sunray,74.12,151.95,74.84,158.76,385.55,Single-ply,SBD,M
Boys,74.84,10,Samuel Mandujano,Perryton,72.39,142.88,90.72,149.69,383.29,Single-ply,SBD,M
Boys,74.84,11,Elton Anthony,Amarillo Palo Duro,68.49,142.88,79.38,158.76,381.02,Single-ply,SBD,M
Boys,74.84,12,Logan Lamberson,Panhandle,74.39,124.74,81.65,163.29,369.68,Single-ply,SBD,M
Boys,74.84,13,Jace Taylor,Stinnett West Texas,71.67,140.61,70.31,136.08,347,Single-ply,SBD,M
Boys,74.84,14,Efarian Martinez,Bovina,74.66,115.67,79.38,142.88,337.93,Single-ply,SBD,M
Boys,74.84,15,Clayton Pipes,White Deer,71.21,111.13,77.11,136.08,324.32,Single-ply,SBD,M
Boys,74.84,16,Lamarcus Yannis,Memphis,71.67,113.4,61.23,136.08,310.71,Single-ply,SBD,M
Boys,74.84,17,Stephen Carter,Panhandle,70.03,99.79,61.23,113.4,274.42,Single-ply,SBD,M
Boys,74.84,18,Bryce Day,Borger,69.76,97.52,68.04,102.06,267.62,Single-ply,SBD,M
Boys,74.84,DQ,Aldo Ramirez,Perryton,71.21,,,,,Single-ply,SBD,M
Boys,74.84,DQ,Chanz Garcia,Perryton,70.22,,,,,Single-ply,SBD,M
Boys,82.1,1,Alexis Mendoza,Sunray,78.74,197.31,99.79,197.31,494.42,Single-ply,SBD,M
Boys,82.1,2,Anthony Mcclain,Amarillo Palo Duro,79.83,181.44,113.4,195.04,489.88,Single-ply,SBD,M
Boys,82.1,3,Michael Garcia,Friona,76.11,181.44,115.67,181.44,478.54,Single-ply,SBD,M
Boys,82.1,4,Lamonte Dickson,Memphis,80.74,158.76,108.86,188.24,455.86,Single-ply,SBD,M
Boys,82.1,5,Courtney Gravely,Amarillo Highland Park,77.2,131.54,95.25,181.44,408.23,Single-ply,SBD,M
Boys,82.1,6,Jake Hembree,Dalhart,77.11,158.76,90.72,154.22,403.7,Single-ply,SBD,M
Boys,82.1,7,Marcus Ortiz,Borger,78.56,154.22,83.91,163.29,401.43,Single-ply,SBD,M
Boys,82.1,8,Jonathon Anderson,Sunray,76.02,154.22,90.72,151.95,396.89,Single-ply,SBD,M
Boys,82.1,9,Aaron Arellanes,Dumas,76.57,133.81,81.65,158.76,374.21,Single-ply,SBD,M
Boys,82.1,10,Gage Alexander,Panhandle,76.11,115.67,70.31,131.54,317.51,Single-ply,SBD,M
Boys,82.1,11,Jt Bennett,Stinnett West Texas,77.2,102.06,74.84,102.06,278.96,Single-ply,SBD,M
Boys,89.81,1,Kalub Williams,Memphis,86.18,181.44,108.86,204.12,494.42,Single-ply,SBD,M
Boys,89.81,2,Gabe Marquez,Dalhart,88.45,192.78,113.4,181.44,487.61,Single-ply,SBD,M
Boys,89.81,3,Kevin Olvera,Perryton,87.09,206.38,97.52,170.1,474,Single-ply,SBD,M
Boys,89.81,4,Cody Duran,Memphis,85.82,215.46,90.72,156.49,462.66,Single-ply,SBD,M
Boys,89.81,5,Loenel Carrillo,Bovina,86.91,142.88,106.59,176.9,426.38,Single-ply,SBD,M
Boys,89.81,6,Travis Sullivan,Sunray,82.83,174.63,92.99,154.22,421.84,Single-ply,SBD,M
Boys,89.81,7,Tory Collins,Memphis,88.18,176.9,79.38,163.29,419.57,Single-ply,SBD,M
Boys,89.81,8,Adam Jones,Panhandle,86.73,154.22,86.18,176.9,417.3,Single-ply,SBD,M
Boys,89.81,9,Hector Lopez,Bovina,87.91,142.88,97.52,165.56,405.97,Single-ply,SBD,M
Boys,89.81,10,Cesar Calderon,Sunray,86.64,142.88,90.72,165.56,399.16,Single-ply,SBD,M
Boys,89.81,11,Coltan Gill,Dumas,84.82,131.54,77.11,154.22,362.87,Single-ply,SBD,M
Boys,89.81,12,Obed Lujan,Dalhart,86.18,147.42,83.91,124.74,356.07,Single-ply,SBD,M
Boys,89.81,13,Rojelio Calderon,Sunray,82.64,138.35,72.57,142.88,353.8,Single-ply,SBD,M
Boys,89.81,14,Kendall Anders,Amarillo Highland Park,85.37,136.08,72.57,136.08,344.73,Single-ply,SBD,M
Boys,89.81,15,Jonathan Navarrete,Perryton,88.63,124.74,65.77,120.2,310.71,Single-ply,SBD,M
Boys,99.79,1,Octavius Ledbetter,Memphis,98.25,244.94,133.81,213.19,591.94,Single-ply,SBD,M
Boys,99.79,2,Javier Torres,Dalhart,97.07,188.24,102.06,192.78,483.08,Single-ply,SBD,M
Boys,99.79,3,Samuel Jalomo,Dumas,90.9,170.1,113.4,183.7,467.2,Single-ply,SBD,M
Boys,99.79,4,Tyler Brewer,Dalhart,95.25,183.7,90.72,192.78,467.2,Single-ply,SBD,M
Boys,99.79,5,Anthony Anzuldua,Dalhart,99.06,174.63,106.59,181.44,462.66,Single-ply,SBD,M
Boys,99.79,6,Sergio Orozco,Dalhart,96.71,181.44,106.59,172.37,460.4,Single-ply,SBD,M
Boys,99.79,7,Matthew Graham,Bushland,99.06,174.63,106.59,165.56,446.79,Single-ply,SBD,M
Boys,99.79,8,Cory Throgmorton,Panhandle,91.08,149.69,120.2,161.03,430.91,Single-ply,SBD,M
Boys,99.79,9,Rance Hargrove,Memphis,97.79,156.49,79.38,172.37,408.23,Single-ply,SBD,M
Boys,109.77,10,Andrew Smith,Panhandle,100.02,151.95,88.45,151.95,392.36,Single-ply,SBD,M
Boys,99.79,11,Casey Boyd,Bushland,98.88,124.74,86.18,149.69,360.61,Single-ply,SBD,M
Boys,109.77,1,Marcus Trujillo,Dalhart,100.7,265.35,124.74,210.92,601.01,Single-ply,SBD,M
Boys,109.77,2,Spencer Holsey,Borger,108.14,222.26,115.67,233.6,571.53,Single-ply,SBD,M
Boys,109.77,3,Cameron Patterson,Dumas,105.14,188.24,136.08,215.46,539.77,Single-ply,SBD,M
Boys,109.77,4,Evan Putman,White Deer,102.51,172.37,127.01,190.51,489.88,Single-ply,SBD,M
Boys,109.77,5,Joel Salas,Bovina,103.33,183.7,108.86,190.51,483.08,Single-ply,SBD,M
Boys,109.77,6,Juan Samarron,Friona,107.05,183.7,113.4,172.37,469.47,Single-ply,SBD,M
Boys,109.77,7,JR Rodriguez,Bushland,107.59,161.03,113.4,179.17,453.59,Single-ply,SBD,M
Boys,109.77,8,Julian Martinez,Bovina,105.41,176.9,83.91,167.83,428.64,Single-ply,SBD,M
Boys,109.77,9,Eric Loza,Dumas,105.6,149.69,92.99,174.63,417.3,Single-ply,SBD,M
Boys,109.77,10,Bruno Talamantes,Dumas,107.59,145.15,92.99,149.69,387.82,Single-ply,SBD,M
Boys,109.77,11,Dakota McWhorter,Panhandle,100.15,142.88,90.72,142.88,376.48,Single-ply,SBD,M
Boys,109.77,12,Aaron Williams,Sunray,104.69,158.76,79.38,136.08,374.21,Single-ply,SBD,M
Boys,109.77,13,Colt Eaton,Dalhart,104.78,147.42,43.09,158.76,349.27,Single-ply,SBD,M
Boys,109.77,NS,Chandler Sepulveda,Stinnett West Texas,,,,,,Single-ply,SBD,M
Boys,124.74,1,Jobe Allen,Stinnett West Texas,124.47,231.33,129.27,204.12,564.72,Single-ply,SBD,M
Boys,124.74,2,Justin Lewis,Amarillo Palo Duro,119.39,170.1,102.06,183.7,455.86,Single-ply,SBD,M
Boys,124.74,3,Javier Gonzalez,Borger,111.86,142.88,86.18,170.1,399.16,Single-ply,SBD,M
Boys,124.74,4,Rodrigo Calderon,Sunray,121.56,149.69,83.91,163.29,396.89,Single-ply,SBD,M
Boys,124.74,5,Stephen Mosier,Memphis,113.4,136.08,97.52,147.42,381.02,Single-ply,SBD,M
Boys,124.74,6,Eli Tompkins,Panhandle,122.65,129.27,102.06,142.88,374.21,Single-ply,SBD,M
Boys,124.74,7,Hunter Pool,Panhandle,117.66,151.95,72.57,142.88,367.41,Single-ply,SBD,M
Boys,124.74,8,Tucker Wise,Panhandle,122.65,104.33,74.84,142.88,322.05,Single-ply,SBD,M
Boys,124.74,DQ,O'Scotty Castro,Dalhart,118.02,,,,,Single-ply,SBD,M
Boys,124.74+,1,Kyle Weiss #1,Panhandle,136.35,254.01,165.56,215.46,635.03,Single-ply,SBD,M
Boys,124.74+,2,Austen McNelly,Clarendon,167.83,256.28,145.15,208.65,610.08,Single-ply,SBD,M
Boys,124.74+,3,Cole Keenan,Dumas,127.91,204.12,124.74,210.92,539.77,Single-ply,SBD,M
Boys,124.74+,4,Justin Barrera,Dalhart,125.65,219.99,90.72,188.24,498.95,Single-ply,SBD,M
Boys,124.74+,5,Colby Roach,Panhandle,129.73,195.04,92.99,181.44,469.47,Single-ply,SBD,M
Boys,124.74+,6,Jose Duran,Memphis,139.25,140.61,65.77,147.42,353.8,Single-ply,SBD,M
Boys,124.74+,DQ,Brian Chavez,Amarillo Palo Duro,136.58,265.35,,,,Single-ply,SBD,M
Boys,,NS,Wes Escamilla,Amarillo Highland Park,,,,,,Single-ply,SBD,M
Boys,,NS,Daniel Orona,Borger,,,,,,Single-ply,SBD,M
Boys,,NS,Camilo de la Rosa,Bovina,,,,,,Single-ply,SBD,M
Boys,,NS,Pedro Domingo,Bovina,,,,,,Single-ply,SBD,M
Boys,,NS,Brian Garcia,Bovina,,,,,,Single-ply,SBD,M
Boys,,NS,Logan Kilpatrick,Bovina,,,,,,Single-ply,SBD,M
Boys,,NS,Jesus Sanchez,Bovina,,,,,,Single-ply,SBD,M
Boys,,NS,Landon Warren,Bushland,,,,,,Single-ply,SBD,M
Boys,,NS,Blas Gonzales,Bovina,,,,,,Single-ply,SBD,M
Boys,,NS,John Howsmon,White Deer,,,,,,Single-ply,SBD,M
Boys,,NS,Jaxon Rogers,White Deer,,,,,,Single-ply,SBD,M
Boys,,NS,Bobby Baker,White Deer,,,,,,Single-ply,SBD,M
Boys,,NS,Coleton Ingram,White Deer,,,,,,Single-ply,SBD,M
Boys,,NS,Nathaniel Mitchell,White Deer,,,,,,Single-ply,SBD,M
Boys,,NS,Isaias Anaya,Perryton,,,,,,Single-ply,SBD,M
Boys,,NS,Dokata Anaya,Perryton,,,,,,Single-ply,SBD,M
Boys,,NS,Jimmy Rodriguez,Perryton,,,,,,Single-ply,SBD,M
Boys,,NS,Seth Witt,Panhandle,,,,,,Single-ply,SBD,M
Boys,,NS,Adrian Chavez,Panhandle,,,,,,Single-ply,SBD,M
Boys,,NS,Alex Chavez,Perryton,,,,,,Single-ply,SBD,M
