Name,Sex,WeightClassKg,School,Division,Event,Best3SquatKg,Best3BenchKg,Best3DeadliftKg,TotalKg,Equipment,Place
Carlos Nava,M,52,South,Frosh/Soph Junior Varsity,SBD,81.65,54.43,83.91,219.99,Single-ply,1
Jose Leandro,M,52,Golden Valley,Frosh/Soph Junior Varsity,SBD,47.63,47.63,88.45,183.7,Single-ply,2
George Olvera,M,52,Golden Valley,Frosh/Soph Junior Varsity,SBD,38.56,31.75,79.38,149.69,Single-ply,3
Cesar Espinoza,M,56,South,Frosh/Soph Junior Varsity,SBD,111.13,70.31,129.27,310.71,Single-ply,1
Eduardo Monterrosas,M,56,South,Frosh/Soph Junior Varsity,SBD,111.13,52.16,129.27,292.57,Single-ply,2
Sovanndara Y,M,56,South,Frosh/Soph Junior Varsity,SD,92.99,,129.27,222.26,Single-ply,1
Jonathan Torres,M,56,Golden Valley,Frosh/Soph Junior Varsity,SBD,47.63,61.23,92.99,201.85,Single-ply,3
Michael Lopez,M,56,Golden Valley,Frosh/Soph Junior Varsity,SBD,52.16,49.9,79.38,181.44,Single-ply,4
Erick Valle,M,60,Foothill,Frosh/Soph Junior Varsity,SBD,83.91,81.65,142.88,308.44,Single-ply,1
Valerie Valenzuela,F,60,Foothill,Frosh/Soph Junior Varsity,SBD,34.02,45.36,68.04,147.42,Single-ply,1
Clayton Wilson #1,M,67.5,Liberty,Frosh/Soph Junior Varsity,SBD,124.74,83.91,147.42,356.07,Single-ply,1
Brandon Elsey,M,67.5,Foothill,Frosh/Soph Junior Varsity,SBD,92.99,79.38,133.81,306.17,Single-ply,2
Artie Jimenez,M,67.5,Golden Valley,Frosh/Soph Junior Varsity,SBD,106.59,61.23,120.2,288.03,Single-ply,3
Roger Hebert,M,67.5,South,Frosh/Soph Junior Varsity,SBD,102.06,56.7,124.74,283.5,Single-ply,4
Mike Gibson,M,67.5,Golden Valley,Frosh/Soph Junior Varsity,SBD,77.11,54.43,102.06,233.6,Single-ply,5
Jacob Wiseman,M,67.5,Golden Valley,Frosh/Soph Junior Varsity,SD,108.86,,124.74,233.6,Single-ply,6
Anthony Gary,M,75,Golden Valley,Frosh/Soph Junior Varsity,SBD,120.2,102.06,181.44,403.7,Single-ply,1
Travion Cotton,M,75,Golden Valley,Frosh/Soph Junior Varsity,SBD,129.27,79.38,142.88,351.53,Single-ply,2
Kevin Smith,M,75,Liberty,Frosh/Soph Junior Varsity,SBD,92.99,77.11,156.49,326.59,Single-ply,3
Chris Gonzalez,M,75,South,Frosh/Soph Junior Varsity,SBD,106.59,74.84,136.08,317.51,Single-ply,4
William Velasquez,M,75,South,Frosh/Soph Junior Varsity,SBD,102.06,52.16,113.4,267.62,Single-ply,5
Oscar Rivera,M,75,South,Frosh/Soph Junior Varsity,SBD,86.18,45.36,113.4,244.94,Single-ply,6
Blake Van Ness,M,75,East,Frosh/Soph Junior Varsity,BD,,92.99,90.72,183.7,Single-ply,7
Fernando Leos,M,82.5,Foothill,Frosh/Soph Junior Varsity,SBD,106.59,92.99,156.49,356.07,Single-ply,1
Chris Bolts,M,82.5,Liberty,Frosh/Soph Junior Varsity,BD,,86.18,140.61,226.8,Single-ply,2
Brandon Rios #1,M,82.5,East,Frosh/Soph Junior Varsity,D,,,138.35,138.35,Single-ply,3
Rane Cravens,M,90,Liberty,Frosh/Soph Junior Varsity,SBD,170.1,120.2,206.38,496.68,Single-ply,1
Donte Lafaitte,M,90,Golden Valley,Frosh/Soph Junior Varsity,SBD,131.54,92.99,147.42,371.95,Single-ply,2
Dustin Willey,M,90,Central Catholic,Frosh/Soph Junior Varsity,SBD,142.88,83.91,142.88,369.68,Single-ply,3
Chris Cruz,M,90,Foothill,Frosh/Soph Junior Varsity,SBD,133.81,70.31,151.95,356.07,Single-ply,4
Blake Baxter,M,90,East,Frosh/Soph Junior Varsity,SBD,92.99,92.99,136.08,322.05,Single-ply,5
Marisol Gutierrez,F,90,Foothill,Frosh/Soph Junior Varsity,SBD,95.25,56.7,92.99,244.94,Single-ply,1
Brady Burk,M,100,Liberty,Frosh/Soph Junior Varsity,SBD,210.92,61.23,213.19,485.34,Single-ply,1
Kyle Norrel,M,100,Foothill,Frosh/Soph Junior Varsity,SBD,142.88,92.99,151.95,387.82,Single-ply,2
Jake Campos,M,100,East,Frosh/Soph Junior Varsity,SBD,151.95,79.38,151.95,383.29,Single-ply,3
Eric Duarte,M,100,Golden Valley,Frosh/Soph Junior Varsity,SBD,142.88,90.72,147.42,381.02,Single-ply,4
Oscar Lainez,M,100,Foothill,Frosh/Soph Junior Varsity,SBD,90.72,77.11,115.67,283.5,Single-ply,5
Ricardo Figeroa,M,100,Golden Valley,Frosh/Soph Junior Varsity,SD,102.06,,142.88,244.94,Single-ply,6
Mark Ornales,M,100,Golden Valley,Frosh/Soph Junior Varsity,SB,127.01,61.23,,188.24,Single-ply,7
Memo Torres,M,110,Golden Valley,Frosh/Soph Junior Varsity,SBD,195.04,90.72,197.31,483.08,Single-ply,1
Cody Temple,M,110,Liberty,Frosh/Soph Junior Varsity,SBD,181.44,106.59,183.7,471.74,Single-ply,2
Jonathan Mata,M,110,Foothill,Frosh/Soph Junior Varsity,SBD,151.95,102.06,183.7,437.72,Single-ply,3
Fernando Munoz,M,110,Golden Valley,Frosh/Soph Junior Varsity,SBD,147.42,61.23,142.88,351.53,Single-ply,4
Carlos Martinez,M,125,Golden Valley,Frosh/Soph Junior Varsity,SBD,149.69,106.59,142.88,399.16,Single-ply,1
Zack Pittman,M,125,East,Frosh/Soph Junior Varsity,SBD,117.93,95.25,181.44,394.63,Single-ply,2
Julio Ragla,M,125,South,Frosh/Soph Junior Varsity,BD,,102.06,183.7,285.76,Single-ply,3
Leo Rubi,M,125+,Liberty,Frosh/Soph Junior Varsity,BD,,120.2,183.7,303.91,Single-ply,1
Erik Palacios,M,125+,Golden Valley,Frosh/Soph Junior Varsity,S,165.56,,,165.56,Single-ply,2
Andrew Yasania,M,60,East,Junior/Senior Varsity,SBD,102.06,86.18,142.88,331.12,Single-ply,1
Joshua Carrillo,M,60,East,Junior/Senior Varsity,SBD,92.99,83.91,120.2,297.1,Single-ply,2
Christian Reyes,M,60,Golden Valley,Junior/Senior Varsity,BD,,97.52,129.27,226.8,Single-ply,3
James Hannah,M,67.5,Foothill,Junior/Senior Varsity,SBD,124.74,102.06,161.03,387.82,Single-ply,1
Greg Gounder,M,67.5,Liberty,Junior/Senior Varsity,SBD,124.74,106.59,156.49,387.82,Single-ply,2
Scott Johnson,M,67.5,Del Campo,Junior/Senior Varsity,SBD,124.74,83.91,176.9,385.55,Single-ply,3
Jorge Peek,M,67.5,Golden Valley,Junior/Senior Varsity,SBD,108.86,97.52,124.74,331.12,Single-ply,4
Arnold Nava,M,67.5,Golden Valley,Junior/Senior Varsity,SBD,102.06,72.57,136.08,310.71,Single-ply,5
Ryan Taylor,M,67.5,Liberty,Junior/Senior Varsity,SBD,92.99,61.23,147.42,301.64,Single-ply,6
Colton Lopez,M,67.5,East,Junior/Senior Varsity,SBD,83.91,83.91,129.27,297.1,Single-ply,7
Raul Moreno,M,67.5,Foothill,Junior/Senior Varsity,SBD,70.31,83.91,124.74,278.96,Single-ply,8
Oscar Reyes,M,67.5,Golden Valley,Junior/Senior Varsity,SB,113.4,79.38,,192.78,Single-ply,10
Sydney Mitchell,F,67.5,Centennial,Junior/Senior Varsity,SBD,74.84,49.9,86.18,210.92,Single-ply,9
Byron Newman,M,75,Golden Valley,Junior/Senior Varsity,SBD,199.58,111.13,188.24,498.95,Single-ply,1
Bruce Escalante,M,75,Liberty,Junior/Senior Varsity,SBD,167.83,111.13,174.63,453.59,Single-ply,2
Roland Madera,M,75,Foothill,Junior/Senior Varsity,SBD,124.74,97.52,167.83,390.09,Single-ply,3
Robert Wilcox,M,75,South,Junior/Senior Varsity,SBD,120.2,83.91,147.42,351.53,Single-ply,4
Sam Ennis,M,75,Golden Valley,Junior/Senior Varsity,SBD,124.74,79.38,142.88,347,Single-ply,5
Frank Villa,M,75,Foothill,Junior/Senior Varsity,SBD,115.67,83.91,142.88,342.46,Single-ply,6
Jacob Arambula,M,75,Golden Valley,Junior/Senior Varsity,SBD,124.74,61.23,142.88,328.85,Single-ply,7
Herbert Moreno,M,75,Foothill,Junior/Senior Varsity,BD,,102.06,165.56,267.62,Single-ply,8
Cody Henderson,M,82.5,Del Campo,Junior/Senior Varsity,SBD,174.63,117.93,208.65,501.22,Single-ply,1
Sean Southard,M,82.5,Del Campo,Junior/Senior Varsity,SBD,145.15,86.18,190.51,421.84,Single-ply,2
Anthony Perez,M,82.5,Golden Valley,Junior/Senior Varsity,SBD,111.13,92.99,199.58,403.7,Single-ply,3
George Corral,M,82.5,Golden Valley,Junior/Senior Varsity,SBD,136.08,92.99,151.95,381.02,Single-ply,4
Greg Bolts,M,82.5,Liberty,Junior/Senior Varsity,SBD,115.67,79.38,142.88,337.93,Single-ply,5
Ivan Cuellar,M,82.5,East,Junior/Senior Varsity,B,,102.06,,102.06,Single-ply,6
Blayne Davidson,M,90,South,Junior/Senior Varsity,SBD,158.76,102.06,210.92,471.74,Single-ply,1
Raymond Garcia,M,90,Del Campo,Junior/Senior Varsity,SBD,158.76,122.47,172.37,453.59,Single-ply,2
Russel Webster,M,90,South,Junior/Senior Varsity,SBD,158.76,99.79,165.56,424.11,Single-ply,3
Steven Covella,M,90,Del Campo,Junior/Senior Varsity,SBD,161.03,79.38,172.37,412.77,Single-ply,4
Andrew Martinez,M,90,Foothill,Junior/Senior Varsity,SBD,142.88,92.99,174.63,410.5,Single-ply,5
Michael Cesmat,M,90,Liberty,Junior/Senior Varsity,SBD,124.74,106.59,174.63,405.97,Single-ply,6
Pablo Landeros,M,90,Golden Valley,Junior/Senior Varsity,SBD,129.27,102.06,158.76,390.09,Single-ply,7
Eric Berry,M,100,Golden Valley,Junior/Senior Varsity,SBD,142.88,120.2,215.46,478.54,Single-ply,1
Dakota Martin,M,100,Del Campo,Junior/Senior Varsity,SBD,149.69,102.06,190.51,442.25,Single-ply,2
Michael Lockridge,M,100,Liberty,Junior/Senior Varsity,SBD,142.88,90.72,147.42,381.02,Single-ply,3
Cody Blackburn,M,110,Ridgeview,Junior/Senior Varsity,SBD,219.99,111.13,229.06,560.19,Single-ply,1
Hector Delgado,M,110,Foothill,Junior/Senior Varsity,SBD,161.03,79.38,183.7,424.11,Single-ply,2
Sean Santillan,M,125,Liberty,Junior/Senior Varsity,SBD,210.92,151.95,219.99,582.87,Single-ply,1
John Perez #1,M,125,Golden Valley,Junior/Senior Varsity,SBD,156.49,124.74,215.46,496.68,Single-ply,2
Terrell Moya,M,125,South,Junior/Senior Varsity,SBD,183.7,113.4,183.7,480.81,Single-ply,3
Aaron Sy,M,125,Golden Valley,Junior/Senior Varsity,SBD,158.76,102.06,192.78,453.59,Single-ply,4
Vince Aragon,M,125,East,Junior/Senior Varsity,SBD,154.22,102.06,192.78,449.06,Single-ply,5
Angel Posadas,M,125,Foothill,Junior/Senior Varsity,SBD,147.42,124.74,170.1,442.25,Single-ply,6
JC Spradling,M,125,Foothill,Junior/Senior Varsity,SD,72.57,,142.88,215.46,Single-ply,7
Jose Dominguez,M,125,Highland,Junior/Senior Varsity,D,,,197.31,197.31,Single-ply,8
Mike Juarez,M,125,Golden Valley,Junior/Senior Varsity,S,151.95,,,151.95,Single-ply,9
Mark Folweiler,M,125+,Liberty,Junior/Senior Varsity,SBD,272.16,129.27,222.26,623.69,Single-ply,1
Daniel Swainston,M,125+,Liberty,Junior/Senior Varsity,SBD,142.88,120.2,201.85,464.93,Single-ply,2
Richie Muro,M,125+,South,Junior/Senior Varsity,SD,174.63,,183.7,358.34,Single-ply,3
Blake Stockton,M,125+,Redwood,Junior/Senior Varsity,BD,,113.4,238.14,351.53,Single-ply,4
Enrique Rojas,M,125+,East,Junior/Senior Varsity,BD,,113.4,192.78,306.17,Single-ply,5
Gabe Carlos,M,125+,Golden Valley,Junior/Senior Varsity,S,165.56,,,165.56,Single-ply,6
