Division,WeightClassKg,Place,Name,Team,BodyweightKg,Best3SquatKg,Best3BenchKg,Best3DeadliftKg,TotalKg,Equipment,Event,Sex
Div 2,51.71,1,Johnny Adair,Sealy,49.26,154.22,81.65,172.37,408.23,Single-ply,SBD,M
Div 2,51.71,2,Jerry Lopez,Port Isabel,51.35,163.29,83.91,149.69,396.89,Single-ply,SBD,M
Div 2,51.71,3,Joey Adair,Sealy,48.26,145.15,81.65,163.29,390.09,Single-ply,SBD,M
Div 2,55.79,4,Dylan Elkins,Needville,51.89,145.15,99.79,145.15,390.09,Single-ply,SBD,M
Div 2,51.71,5,Chantz Mickens,Palestine Westwood,50.8,154.22,79.38,145.15,378.75,Single-ply,SBD,M
Div 2,51.71,6,Daniel Porras,Orange Grove,51.07,140.61,70.31,163.29,374.21,Single-ply,SBD,M
Div 2,51.71,7,Reese Turner,Tyler Chapel Hill,51.53,136.08,70.31,154.22,360.61,Single-ply,SBD,M
Div 2,51.71,8,Zach Ramirez,Decatur,50.71,136.08,72.57,142.88,351.53,Single-ply,SBD,M
Div 2,55.79,9,Dustin Richardson,Lake Worth,51.89,111.13,61.23,167.83,340.19,Single-ply,SBD,M
Div 2,51.71,10,Jose Garcia,Brownfield,49.99,104.33,63.5,129.27,297.1,Single-ply,SBD,M
Div 2,51.71,11,Daniel Valenzuela,Pecos,51.71,113.4,58.97,122.47,294.84,Single-ply,SBD,M
Div 2,51.71,12,Regan Ficken,Orangefield,48.9,127.01,56.7,108.86,292.57,Single-ply,SBD,M
Div 2,55.79,1,Dillan Brown,Decatur,54.79,195.04,99.79,188.24,483.08,Single-ply,SBD,M
Div 2,59.87,2,Michael McIntire,Taylor,55.88,195.04,99.79,181.44,476.27,Single-ply,SBD,M
Div 2,55.79,3,Camron Senters,Burkburnett,55.34,183.7,92.99,179.17,455.86,Single-ply,SBD,M
Div 2,55.79,4,Dallas de la Cruz,Mathis,55.11,174.63,83.91,188.24,446.79,Single-ply,SBD,M
Div 2,55.79,5,Hunter Skelton,Bullard,55.25,151.95,90.72,195.04,437.72,Single-ply,SBD,M
Div 2,55.79,6,John Guillen,Lytle,55.79,167.83,102.06,167.83,437.72,Single-ply,SBD,M
Div 2,55.79,7,Jage Smith,Kaufman,55.25,154.22,79.38,195.04,428.64,Single-ply,SBD,M
Div 2,55.79,8,Marcos Mendoza,Salado,55.34,163.29,92.99,156.49,412.77,Single-ply,SBD,M
Div 2,55.79,9,Michael Latapie,Palacios,55.61,147.42,108.86,145.15,401.43,Single-ply,SBD,M
Div 2,55.79,10,Zach Hernandez,Big Spring,54.79,154.22,79.38,161.03,394.63,Single-ply,SBD,M
Div 2,55.79,11,Brett Salas,Lubbock Cooper,54.61,149.69,74.84,167.83,392.36,Single-ply,SBD,M
Div 2,55.79,DQ,Josh Courvelle,Shepherd,55.7,,,,,Single-ply,SBD,M
Div 2,59.87,1,Brandan Corn,Liberty Hill,59.6,206.38,122.47,204.12,532.97,Single-ply,SBD,M
Div 2,59.87,2,Victor Aguilar,Caldwell,57.06,204.12,124.74,179.17,508.02,Single-ply,SBD,M
Div 2,59.87,3,Alejandro Beltran,Decatur,59.06,188.24,108.86,185.97,483.08,Single-ply,SBD,M
Div 2,59.87,4,Angel Guerrero,Levelland,59.51,204.12,79.38,190.51,474,Single-ply,SBD,M
Div 2,67.13,5,Coe Kubicek,Seminole,59.96,183.7,102.06,183.7,469.47,Single-ply,SBD,M
Div 2,59.87,6,Aj Durham,Kemp,59.69,190.51,111.13,163.29,464.93,Single-ply,SBD,M
Div 2,59.87,7,Caleb Gale,Somerset,58.88,172.37,88.45,197.31,458.13,Single-ply,SBD,M
Div 2,59.87,8,Hunter Stout,Bridge City,59.15,179.17,88.45,183.7,451.32,Single-ply,SBD,M
Div 2,59.87,9,Tj Howard,Texarkana Liberty-Eylau,59.15,163.29,102.06,163.29,428.64,Single-ply,SBD,M
Div 2,59.87,DQ,Felipe Medina,Zapata,59.87,,,,,Single-ply,SBD,M
Div 2,59.87,DQ,David Tsan,Orangefield,59.42,183.7,86.18,,,Single-ply,SBD,M
Div 2,59.87,DQ,Sean Guinyard,Kennedale,59.15,195.04,,,,Single-ply,SBD,M
Div 2,67.13,1,Kyle Bawcum,Paris,66.95,276.69,158.76,215.46,650.91,Single-ply,SBD,M
Div 2,74.84,2,Tyrell Irby,Waco La Vega,67.22,235.87,147.42,256.28,639.57,Single-ply,SBD,M
Div 2,67.13,3,Roy Butler,Texarkana Liberty-Eylau,66.77,226.8,149.69,208.65,585.13,Single-ply,SBD,M
Div 2,67.13,4,Kaleb Walker,Columbus,66.59,217.72,127.01,226.8,571.53,Single-ply,SBD,M
Div 2,67.13,5,Alex Leos,Robinson,66.77,235.87,117.93,217.72,571.53,Single-ply,SBD,M
Div 2,67.13,6,Chavin Scales,Whitesboro,64.14,204.12,147.42,192.78,544.31,Single-ply,SBD,M
Div 2,67.13,7,Phong Tran,Rockport-Fulton,66.22,197.31,120.2,206.38,523.9,Single-ply,SBD,M
Div 2,67.13,8,Choeung Sei,Snyder,66.95,208.65,115.67,192.78,517.1,Single-ply,SBD,M
Div 2,74.84,9,Brad LaMach,West Columbia,67.22,201.85,102.06,213.19,517.1,Single-ply,SBD,M
Div 2,67.13,10,Matthew Nguyen,Palacios,66.59,197.31,104.33,208.65,510.29,Single-ply,SBD,M
Div 2,67.13,11,Dusty Ortiz,Lamesa,66.32,188.24,106.59,176.9,471.74,Single-ply,SBD,M
Div 2,67.13,12,Zach Remily,Bowie,61.05,195.04,106.59,165.56,467.2,Single-ply,SBD,M
Div 2,74.84,1,Britton Lindsey,West Orange-Stark,73.12,251.74,138.35,247.21,637.3,Single-ply,SBD,M
Div 2,74.84,2,Austin Simmons,Hamshire-Fannett,71.4,226.8,201.85,201.85,630.49,Single-ply,SBD,M
Div 2,74.84,3,Kendrick Armstead,Navasota,73.84,263.08,131.54,229.06,623.69,Single-ply,SBD,M
Div 2,74.84,4,Damian Kozak,Groesbeck,74.75,244.94,149.69,222.26,616.89,Single-ply,SBD,M
Div 2,74.84,5,Danny Flores,Zapata,74.57,226.8,142.88,240.4,610.08,Single-ply,SBD,M
Div 2,74.84,6,Arturo Cervantez,Crystal City,74.12,240.4,138.35,222.26,601.01,Single-ply,SBD,M
Div 2,74.84,7,Matt Thompson,Paris,73.75,229.06,147.42,217.72,594.21,Single-ply,SBD,M
Div 2,74.84,8,Colbey Watson,Iowa Park,74.48,208.65,133.81,215.46,557.92,Single-ply,SBD,M
Div 2,74.84,9,Dawson Hawthorne,Graham,72.67,195.04,122.47,206.38,523.9,Single-ply,SBD,M
Div 2,74.84,10,Sam Nemir,Sweetwater,74.12,195.04,120.2,197.31,512.56,Single-ply,SBD,M
Div 2,74.84,11,Ryan Linebaugh,Sweetwater,70.31,181.44,108.86,199.58,489.88,Single-ply,SBD,M
Div 2,74.84,DQ,Pedro Molina,Somerset,74.48,204.12,,,,Single-ply,SBD,M
Div 2,74.84,DQ,Jordan Taylor,Waco La Vega,69.85,213.19,,,,Single-ply,SBD,M
Div 2,74.84,DQ,Johnny Kilgore,Kemp,74.66,222.26,127.01,,,Single-ply,SBD,M
Div 2,89.81,1,D'Vonte Daniels,La Grange,82.28,258.55,172.37,249.48,680.39,Single-ply,SBD,M
Div 2,82.1,2,Tyler McCoy,Giddings,78.29,244.94,156.49,233.6,635.03,Single-ply,SBD,M
Div 2,82.1,3,Jesus Vargas,Celina,79.11,217.72,149.69,242.67,610.08,Single-ply,SBD,M
Div 2,82.1,4,Zack Romine,Burkburnett,78.65,231.33,142.88,233.6,607.81,Single-ply,SBD,M
Div 2,82.1,5,Brandon Armstrong,Pittsburg,81.74,254.01,136.08,215.46,605.55,Single-ply,SBD,M
Div 2,82.1,6,Dylan Winkle,Borger,81.01,219.99,136.08,233.6,589.67,Single-ply,SBD,M
Div 2,82.1,7,Rj Denson,Needville,77.2,217.72,131.54,238.14,587.4,Single-ply,SBD,M
Div 2,82.1,8,Cole Barton,Midland Greenwood,78.74,217.72,151.95,215.46,585.13,Single-ply,SBD,M
Div 2,82.1,9,Martin Balderas,Groesbeck,80.92,213.19,133.81,233.6,580.6,Single-ply,SBD,M
Div 2,82.1,10,Greg Sexton,Palacios,80.29,219.99,115.67,235.87,571.53,Single-ply,SBD,M
Div 2,82.1,11,Trent Tucker,Texarkana Liberty-Eylau,77.47,217.72,140.61,192.78,551.11,Single-ply,SBD,M
Div 2,82.1,DQ,Alex Elizondo,Pearsall,80.2,,,,,Single-ply,SBD,M
Div 2,89.81,1,Justin Duran,Raymondville,89.81,306.17,192.78,274.42,773.37,Single-ply,SBD,M
Div 2,89.81,2,Mike Davidson,Paris North Lamar,88.81,281.23,149.69,263.08,694,Single-ply,SBD,M
Div 2,89.81,3,Dq Lipscomb,Paris,89.45,263.08,149.69,274.42,687.19,Single-ply,SBD,M
Div 2,89.81,4,Landon Lock,Gonzales,86.55,272.16,142.88,263.08,678.12,Single-ply,SBD,M
Div 2,89.81,5,Deon Hutchinson,Giddings,88,251.74,142.88,249.48,644.1,Single-ply,SBD,M
Div 2,89.81,6,Juan Quintana,Hillsboro,88.72,240.4,176.9,217.72,635.03,Single-ply,SBD,M
Div 2,89.81,7,Kenyon Morgan,Gainesville,89.36,265.35,140.61,224.53,630.49,Single-ply,SBD,M
Div 2,89.81,8,Fili Jaquez,Lubbock Cooper,87.63,242.67,142.88,213.19,598.74,Single-ply,SBD,M
Div 2,89.81,DQ,Aaron Breed,Kirbyville,88.99,222.26,147.42,,,Single-ply,SBD,M
Div 2,89.81,DQ,Tim Bergara,Brownfield,87.91,217.72,,,,Single-ply,SBD,M
Div 2,89.81,DQ,Mitchell Bateman,Argyle,88.09,,,,,Single-ply,SBD,M
Div 2,89.81,DQ,Nathan Brantner,Splendora,88.45,226.8,,,,Single-ply,SBD,M
Div 2,89.81,DQ,Triston Leaks,Canton,89.45,226.8,151.95,,,Single-ply,SBD,M
Div 2,99.79,1,Darren Stewart,Splendora,96.43,312.98,181.44,269.89,764.3,Single-ply,SBD,M
Div 2,99.79,2,Shane Stankus,Bridge City,99.61,283.5,165.56,297.1,746.16,Single-ply,SBD,M
Div 2,99.79,3,Cameron Medford,Pilot Point,94.08,278.96,206.38,247.21,732.55,Single-ply,SBD,M
Div 2,99.79,4,Rodney Brown,Navasota,96.62,267.62,176.9,272.16,716.68,Single-ply,SBD,M
Div 2,99.79,5,Jimmy Johnson,Glen Rose,98.97,285.76,170.1,249.48,705.34,Single-ply,SBD,M
Div 2,99.79,6,Mark Cavazos,Raymondville,97.16,265.35,199.58,226.8,691.73,Single-ply,SBD,M
Div 2,99.79,7,Kevinski Pitts,Center,98.52,267.62,151.95,263.08,682.66,Single-ply,SBD,M
Div 2,109.77,8,Gregory Juarez,Raymondville,99.97,288.03,165.56,226.8,680.39,Single-ply,SBD,M
Div 2,99.79,9,Keith Jones,Pilot Point,97.79,263.08,181.44,222.26,666.78,Single-ply,SBD,M
Div 2,99.79,10,Casey Sergent,Quinlan Ford,95.35,283.5,127.01,254.01,664.51,Single-ply,SBD,M
Div 2,99.79,11,Brandon Sanchez,Fort Stockton,99.34,254.01,136.08,249.48,639.57,Single-ply,SBD,M
Div 2,99.79,12,Ryan Wilkinson,Fairfield,97.98,242.67,158.76,235.87,637.3,Single-ply,SBD,M
Div 2,99.79,13,Miles McKinney,Borger,91.08,204.12,129.27,226.8,560.19,Single-ply,SBD,M
Div 2,99.79,DQ,Edward Barrera,Taylor,97.7,,,,,Single-ply,SBD,M
Div 2,99.79,DQ,Justin Sosa,Zapata,98.16,,,,,Single-ply,SBD,M
Div 2,109.77,1,Scott Dobbins,Burkburnett,109.68,322.05,226.8,283.5,832.34,Single-ply,SBD,M
Div 2,109.77,2,Salvador Marines,Somerset,106.87,299.37,138.35,276.69,714.41,Single-ply,SBD,M
Div 2,109.77,3,Cory Black,Fairfield,108.95,278.96,174.63,254.01,707.6,Single-ply,SBD,M
Div 2,109.77,4,Adam Aucoin,Palacios,103.51,301.64,161.03,242.67,705.34,Single-ply,SBD,M
Div 2,109.77,5,Joel White,La Feria,107.14,281.23,179.17,244.94,705.34,Single-ply,SBD,M
Div 2,109.77,6,Michael Mooneyham,Fairfield,104.6,274.42,165.56,258.55,698.53,Single-ply,SBD,M
Div 2,109.77,7,Trae Taylor,Levelland,107.59,285.76,154.22,238.14,678.12,Single-ply,SBD,M
Div 2,109.77,8,Autra Maxey,Navasota,109.32,249.48,136.08,267.62,653.17,Single-ply,SBD,M
Div 2,109.77,9,Trevor Gardner,Lake Worth,107.5,238.14,151.95,238.14,628.23,Single-ply,SBD,M
Div 2,109.77,10,Dallas Green,Borger,108.5,260.82,147.42,219.99,628.23,Single-ply,SBD,M
Div 2,109.77,11,Cj Duenas,Coldspring-Oakhurst,103.42,244.94,120.2,229.06,594.21,Single-ply,SBD,M
Div 2,109.77,12,Justin Oestreich,Llano,103.33,219.99,124.74,240.4,585.13,Single-ply,SBD,M
Div 2,124.74,1,Jesse Burttschell,Sealy,123.65,317.51,249.48,285.76,852.75,Single-ply,SBD,M
Div 2,124.74,2,Sammy Calhoun,Palestine,116.39,303.91,190.51,281.23,775.64,Single-ply,SBD,M
Div 2,124.74,3,Tyler Klander,West,124.28,303.91,165.56,254.01,723.48,Single-ply,SBD,M
Div 2,124.74,4,Curtis Hubert,Andrews,119.75,290.3,149.69,258.55,698.53,Single-ply,SBD,M
Div 2,124.74,5,Travis Randall,Splendora,123.38,283.5,181.44,233.6,698.53,Single-ply,SBD,M
Div 2,124.74,6,Alfred Godines,Somerset,124.38,263.08,172.37,244.94,680.39,Single-ply,SBD,M
Div 2,124.74,7,Cody Parker,Kemp,119.2,283.5,176.9,215.46,675.85,Single-ply,SBD,M
Div 2,124.74,8,Matt Poursoltani,Pilot Point,113.04,240.4,197.31,226.8,664.51,Single-ply,SBD,M
Div 2,124.74,9,O'Scotty Castro,Dalhart,114.85,283.5,142.88,226.8,653.17,Single-ply,SBD,M
Div 2,124.74,10,Colt Nelson,Sanger,117.39,249.48,145.15,249.48,644.1,Single-ply,SBD,M
Div 2,124.74,11,Nick Quintanar,Splendora,119.57,254.01,136.08,226.8,616.89,Single-ply,SBD,M
Div 2,124.74,DQ,Chad Childs,La Grange,118.66,235.87,165.56,,,Single-ply,SBD,M
Div 2,124.74+,1,Ryan Allen #1,West Orange-Stark,151.05,292.57,181.44,303.91,777.91,Single-ply,SBD,M
Div 2,124.74+,2,Nune Perez,Crystal City,140.89,317.51,185.97,272.16,775.64,Single-ply,SBD,M
Div 2,124.74+,3,Thomas Luce,Bridge City,125.46,326.59,190.51,254.01,771.11,Single-ply,SBD,M
Div 2,124.74+,4,Willie Hights,Yoakum,151.77,340.19,170.1,251.74,762.04,Single-ply,SBD,M
Div 2,124.74+,5,Miguel Estrada,Rockport-Fulton,146.87,306.17,181.44,269.89,757.5,Single-ply,SBD,M
Div 2,124.74+,6,Ray Cortez,Decatur,136.8,269.89,176.9,274.42,721.21,Single-ply,SBD,M
Div 2,124.74+,7,Nick Richardson,Athens,130.73,272.16,156.49,260.82,689.46,Single-ply,SBD,M
Div 2,124.74+,8,Sam Schomp,Lindale,141.79,272.16,161.03,240.4,673.58,Single-ply,SBD,M
Div 2,124.74+,9,Al Valderas,Levelland,160.48,299.37,147.42,224.53,671.32,Single-ply,SBD,M
Div 2,124.74+,10,Allen Hodge,Hillsboro,127.01,263.08,170.1,235.87,669.05,Single-ply,SBD,M
Div 2,124.74+,11,Joe Merino,Anna,140.89,294.84,154.22,213.19,662.24,Single-ply,SBD,M
Div 2,124.74+,DQ,Dillon Beesinger,Lubbock Cooper,140.98,,,,,Single-ply,SBD,M
Div 2,124.74+,DQ,Jacob Bohannon,Navasota,135.17,288.03,183.7,,,Single-ply,SBD,M
