Division,WeightClassKg,Place,Name,Team,BodyweightKg,Best3SquatKg,Best3BenchKg,Best3DeadliftKg,TotalKg,Equipment,Event,Sex
Boys,51.71,1,Justin Dowdy,Wills Point,49.26,136.08,86.18,142.88,365.14,Single-ply,SBD,M
Boys,51.71,2,Exxon Pantaleon,Krum,51.07,108.86,63.5,142.88,315.25,Single-ply,SBD,M
Boys,51.71,DQ,Eric Ralston,Whitesboro,51.71,86.18,,,,Single-ply,SBD,M
Boys,55.79,1,Darius Rivera,Princeton,55.16,161.03,99.79,183.7,444.52,Single-ply,SBD,M
Boys,55.79,DQ,Dillan Cromeens,Nevada Community,55.25,,,,,Single-ply,SBD,M
Boys,59.87,1,Christian Castillo,Little Elm,56.61,145.15,81.65,151.95,378.75,Single-ply,SBD,M
Boys,59.87,2,Zach Braswell,Howe,59.6,115.67,61.23,129.27,306.17,Single-ply,SBD,M
Boys,59.87,DQ,Scott Crum,Anna,59.65,,,,,Single-ply,SBD,M
Boys,59.87,DQ,Alex Montoya,Blue Ridge,59.78,129.27,,,,Single-ply,SBD,M
Boys,67.13,1,Ian Concepcion,Krum,66.77,190.51,95.25,213.19,498.95,Single-ply,SBD,M
Boys,67.13,2,Dylan Serna,Krum,66.77,181.44,111.13,185.97,478.54,Single-ply,SBD,M
Boys,67.13,3,Solomon Titus,Leonard,65.59,163.29,95.25,181.44,439.98,Single-ply,SBD,M
Boys,67.13,4,Zach Torres,Princeton,66.59,149.69,92.99,154.22,396.89,Single-ply,SBD,M
Boys,67.13,5,Jake Ratcliff,Denison,64.59,147.42,83.91,163.29,394.63,Single-ply,SBD,M
Boys,67.13,6,Tyler Nicholson,Howe,65.32,149.69,70.31,149.69,369.68,Single-ply,SBD,M
Boys,67.13,7,Dawson McDonald,Howe,62.41,142.88,63.5,147.42,353.8,Single-ply,SBD,M
Boys,67.13,8,Casey Cranford,Wills Point,67.04,129.27,81.65,142.88,353.8,Single-ply,SBD,M
Boys,67.13,9,Lane Serna,Krum,60.78,136.08,74.84,140.61,351.53,Single-ply,SBD,M
Boys,67.13,10,Dayontay Cornelius,Little Elm,63.32,142.88,70.31,136.08,349.27,Single-ply,SBD,M
Boys,67.13,11,Nick Westenhaver,Denison,61.69,111.13,97.52,138.35,347,Single-ply,SBD,M
Boys,67.13,12,Antonio Barragan,Anna,66.68,127.01,88.45,129.27,344.73,Single-ply,SBD,M
Boys,67.13,13,J'varri Steward,Anna,63.5,136.08,79.38,124.74,340.19,Single-ply,SBD,M
Boys,67.13,14,Dillon McCormick,Nevada Community,66.13,136.08,61.23,136.08,333.39,Single-ply,SBD,M
Boys,67.13,15,Shane Parker,Wills Point,64.68,102.06,70.31,104.33,276.69,Single-ply,SBD,M
Boys,67.13,DQ,Paul Redford,Princeton,64.59,124.74,,,,Single-ply,SBD,M
Boys,67.13,DQ,Matt Kinerd,Anna,63.05,86.18,,,,Single-ply,SBD,M
Boys,74.84,1,Ty Slaughter,Whitesboro,71.85,208.65,124.74,213.19,546.58,Single-ply,SBD,M
Boys,74.84,2,Tanner Johnson,Whitesboro,73.94,208.65,106.59,222.26,537.51,Single-ply,SBD,M
Boys,74.84,3,Cody Woolsey,Whitesboro,70.53,172.37,86.18,185.97,444.52,Single-ply,SBD,M
Boys,74.84,4,Savon Miles,Princeton,73.3,172.37,102.06,170.1,444.52,Single-ply,SBD,M
Boys,74.84,5,Triston Coglon,Bells,69.58,161.03,97.52,172.37,430.91,Single-ply,SBD,M
Boys,74.84,6,Jake Haker,Van Alstyne,74.03,163.29,106.59,158.76,428.64,Single-ply,SBD,M
Boys,74.84,7,Jake Bowland,Princeton,70.13,142.88,97.52,167.83,408.23,Single-ply,SBD,M
Boys,74.84,8,Jordan Fortner,Melissa,73.66,131.54,92.99,181.44,405.97,Single-ply,SBD,M
Boys,74.84,9,George Flores,Princeton,72.21,136.08,97.52,167.83,401.43,Single-ply,SBD,M
Boys,74.84,10,Triston Pryor,Van Alstyne,72.85,147.42,92.99,158.76,399.16,Single-ply,SBD,M
Boys,74.84,11,Jaylon Leonard,Princeton,72.76,142.88,86.18,156.49,385.55,Single-ply,SBD,M
Boys,74.84,12,Zach Smith,Nevada Community,71.85,124.74,72.57,158.76,356.07,Single-ply,SBD,M
Boys,74.84,13,Ethan Ford,Krum,74.84,127.01,63.5,156.49,347,Single-ply,SBD,M
Boys,74.84,14,Brandon Reeves,Krum,71.58,122.47,70.31,145.15,337.93,Single-ply,SBD,M
Boys,74.84,15,Paul Lutz,Leonard,68.22,124.74,63.5,145.15,333.39,Single-ply,SBD,M
Boys,74.84,16,Joey Paddock,Wills Point,74.75,104.33,90.72,113.4,308.44,Single-ply,SBD,M
Boys,74.84,17,Justin Ferrell,Denison,70.13,61.23,79.38,142.88,283.5,Single-ply,SBD,M
Boys,74.84,18,Blake Hamilton,Leonard,73.12,92.99,54.43,90.72,238.14,Single-ply,SBD,M
Boys,74.84,DQ,Joaquin Lopez,Howe,74.48,217.72,,,,Single-ply,SBD,M
Boys,74.84,DQ,David Sanchez,Denison,73.3,129.27,,,,Single-ply,SBD,M
Boys,74.84,DQ,Jose Villanueva,Blue Ridge,72.39,90.72,,,,Single-ply,SBD,M
Boys,74.84,DQ,Isaac Armijo,Anna,74.84,,,,,Single-ply,SBD,M
Boys,74.84,DQ,Will Lamberson,Wills Point,72.03,,,,,Single-ply,SBD,M
Boys,82.1,1,James Wright #1,Wills Point,78.38,204.12,142.88,226.8,573.79,Single-ply,SBD,M
Boys,82.1,2,Matthew Jelen,Krum,81.28,181.44,113.4,176.9,471.74,Single-ply,SBD,M
Boys,82.1,3,Dre Deleon,Nevada Community,77.11,138.35,88.45,158.76,385.55,Single-ply,SBD,M
Boys,82.1,4,Trent Alexander,Van Alstyne,81.65,147.42,95.25,142.88,385.55,Single-ply,SBD,M
Boys,82.1,5,Tyler Ferriell,Wills Point,81.56,142.88,95.25,142.88,381.02,Single-ply,SBD,M
Boys,82.1,6,Jeremy Mansur,Anna,81.65,145.15,90.72,145.15,381.02,Single-ply,SBD,M
Boys,82.1,7,Tanner Hartsfield,Howe,76.66,120.2,68.04,140.61,328.85,Single-ply,SBD,M
Boys,82.1,DQ,William Overbey,Howe,80.92,102.06,,,,Single-ply,SBD,M
Boys,82.1,DQ,Isaac Morrison,Howe,82.1,,,,,Single-ply,SBD,M
Boys,82.1,DQ,Ryan Burnett,Leonard,80.56,102.06,,,,Single-ply,SBD,M
Boys,82.1,DQ,Zach Rhone,Leonard,78.83,,,,,Single-ply,SBD,M
Boys,82.1,DQ,Alec Kyle,Anna,81.65,,,,,Single-ply,SBD,M
Boys,82.1,DQ,Ethan Burts,Van Alstyne,81.65,,,,,Single-ply,SBD,M
Boys,89.81,1,Garrett Lansford,Anna,89.36,249.48,154.22,213.19,616.89,Single-ply,SBD,M
Boys,89.81,2,Bowen Kirkbride,Denison,88.63,215.46,124.74,204.12,544.31,Single-ply,SBD,M
Boys,89.81,3,Dillon Branson,Little Elm,89.45,213.19,106.59,183.7,503.49,Single-ply,SBD,M
Boys,89.81,4,Chase Pinion,Anna,86.64,176.9,127.01,188.24,492.15,Single-ply,SBD,M
Boys,89.81,5,Adam White,Van Alstyne,84.01,161.03,117.93,204.12,483.08,Single-ply,SBD,M
Boys,89.81,6,Terry Lawrence,Van Alstyne,82.55,163.29,97.52,170.1,430.91,Single-ply,SBD,M
Boys,89.81,7,Tristan Farber,Leonard,87.63,142.88,113.4,154.22,410.5,Single-ply,SBD,M
Boys,89.81,8,Juan Martinez,Leonard,88.54,145.15,97.52,142.88,385.55,Single-ply,SBD,M
Boys,89.81,9,Cole English,Melissa,84.1,120.2,92.99,145.15,358.34,Single-ply,SBD,M
Boys,89.81,10,Colton Spradley,Krum,84.1,120.2,92.99,142.88,356.07,Single-ply,SBD,M
Boys,99.79,11,Asa Saunders,Blue Ridge,89.9,106.59,83.91,111.13,301.64,Single-ply,SBD,M
Boys,89.81,DQ,Jesse De Leon,Blue Ridge,82.46,,,,,Single-ply,SBD,M
Boys,99.79,1,Keith Ngondo,Little Elm,91.63,272.16,131.54,249.48,653.17,Single-ply,SBD,M
Boys,99.79,2,Thomas Morales,Whitesboro,99.79,233.6,149.69,222.26,605.55,Single-ply,SBD,M
Boys,99.79,3,James Kemp,Anna,92.53,213.19,145.15,226.8,585.13,Single-ply,SBD,M
Boys,99.79,4,Jamie Wood,Denison,98.16,215.46,147.42,210.92,573.79,Single-ply,SBD,M
Boys,99.79,5,Kelvin McKee,Little Elm,96.89,206.38,102.06,183.7,492.15,Single-ply,SBD,M
Boys,99.79,6,Lane Daniel,Nevada Community,97.07,183.7,92.99,170.1,446.79,Single-ply,SBD,M
Boys,99.79,7,Logan Roberts,Princeton,94.08,149.69,92.99,183.7,426.38,Single-ply,SBD,M
Boys,99.79,8,Hunter Montoya,Melissa,92.62,151.95,90.72,181.44,424.11,Single-ply,SBD,M
Boys,99.79,9,Max Castillo,Melissa,98.97,129.27,95.25,176.9,401.43,Single-ply,SBD,M
Boys,99.79,10,Matt Kusano,Melissa,94.08,122.47,106.59,124.74,353.8,Single-ply,SBD,M
Boys,99.79,11,Carlos Montoya,Whitesboro,92.08,106.59,68.04,115.67,290.3,Single-ply,SBD,M
Boys,109.77,1,Sergio Orona,Denison,105.51,238.14,161.03,254.01,653.17,Single-ply,SBD,M
Boys,109.77,2,Landon Hallmark,Little Elm,108.05,265.35,131.54,254.01,650.91,Single-ply,SBD,M
Boys,109.77,3,Logan Teel,Princeton,103.6,235.87,120.2,233.6,589.67,Single-ply,SBD,M
Boys,109.77,4,Josh Melvin,Bells,109.68,204.12,113.4,158.76,476.27,Single-ply,SBD,M
Boys,109.77,5,Zach Gray,Wills Point,104.33,183.7,113.4,161.03,458.13,Single-ply,SBD,M
Boys,109.77,6,Ryan Folk,Van Alstyne,106.5,167.83,115.67,167.83,451.32,Single-ply,SBD,M
Boys,109.77,7,Russell Carey,Whitesboro,104.87,156.49,90.72,172.37,419.57,Single-ply,SBD,M
Boys,109.77,8,Joel Menjivar,Howe,100.7,158.76,92.99,127.01,378.75,Single-ply,SBD,M
Boys,109.77,DQ,Sheldon Parkman,Howe,108.95,167.83,,,,Single-ply,SBD,M
Boys,109.77,DQ,Bailey Reid,Denison,106.23,142.88,,,,Single-ply,SBD,M
Boys,124.74,1,Justin Bigelow,Denison,121.02,317.51,226.8,272.16,816.47,Single-ply,SBD,M
Boys,124.74,2,Will Brogdon,Van Alstyne,120.56,215.46,131.54,226.8,573.79,Single-ply,SBD,M
Boys,124.74,3,Dalton Benson,Celeste,117.21,181.44,136.08,208.65,526.17,Single-ply,SBD,M
Boys,124.74,4,Austin Reese,Melissa,120.93,217.72,122.47,185.97,526.17,Single-ply,SBD,M
Boys,124.74,5,Carlos Ponce,Krum,113.67,185.97,117.93,181.44,485.34,Single-ply,SBD,M
Boys,124.74,6,Tony Ramirez,Anna,124.74,181.44,136.08,158.76,476.27,Single-ply,SBD,M
Boys,124.74,7,Skyler Finnagan,Little Elm,111.77,204.12,102.06,158.76,464.93,Single-ply,SBD,M
Boys,124.74,8,Michael Pruiett,Leonard,123.2,145.15,88.45,124.74,358.34,Single-ply,SBD,M
Boys,124.74,9,Jerry Daniel,Nevada Community,118.84,147.42,81.65,113.4,342.46,Single-ply,SBD,M
Boys,124.74+,1,Trey Marks,Little Elm,140.25,272.16,158.76,226.8,657.71,Single-ply,SBD,M
Boys,124.74+,2,Kasey Misenheimer,Whitesboro,131.72,226.8,133.81,208.65,569.26,Single-ply,SBD,M
Boys,124.74+,3,Colton Richards,Krum,130,226.8,122.47,210.92,560.19,Single-ply,SBD,M
Boys,124.74+,4,Hunter Howard,Krum,131.81,208.65,131.54,204.12,544.31,Single-ply,SBD,M
Boys,124.74+,5,Stephon Collins,Denison,125.83,188.24,151.95,192.78,532.97,Single-ply,SBD,M
Boys,124.74+,6,Jesse Luna,Wills Point,158.76,226.8,102.06,142.88,471.74,Single-ply,SBD,M
Boys,124.74+,7,Michael Brian,Leonard,131.81,149.69,106.59,161.03,417.3,Single-ply,SBD,M
Boys,124.74+,8,Alec Dickinson,Bells,130.73,154.22,92.99,156.49,403.7,Single-ply,SBD,M
Boys,124.74+,DQ,Max Gafford,Blue Ridge,159.94,190.51,,,,Single-ply,SBD,M
Boys,,NS,Justin Bates,Blue Ridge,,,,,,Single-ply,SBD,M
Boys,,NS,Chris Bowling,Blue Ridge,,,,,,Single-ply,SBD,M
Boys,,NS,Jacob Denison,Blue Ridge,,,,,,Single-ply,SBD,M
Boys,,NS,Jacob Cunliffe,Bells,,,,,,Single-ply,SBD,M
Boys,,NS,Martin Mijares,Bells,,,,,,Single-ply,SBD,M
Boys,,NS,Hayden Cobb,Bells,,,,,,Single-ply,SBD,M
Boys,,NS,Bruce Chartier,Bells,,,,,,Single-ply,SBD,M
Boys,,NS,Cody McCoy,Little Elm,,,,,,Single-ply,SBD,M
Boys,,NS,Richard Morones,Little Elm,,,,,,Single-ply,SBD,M
Boys,,NS,Bryce Moody,Van Alstyne,,,,,,Single-ply,SBD,M
Boys,,NS,Rhett Barcheers,Van Alstyne,,,,,,Single-ply,SBD,M
Boys,,NS,Connor Mayes,Van Alstyne,,,,,,Single-ply,SBD,M
Boys,,NS,Adrian Escandon,Nevada Community,,,,,,Single-ply,SBD,M
Boys,,NS,Casey Vice,Nevada Community,,,,,,Single-ply,SBD,M
Boys,,NS,Justin Wilson,Nevada Community,,,,,,Single-ply,SBD,M
Boys,,NS,Xavier Napoleon,Little Elm,,,,,,Single-ply,SBD,M
Boys,,NS,Nick James,Melissa,,,,,,Single-ply,SBD,M
Boys,,NS,David Ferrier,Melissa,,,,,,Single-ply,SBD,M
Boys,,NS,Payton Thompson,Princeton,,,,,,Single-ply,SBD,M
Boys,,NS,Chris Leach,Princeton,,,,,,Single-ply,SBD,M
Boys,,NS,Preston Johnson,Whitesboro,,,,,,Single-ply,SBD,M
Boys,,NS,Caleb Mitcheson,Whitesboro,,,,,,Single-ply,SBD,M
Boys,,NS,Cody McCamy,Whitesboro,,,,,,Single-ply,SBD,M
Boys,,NS,Bryan Townsend,Whitesboro,,,,,,Single-ply,SBD,M
