Division,WeightClassKg,Place,Name,Team,BodyweightKg,Best3SquatKg,Best3BenchKg,Best3DeadliftKg,TotalKg,Equipment,Event,Sex
Boys,51.71,1,Sergio Mota,Fort Worth Chisholm Trail,51.44,113.4,65.77,127.01,306.17,Single-ply,SBD,M
Boys,51.71,2,Gordan Griesel,Fort Worth Boswell,50.44,106.59,65.77,120.2,292.57,Single-ply,SBD,M
Boys,51.71,3,Cooper Magee,Azle,51.26,90.72,45.36,108.86,244.94,Single-ply,SBD,M
Boys,51.71,4,Jayce Glenn,Granbury,45.72,61.23,45.36,81.65,188.24,Single-ply,SBD,M
Boys,51.71,5,Isaac Hernandez,Aledo,41.73,61.23,38.56,61.23,161.03,Single-ply,SBD,M
Boys,55.79,1,Nate Sylakhom,Fort Worth Boswell,54.61,136.08,63.5,161.03,360.61,Single-ply,SBD,M
Boys,55.79,2,Mason Miranda,Granbury,54.43,122.47,70.31,149.69,342.46,Single-ply,SBD,M
Boys,55.79,3,Chris Wimley,Granbury,55.79,120.2,72.57,136.08,328.85,Single-ply,SBD,M
Boys,55.79,4,Gavin Hacker,Azle,55.61,115.67,68.04,122.47,306.17,Single-ply,SBD,M
Boys,55.79,5,Samuel Eggleston,Saginaw,54.88,117.93,58.97,120.2,297.1,Single-ply,SBD,M
Boys,55.79,6,JoJo Talavera,Glen Rose,55.61,108.86,56.7,124.74,290.3,Single-ply,SBD,M
Boys,55.79,7,Baird Jernigan,Aledo,55.43,90.72,68.04,117.93,276.69,Single-ply,SBD,M
Boys,59.87,1,Anthony Phimmasone,Fort Worth Boswell,59.06,154.22,95.25,170.1,419.57,Single-ply,SBD,M
Boys,59.87,2,Otis Jackson,Aledo,59.24,138.35,86.18,156.49,381.02,Single-ply,SBD,M
Boys,59.87,3,Jesse Ramirez,Glen Rose,59.78,129.27,79.38,127.01,335.66,Single-ply,SBD,M
Boys,59.87,4,John Davis,White Settlement Brewer,56.79,136.08,63.5,129.27,328.85,Single-ply,SBD,M
Boys,59.87,5,Nikolas Seig,Fort Worth Chisholm Trail,59.6,124.74,68.04,136.08,328.85,Single-ply,SBD,M
Boys,59.87,6,Casper Carter,Saginaw,59.87,108.86,65.77,111.13,285.76,Single-ply,SBD,M
Boys,59.87,DQ,Hunter Martin,Azle,58.24,142.88,,,,Single-ply,SBD,M
Boys,67.13,1,Joe Rousseau,Aledo,66.22,147.42,108.86,188.24,444.52,Single-ply,SBD,M
Boys,67.13,2,Colt Edwards,Fort Worth Boswell,66.68,170.1,102.06,170.1,442.25,Single-ply,SBD,M
Boys,67.13,3,Moise Mpala,Fort Worth Chisholm Trail,67.04,151.95,86.18,149.69,387.82,Single-ply,SBD,M
Boys,67.13,4,Gavin Johnson,Saginaw,63.78,136.08,99.79,145.15,381.02,Single-ply,SBD,M
Boys,67.13,5,Jacob Densmore,Fort Worth Chisholm Trail,60.06,131.54,72.57,142.88,347,Single-ply,SBD,M
Boys,67.13,DQ,Mariano Arriaga,Aledo,67.13,197.31,,,,Single-ply,SBD,M
Boys,74.84,1,Noah Smith,Saginaw,74.66,219.99,124.74,222.26,566.99,Single-ply,SBD,M
Boys,74.84,2,Tatum Price,Aledo,74.57,213.19,136.08,208.65,557.92,Single-ply,SBD,M
Boys,74.84,3,Sean Parnell,Fort Worth Paschal,74.03,174.63,106.59,190.51,471.74,Single-ply,SBD,M
Boys,74.84,4,Austin Richey,Springtown,68.22,138.35,102.06,136.08,376.48,Single-ply,SBD,M
Boys,74.84,5,Giani Roberts,Fort Worth Paschal,74.21,124.74,86.18,142.88,353.8,Single-ply,SBD,M
Boys,74.84,DQ,Tyler Sarriera,White Settlement Brewer,74.03,,,,,Single-ply,SBD,M
Boys,74.84,DQ,CJ van Slyke,Azle,74.84,165.56,115.67,,,Single-ply,SBD,M
Boys,82.1,1,Marshall Sampley,Azle,81.19,206.38,117.93,235.87,560.19,Single-ply,SBD,M
Boys,82.1,2,Isaiah Dominguez,Fort Worth Boswell,76.2,188.24,111.13,204.12,503.49,Single-ply,SBD,M
Boys,82.1,3,Alonzo Molina,Granbury,77.84,181.44,115.67,195.04,492.15,Single-ply,SBD,M
Boys,82.1,4,Brendan Chism,Granbury,79.38,174.63,117.93,199.58,492.15,Single-ply,SBD,M
Boys,82.1,5,Dylan Allsbrooks,Fort Worth Boswell,81.01,174.63,120.2,183.7,478.54,Single-ply,SBD,M
Boys,82.1,6,Aaron Foster,Springtown,75.21,167.83,120.2,188.24,476.27,Single-ply,SBD,M
Boys,82.1,7,Andres Delgadillo,Saginaw,81.28,174.63,102.06,188.24,464.93,Single-ply,SBD,M
Boys,82.1,8,Noah Loth,Aledo,80.29,163.29,115.67,181.44,460.4,Single-ply,SBD,M
Boys,82.1,9,Garrett Maile,Fort Worth Chisholm Trail,76.48,149.69,104.33,167.83,421.84,Single-ply,SBD,M
Boys,82.1,10,Jaden Morris,Fort Worth Paschal,77.93,117.93,79.38,158.76,356.07,Single-ply,SBD,M
Boys,89.81,1,Joshua Mork,Fort Worth Boswell,88.18,231.33,156.49,247.21,635.03,Single-ply,SBD,M
Boys,89.81,2,Carlos Hernandez,Saginaw,88.9,240.4,124.74,226.8,591.94,Single-ply,SBD,M
Boys,89.81,3,Weston Reese,Aledo,86,195.04,136.08,213.19,544.31,Single-ply,SBD,M
Boys,89.81,4,Carson Cato,White Settlement Brewer,87.27,185.97,131.54,201.85,519.36,Single-ply,SBD,M
Boys,89.81,5,Oscar Campos,Fort Worth Paschal,86.64,192.78,104.33,215.46,512.56,Single-ply,SBD,M
Boys,89.81,6,Ricky Douglas,Glen Rose,84.37,190.51,117.93,199.58,508.02,Single-ply,SBD,M
Boys,89.81,7,Tyler Luangraj,Saginaw,89.81,199.58,111.13,190.51,501.22,Single-ply,SBD,M
Boys,89.81,8,Baker Butler,Glen Rose,89.81,185.97,95.25,204.12,485.34,Single-ply,SBD,M
Boys,89.81,9,Marcus Moseley,Glen Rose,87.54,188.24,113.4,181.44,483.08,Single-ply,SBD,M
Boys,89.81,10,Christian McClain,Fort Worth Chisholm Trail,88.9,176.9,104.33,185.97,467.2,Single-ply,SBD,M
Boys,89.81,11,Jonathan Lester,Azle,89.18,170.1,115.67,179.17,464.93,Single-ply,SBD,M
Boys,89.81,12,Colby Dear,White Settlement Brewer,87.36,167.83,104.33,190.51,462.66,Single-ply,SBD,M
Boys,89.81,13,Reed Kimball,Fort Worth Paschal,87.72,158.76,83.91,158.76,401.43,Single-ply,SBD,M
Boys,89.81,DQ,Brandon Ramos,White Settlement Brewer,83.1,142.88,,,,Single-ply,SBD,M
Boys,99.79,1,Keeton Derouen,Granbury,93.98,235.87,124.74,258.55,619.15,Single-ply,SBD,M
Boys,99.79,2,Canaan Revelle,Azle,98.88,210.92,136.08,206.38,553.38,Single-ply,SBD,M
Boys,99.79,3,Brent Rose,Springtown,99.61,188.24,136.08,199.58,523.9,Single-ply,SBD,M
Boys,99.79,4,Stephen Williams,Saginaw,99.06,208.65,113.4,199.58,521.63,Single-ply,SBD,M
Boys,99.79,5,Gannon Slovacek,Fort Worth Boswell,97.61,181.44,136.08,192.78,510.29,Single-ply,SBD,M
Boys,99.79,6,Ryan Goodenough,Aledo,93.89,190.51,129.27,181.44,501.22,Single-ply,SBD,M
Boys,99.79,7,Timothy Worley,White Settlement Brewer,99.25,190.51,117.93,192.78,501.22,Single-ply,SBD,M
Boys,99.79,8,James Webb,Fort Worth Chisholm Trail,92.44,195.04,92.99,199.58,487.61,Single-ply,SBD,M
Boys,99.79,9,Tony Ramos,Glen Rose,90.54,188.24,99.79,197.31,485.34,Single-ply,SBD,M
Boys,109.77,1,Keondre Vassar,Fort Worth Boswell,104.87,265.35,154.22,238.14,657.71,Single-ply,SBD,M
Boys,109.77,2,Ruben Veliz,Granbury,107.86,235.87,129.27,254.01,619.15,Single-ply,SBD,M
Boys,109.77,3,Martin Gutierrez,Springtown,106.14,210.92,151.95,215.46,578.33,Single-ply,SBD,M
Boys,109.77,4,Davy Bostick,Granbury,108.86,226.8,131.54,210.92,569.26,Single-ply,SBD,M
Boys,109.77,5,Marcello Deanda,Azle,103.42,204.12,145.15,195.04,544.31,Single-ply,SBD,M
Boys,109.77,6,Grant McGarity,Glen Rose,101.42,222.26,113.4,204.12,539.77,Single-ply,SBD,M
Boys,109.77,7,Matthew Michaels,Fort Worth Boswell,107.23,204.12,136.08,195.04,535.24,Single-ply,SBD,M
Boys,109.77,8,Tyler Holder,Springtown,102.33,199.58,115.67,213.19,528.44,Single-ply,SBD,M
Boys,109.77,9,Thomas McCowan,Saginaw,101.88,204.12,115.67,199.58,519.36,Single-ply,SBD,M
Boys,109.77,10,Hayden Herfkens,Fort Worth Chisholm Trail,106.96,183.7,113.4,188.24,485.34,Single-ply,SBD,M
Boys,109.77,11,Saul Delgado,Glen Rose,109.59,190.51,95.25,195.04,480.81,Single-ply,SBD,M
Boys,109.77,12,Jacob Pena,Glen Rose,108.14,185.97,108.86,167.83,462.66,Single-ply,SBD,M
Boys,109.77,13,Felix Rodriguez,Fort Worth Paschal,100.24,176.9,95.25,188.24,460.4,Single-ply,SBD,M
Boys,109.77,14,Angel Flores,Springtown,101.24,161.03,115.67,170.1,446.79,Single-ply,SBD,M
Boys,124.74,1,Skylar Beck,Granbury,124.1,272.16,174.63,235.87,682.66,Single-ply,SBD,M
Boys,124.74,2,Alex Trejo,Saginaw,120.93,254.01,158.76,244.94,657.71,Single-ply,SBD,M
Boys,124.74,3,Christian Holmes,Granbury,115.48,263.08,165.56,226.8,655.44,Single-ply,SBD,M
Boys,124.74,4,Zach Powell,Glen Rose,114.67,240.4,140.61,235.87,616.89,Single-ply,SBD,M
Boys,124.74,5,Logan Michael,Aledo,111.77,229.06,136.08,226.8,591.94,Single-ply,SBD,M
Boys,124.74,6,Maverick Roberts,White Settlement Brewer,120.11,219.99,133.81,235.87,589.67,Single-ply,SBD,M
Boys,124.74,7,Demetrius Winkfield,Fort Worth Chisholm Trail,122.47,204.12,136.08,238.14,578.33,Single-ply,SBD,M
Boys,124.74,8,Case Mason,Saginaw,118.12,226.8,117.93,215.46,560.19,Single-ply,SBD,M
Boys,124.74,9,Juan Garcia,Fort Worth Chisholm Trail,116.3,217.72,104.33,217.72,539.77,Single-ply,SBD,M
Boys,124.74,10,Edgar Ramirez,Fort Worth Paschal,112.49,197.31,97.52,199.58,494.42,Single-ply,SBD,M
Boys,124.74,11,Marco Moreno,Fort Worth Paschal,122.02,183.7,102.06,197.31,483.08,Single-ply,SBD,M
Boys,124.74,12,Daniel Macias,Springtown,121.38,147.42,81.65,145.15,374.21,Single-ply,SBD,M
Boys,124.74,DQ,Isaac Vielma,White Settlement Brewer,120.47,233.6,142.88,,,Single-ply,SBD,M
Boys,124.74+,1,Hayden Shaw,Glen Rose,126.37,294.84,142.88,249.48,687.19,Single-ply,SBD,M
Boys,124.74+,2,Cooper Morman,Azle,144.88,256.28,140.61,229.06,625.96,Single-ply,SBD,M
Boys,124.74+,3,Zac Haynes,Aledo,125.28,263.08,154.22,204.12,621.42,Single-ply,SBD,M
Boys,124.74+,4,Koltin Bush,Granbury,132.54,222.26,147.42,217.72,587.4,Single-ply,SBD,M
Boys,124.74+,5,Ryan Morales,Fort Worth Boswell,127.46,233.6,136.08,197.31,566.99,Single-ply,SBD,M
Boys,124.74+,6,James Ybarra,Fort Worth Chisholm Trail,136.8,226.8,113.4,219.99,560.19,Single-ply,SBD,M
Boys,124.74+,7,Dorian Evans,Azle,139.89,233.6,113.4,201.85,548.85,Single-ply,SBD,M
Boys,124.74+,8,Cameron Hutcherson,White Settlement Brewer,126.82,165.56,102.06,185.97,453.59,Single-ply,SBD,M
Boys,124.74+,DQ,David Avelar,Azle,127.82,,,,,Single-ply,SBD,M
