Name,WeightClassKg,Best3SquatKg,Best3BenchKg,Best3DeadliftKg,TotalKg,Event,Equipment,Sex,Division,Place
Rickey Dale Crain,75,342.46,188.24,104.33,635.03,SBD,Single-ply,M,Open,1
G. James,75,,122.47,,122.47,B,Single-ply,M,Open,2
B. Coccaro,75,,174.63,,174.63,B,Single-ply,M,Open,1
T. Stapleton,82.5,,199.58,,199.58,B,Single-ply,M,Open,1
M. Nolan,90,204.12,120.2,215.46,539.7,SBD,Single-ply,M,Open,2
J. Stephens,90,206.38,120.2,219.99,546.58,SBD,Single-ply,M,Open,1
J. Caryer,90,,136.08,,136.08,B,Single-ply,M,Open,1
T. Looney,100,,174.63,,174.63,B,Single-ply,M,Open,1
L. Rurdle,110,,170.1,,170.1,B,Single-ply,M,Open,1
