Division,WeightClassKg,Place,Name,Team,BodyweightKg,Best3SquatKg,Best3BenchKg,Best3DeadliftKg,TotalKg,Equipment,Event,Sex
Boys,51.71,1,Miguel Hernandez,Emory Rains,50.35,142.88,74.84,151.95,369.68,Single-ply,SBD,M
Boys,51.71,2,Ja'Vonta Mitchell,Greenville,46.27,136.08,63.5,122.47,322.05,Single-ply,SBD,M
Boys,51.71,3,Justin Dowdy,Wills Point,44,99.79,54.43,108.86,263.08,Single-ply,SBD,M
Boys,51.71,4,Micah Kitchens,Commerce,51.71,95.25,47.63,113.4,256.28,Single-ply,SBD,M
Boys,51.71,5,Adam Chreene,Quinlan Boles,44.91,90.72,40.82,92.99,224.53,Single-ply,SBD,M
Boys,51.71,6,Lloyd McGrath,Hawkins,50.35,70.31,43.09,95.25,208.65,Single-ply,SBD,M
Boys,51.71,DQ,Jayce Gibson,Quinlan Boles,49.44,72.57,40.82,,,Single-ply,SBD,M
Boys,55.79,1,Daniel Hernandez,Royse City,55.79,149.69,79.38,174.63,403.7,Single-ply,SBD,M
Boys,55.79,2,Ta'Montre Mitchell,Greenville,55.79,163.29,79.38,133.81,376.48,Single-ply,SBD,M
Boys,55.79,3,Dalton Krodle,Commerce,55.79,140.61,68.04,131.54,340.19,Single-ply,SBD,M
Boys,55.79,4,Angel Ross,Quitman,54.43,113.4,72.57,142.88,328.85,Single-ply,SBD,M
Boys,55.79,5,Rj Reynolds,Commerce,54.43,124.74,77.11,108.86,310.71,Single-ply,SBD,M
Boys,55.79,6,David Blackwell,Nacogdoches,53.98,124.74,49.9,117.93,292.57,Single-ply,SBD,M
Boys,55.79,DQ,Hunter McDaniel,Caddo Mills,55.79,131.54,86.18,,,Single-ply,SBD,M
Boys,55.79,DQ,Kelly Coffman,Caddo Mills,53.52,111.13,,,,Single-ply,SBD,M
Boys,59.87,1,Eric Stanfield,Greenville,59.42,179.17,92.99,161.03,433.18,Single-ply,SBD,M
Boys,59.87,2,Reece Walker,Cumby,59.87,140.61,74.84,154.22,369.68,Single-ply,SBD,M
Boys,59.87,3,Kd Edwards,Royse City,59.87,122.47,70.31,154.22,347,Single-ply,SBD,M
Boys,59.87,4,Brayden Holley,Greenville,59.87,124.74,81.65,120.2,326.59,Single-ply,SBD,M
Boys,59.87,5,Billy McMahon,Farmersville,57.15,124.74,70.31,129.27,324.32,Single-ply,SBD,M
Boys,59.87,6,Nich Wunsch,Wills Point,56.7,124.74,72.57,117.93,315.25,Single-ply,SBD,M
Boys,59.87,7,Kaleb Moore,Caddo Mills,59.87,113.4,65.77,129.27,308.44,Single-ply,SBD,M
Boys,59.87,8,Austin Vaudier,Royse City,58.97,113.4,61.23,127.01,301.64,Single-ply,SBD,M
Boys,59.87,9,Morgan Breaux,Emory Rains,58.06,113.4,47.63,102.06,263.08,Single-ply,SBD,M
Boys,67.13,1,Alex Ramsey,Royse City,66.68,195.04,111.13,185.97,492.15,Single-ply,SBD,M
Boys,67.13,2,Jesse Hudson,Emory Rains,65.77,183.7,102.06,197.31,483.08,Single-ply,SBD,M
Boys,67.13,3,Alfred Champion,Greenville,62.6,190.51,92.99,172.37,455.86,Single-ply,SBD,M
Boys,67.13,4,Felix Brito,Royse City,63.96,183.7,86.18,158.76,428.64,Single-ply,SBD,M
Boys,67.13,5,Jacob Mitchell,Greenville,66.68,151.95,92.99,151.95,396.89,Single-ply,SBD,M
Boys,67.13,6,Wesley McCrary,Greenville,61.69,149.69,90.72,149.69,390.09,Single-ply,SBD,M
Boys,67.13,7,Devan Harris,Quinlan Boles,60.78,142.88,77.11,154.22,374.21,Single-ply,SBD,M
Boys,67.13,8,Tyler Murphey,Commerce,61.23,154.22,68.04,151.95,374.21,Single-ply,SBD,M
Boys,67.13,9,Danny Hernadez,Quinlan Boles,63.05,149.69,83.91,140.61,374.21,Single-ply,SBD,M
Boys,67.13,10,Thomas Aguilar,Emory Rains,64.41,149.69,74.84,142.88,367.41,Single-ply,SBD,M
Boys,67.13,11,Holden Godwin,Emory Rains,65.77,136.08,72.57,154.22,362.87,Single-ply,SBD,M
Boys,67.13,12,Esau Turcios,Quitman,63.05,122.47,77.11,156.49,356.07,Single-ply,SBD,M
Boys,67.13,13,Alex Perez,Wills Point,67.13,127.01,81.65,147.42,356.07,Single-ply,SBD,M
Boys,67.13,14,Joseph Parker,Wills Point,61.23,136.08,77.11,131.54,344.73,Single-ply,SBD,M
Boys,67.13,15,Weston McCluskey,Quinlan Ford,61.69,129.27,70.31,142.88,342.46,Single-ply,SBD,M
Boys,67.13,16,Patrick Jones,Quinlan Boles,65.77,124.74,68.04,145.15,337.93,Single-ply,SBD,M
Boys,67.13,17,Jacob Dannenberg,Hawkins,64.86,115.67,81.65,136.08,333.39,Single-ply,SBD,M
Boys,67.13,DQ,Jacob Tillett,Caddo Mills,64.41,151.95,,,,Single-ply,SBD,M
Boys,74.84,1,Austin Martin #3,Greenville,73.48,249.48,142.88,226.8,619.15,Single-ply,SBD,M
Boys,74.84,2,Caleb Skahan,Caddo Mills,73.48,235.87,140.61,231.33,607.81,Single-ply,SBD,M
Boys,74.84,3,James Silkey,Quinlan Ford,73.48,199.58,138.35,195.04,532.97,Single-ply,SBD,M
Boys,74.84,4,Tayelor Doty,Greenville,72.57,190.51,127.01,181.44,498.95,Single-ply,SBD,M
Boys,74.84,5,Gannon Brown,Emory Rains,73.94,172.37,131.54,188.24,492.15,Single-ply,SBD,M
Boys,74.84,6,James Wright #1,Wills Point,74.39,204.12,111.13,174.63,489.88,Single-ply,SBD,M
Boys,74.84,7,Chandler Tolbert,Royse City,74.84,183.7,113.4,181.44,478.54,Single-ply,SBD,M
Boys,74.84,8,Bryan Tucker,Wills Point,74.39,149.69,124.74,158.76,433.18,Single-ply,SBD,M
Boys,74.84,9,Christian Darter,Emory Rains,74.84,167.83,97.52,154.22,419.57,Single-ply,SBD,M
Boys,74.84,10,Daniel Broyles,Quinlan Boles,68.49,167.83,106.59,140.61,415.04,Single-ply,SBD,M
Boys,74.84,11,James West,Quinlan Ford,68.04,140.61,90.72,151.95,383.29,Single-ply,SBD,M
Boys,74.84,12,Jonathan Pruden,Quitman,68.49,113.4,108.86,154.22,376.48,Single-ply,SBD,M
Boys,74.84,13,Micah Brantley,Gladewater Union Grove,74.84,136.08,88.45,147.42,371.95,Single-ply,SBD,M
Boys,74.84,14,Tristen Clayton,Cumby,73.94,151.95,72.57,142.88,367.41,Single-ply,SBD,M
Boys,74.84,15,Alan Workman,Quitman,74.84,111.13,77.11,147.42,335.66,Single-ply,SBD,M
Boys,74.84,16,Sam Brewer,Gladewater Union Grove,68.95,102.06,61.23,97.52,260.82,Single-ply,SBD,M
Boys,82.1,1,Isaiah Martinez,Commerce,80.29,222.26,136.08,217.72,576.06,Single-ply,SBD,M
Boys,82.1,2,Jon Hines,Emory Rains,78.47,215.46,115.67,206.38,537.51,Single-ply,SBD,M
Boys,82.1,3,Sumner Reece,Canton,79.83,204.12,113.4,208.65,526.17,Single-ply,SBD,M
Boys,82.1,4,Jake Shinn,Quinlan Boles,79.83,197.31,111.13,208.65,517.1,Single-ply,SBD,M
Boys,82.1,5,Mike Jones,Emory Rains,78.47,156.49,106.59,219.99,483.08,Single-ply,SBD,M
Boys,82.1,6,Grant Russell,Emory Rains,78.47,151.95,113.4,210.92,476.27,Single-ply,SBD,M
Boys,82.1,7,Austin Cooper,Greenville,82.1,181.44,104.33,165.56,451.32,Single-ply,SBD,M
Boys,82.1,8,Brice Evilsizer,Quinlan Ford,81.19,181.44,68.04,183.7,433.18,Single-ply,SBD,M
Boys,82.1,9,Cody Anderson,Cumby,79.83,172.37,81.65,176.9,430.91,Single-ply,SBD,M
Boys,82.1,10,Dylan Lister,Quinlan Ford,80.74,174.63,83.91,170.1,428.64,Single-ply,SBD,M
Boys,82.1,11,Dillon Jarvis,Gladewater Union Grove,75.3,138.35,104.33,151.95,394.63,Single-ply,SBD,M
Boys,82.1,12,Travis Tidwell,Quinlan Boles,76.66,147.42,92.99,140.61,381.02,Single-ply,SBD,M
Boys,82.1,13,David Hernadez,Quinlan Boles,81.19,149.69,88.45,138.35,376.48,Single-ply,SBD,M
Boys,82.1,14,Jorge Ordonez,Greenville,78.93,124.74,74.84,147.42,347,Single-ply,SBD,M
Boys,82.1,DQ,Eddie Rodriguez,Farmersville,82.1,,,,,Single-ply,SBD,M
Boys,82.1,DQ,Jimmy Hill,Caddo Mills,76.66,188.24,,,,Single-ply,SBD,M
Boys,82.1,DQ,Sanford Bryce,Canton,79.83,240.4,129.27,,,Single-ply,SBD,M
Boys,89.81,1,Jared Loftis,Royse City,88.45,199.58,115.67,210.92,526.17,Single-ply,SBD,M
Boys,89.81,2,Brant Sims,Quinlan Boles,89.81,199.58,115.67,210.92,526.17,Single-ply,SBD,M
Boys,89.81,3,Will Morgan,Wills Point,86.64,195.04,124.74,179.17,498.95,Single-ply,SBD,M
Boys,89.81,4,Joel Dunn,Royse City,83.91,217.72,111.13,167.83,496.68,Single-ply,SBD,M
Boys,89.81,5,Ryan Gregory,Quinlan Ford,89.81,190.51,113.4,190.51,494.42,Single-ply,SBD,M
Boys,89.81,6,Cipriano Gonzales,Greenville,89.81,192.78,124.74,170.1,487.61,Single-ply,SBD,M
Boys,89.81,7,Braylon Champion,Greenville,89.81,185.97,99.79,195.04,480.81,Single-ply,SBD,M
Boys,89.81,8,Cole Harwell,Hawkins,85.28,172.37,104.33,158.76,435.45,Single-ply,SBD,M
Boys,89.81,9,Thompson Logan,Canton,88,161.03,102.06,156.49,419.57,Single-ply,SBD,M
Boys,99.79,1,Casey Sergent,Quinlan Ford,98.88,308.44,154.22,278.96,741.62,Single-ply,SBD,M
Boys,99.79,2,Dakotta Cooksy,Quinlan Ford,99.34,258.55,136.08,222.26,616.89,Single-ply,SBD,M
Boys,99.79,3,Thomas Johnson,Royse City,94.35,215.46,142.88,181.44,539.77,Single-ply,SBD,M
Boys,99.79,4,Chance Hamilton,Greenville,92.08,181.44,124.74,201.85,508.02,Single-ply,SBD,M
Boys,99.79,5,Cody Rowland,Wills Point,99.34,179.17,104.33,185.97,469.47,Single-ply,SBD,M
Boys,99.79,6,Nathan Lewis,Wills Point,90.72,208.65,99.79,156.49,464.93,Single-ply,SBD,M
Boys,99.79,7,Devin Boswell,Wills Point,91.63,165.56,102.06,179.17,446.79,Single-ply,SBD,M
Boys,99.79,8,Adrian Cruz,Hawkins,96.16,161.03,92.99,156.49,410.5,Single-ply,SBD,M
Boys,99.79,9,Chase Williams,Hawkins,96.62,138.35,102.06,167.83,408.23,Single-ply,SBD,M
Boys,109.77,1,Anthony Ringenberg,Cumby,104.78,249.48,136.08,226.8,612.35,Single-ply,SBD,M
Boys,109.77,2,Bryce Hale,Quinlan Ford,100.7,226.8,127.01,229.06,582.87,Single-ply,SBD,M
Boys,109.77,3,Tyran Wilson,Commerce,108.41,215.46,138.35,219.99,573.79,Single-ply,SBD,M
Boys,109.77,4,Nelson Ke'Andric,Canton,106.59,226.8,124.74,217.72,569.26,Single-ply,SBD,M
Boys,109.77,5,Justin Miller,Wills Point,103.42,217.72,115.67,181.44,514.83,Single-ply,SBD,M
Boys,109.77,6,Dallas Millhaausen,Quinlan Ford,101.15,188.24,106.59,181.44,476.27,Single-ply,SBD,M
Boys,109.77,7,Hunter Smith,Greenville,106.59,158.76,115.67,190.51,464.93,Single-ply,SBD,M
Boys,109.77,8,Tommy Allen,Quinlan Boles,106.59,181.44,108.86,158.76,449.06,Single-ply,SBD,M
Boys,109.77,9,Zach Sprugin,Greenville,102.06,170.1,108.86,147.42,426.38,Single-ply,SBD,M
Boys,124.74,1,Cortez Crosby,Commerce,113.85,283.5,174.63,276.69,734.82,Single-ply,SBD,M
Boys,124.74,2,Casey Hargrove,Emory Rains,115.21,219.99,133.81,238.14,591.94,Single-ply,SBD,M
Boys,124.74,3,Joel Lopez,Farmersville,122.92,249.48,138.35,204.12,591.94,Single-ply,SBD,M
Boys,124.74,4,David Allen,Quinlan Ford,112.49,222.26,111.13,224.53,557.92,Single-ply,SBD,M
Boys,124.74,5,John Brown,Wills Point,121.56,201.85,113.4,185.97,501.22,Single-ply,SBD,M
Boys,124.74,6,Osvaldo Casteneda,Royse City,115.21,204.12,115.67,176.9,496.68,Single-ply,SBD,M
Boys,124.74,7,Glen Goode,Cumby,120.2,188.24,122.47,179.17,489.88,Single-ply,SBD,M
Boys,124.74,8,Mitchell Wheat,Greenville,111.13,188.24,102.06,172.37,462.66,Single-ply,SBD,M
Boys,124.74,DQ,Nic Blain,Caddo Mills,116.12,210.92,,,,Single-ply,SBD,M
Boys,124.74+,1,Jonathan Northcutt,Emory Rains,130.18,281.23,204.12,240.4,725.75,Single-ply,SBD,M
Boys,124.74+,2,Cris Whitaker,Caddo Mills,131.54,281.23,161.03,226.8,669.05,Single-ply,SBD,M
Boys,124.74+,3,Rod Jackson,Commerce,132,229.06,140.61,213.19,582.87,Single-ply,SBD,M
Boys,124.74+,4,Marquise Champion,Greenville,156.94,215.46,124.74,215.46,555.65,Single-ply,SBD,M
Boys,124.74+,5,Gerardo Sanchez,Commerce,127.91,190.51,120.2,167.83,478.54,Single-ply,SBD,M
Boys,124.74+,6,Jesse Luna,Wills Point,135.17,183.7,95.25,151.95,430.91,Single-ply,SBD,M
Boys,,NS,Mack Malone,Wills Point,,,,,,Single-ply,SBD,M
Boys,,NS,Rusty Adair,Wills Point,,,,,,Single-ply,SBD,M
Boys,,NS,Damian Foster,Royse City,,,,,,Single-ply,SBD,M
Boys,,NS,Andrew Hughes,Royse City,,,,,,Single-ply,SBD,M
Boys,,NS,Tanner McMillian,Royse City,,,,,,Single-ply,SBD,M
Boys,,NS,Kenneth Hughes,Hawkins,,,,,,Single-ply,SBD,M
Boys,,NS,Kenneth Whitley,Hawkins,,,,,,Single-ply,SBD,M
Boys,,NS,Dustin Jones,Daingerfield,,,,,,Single-ply,SBD,M
Boys,,NS,Lakendrick Mims,Daingerfield,,,,,,Single-ply,SBD,M
Boys,,NS,Daniel Ryan,Daingerfield,,,,,,Single-ply,SBD,M
Boys,,NS,Dakota Harrell,Daingerfield,,,,,,Single-ply,SBD,M
Boys,,NS,Fernando Rodriguez,Daingerfield,,,,,,Single-ply,SBD,M
Boys,,NS,Braccus Hannah,Daingerfield,,,,,,Single-ply,SBD,M
Boys,,NS,Mike Exley,Daingerfield,,,,,,Single-ply,SBD,M
Boys,,NS,Ray Wallace,Daingerfield,,,,,,Single-ply,SBD,M
Boys,,NS,Donavan Dublin,Daingerfield,,,,,,Single-ply,SBD,M
Boys,,NS,Mauricio Cadena,Commerce,,,,,,Single-ply,SBD,M
Boys,,NS,Marcus Cantera,Commerce,,,,,,Single-ply,SBD,M
Boys,,NS,Jack Willeford,Farmersville,,,,,,Single-ply,SBD,M
Boys,,NS,Alex Wick,Farmersville,,,,,,Single-ply,SBD,M
Boys,,NS,Dakota Hernadez,Emory Rains,,,,,,Single-ply,SBD,M
Boys,,NS,Juan Mendez,Emory Rains,,,,,,Single-ply,SBD,M
