Division,WeightClassKg,Place,Name,Team,BodyweightKg,Best3SquatKg,Best3BenchKg,Best3DeadliftKg,TotalKg,Equipment,Event,Sex
Girls,44.23,1,Angela Hernandez,Kemp,43.36,115.67,65.77,106.59,288.03,Single-ply,SBD,F
Girls,44.23,2,Caitlyn Campbell,Shelbyville,44,83.91,43.09,97.52,224.53,Single-ply,SBD,F
Girls,47.85,1,Hannah Hall,Shelbyville,47.81,127.01,49.9,129.27,306.17,Single-ply,SBD,F
Girls,47.85,2,Ella Pearsin,Diana New Diana,46.63,95.25,40.82,88.45,224.53,Single-ply,SBD,F
Girls,51.94,1,Carmen Villarreal,Kemp,50.53,111.13,61.23,108.86,281.23,Single-ply,SBD,F
Girls,51.94,2,Luisa Soto,White Oak,51.62,120.2,40.82,120.2,281.23,Single-ply,SBD,F
Girls,51.94,3,Emma Brian,Mineola,49.44,104.33,45.36,111.13,260.82,Single-ply,SBD,F
Girls,51.94,4,Steff Moore,Shelbyville,50.98,108.86,40.82,104.33,254.01,Single-ply,SBD,F
Girls,51.94,5,Haylee Reed,Grapeland,51.89,102.06,40.82,104.33,247.21,Single-ply,SBD,F
Girls,56.02,1,Alicia Dennis,Kemp,55.61,136.08,70.31,124.74,331.12,Single-ply,SBD,F
Girls,56.02,2,Jaiden Rose,Shelbyville,55.79,117.93,54.43,120.2,292.57,Single-ply,SBD,F
Girls,56.02,3,Alicia Estrada,Kemp,55.52,108.86,72.57,104.33,285.76,Single-ply,SBD,F
Girls,56.02,4,Jessica Lyman,New London West Rusk,53.71,120.2,52.16,111.13,283.5,Single-ply,SBD,F
Girls,56.02,5,Jaelan Linville,Mount Enterprise,54.79,106.59,65.77,111.13,283.5,Single-ply,SBD,F
Girls,56.02,6,Tori Babin,Shelbyville,55.79,113.4,49.9,117.93,281.23,Single-ply,SBD,F
Girls,56.02,7,Madilynn Newman,Gladewater Union Grove,53.98,108.86,56.7,111.13,276.69,Single-ply,SBD,F
Girls,56.02,8,Sela Aguliar,Gladewater Union Grove,52.62,90.72,52.16,99.79,242.67,Single-ply,SBD,F
Girls,56.02,9,Kylie Grant,Mineola,55.97,90.72,43.09,90.72,224.53,Single-ply,SBD,F
Girls,56.02,DQ,Jaylin Contreras,Kemp,54.34,,,,,Single-ply,SBD,F
Girls,60.1,1,Bethany Alexander,Kemp,58.51,122.47,52.16,127.01,301.64,Single-ply,SBD,F
Girls,60.1,2,Breanna Jackson,Shelbyville,59.87,108.86,52.16,124.74,285.76,Single-ply,SBD,F
Girls,67.36,1,Colleen Pulpan,White Oak,64.95,127.01,77.11,124.74,328.85,Single-ply,SBD,F
Girls,67.36,2,Caitlin Case,Kemp,66.22,138.35,65.77,124.74,328.85,Single-ply,SBD,F
Girls,67.36,3,Cassidy Olazabal,Diana New Diana,61.33,129.27,61.23,120.2,310.71,Single-ply,SBD,F
Girls,67.36,4,Carlie Rogers,Diana New Diana,60.87,117.93,61.23,108.86,288.03,Single-ply,SBD,F
Girls,67.36,5,Evey Crisp,Elysian Fields,66.22,97.52,40.82,117.93,256.28,Single-ply,SBD,F
Girls,67.36,6,Taylor Allen,Gladewater Union Grove,60.33,88.45,47.63,106.59,242.67,Single-ply,SBD,F
Girls,67.36,7,Moriah Chasteen,Gladewater Union Grove,65.41,77.11,47.63,99.79,224.53,Single-ply,SBD,F
Girls,67.36,8,Gracie Ellis,New London West Rusk,64.86,72.57,52.16,90.72,215.46,Single-ply,SBD,F
Girls,67.36,9,Cheyenne Bowman,Grapeland,62.32,74.84,31.75,90.72,197.31,Single-ply,SBD,F
Girls,67.36,DQ,Jessica Decco,New London West Rusk,62.78,,,,,Single-ply,SBD,F
Girls,75.07,1,Elizabeth Thorpe,Grapeland,69.22,138.35,65.77,120.2,324.32,Single-ply,SBD,F
Girls,75.07,2,Kinsey Rogers,Kemp,73.16,124.74,68.04,115.67,308.44,Single-ply,SBD,F
Girls,75.07,3,Gwyn Hennessey,Mineola,70.13,117.93,61.23,120.2,299.37,Single-ply,SBD,F
Girls,75.07,4,Mackenzie Craine,Kemp,71.03,108.86,63.5,111.13,283.5,Single-ply,SBD,F
Girls,75.07,5,Lacie Brown,Mineola,70.4,115.67,45.36,120.2,281.23,Single-ply,SBD,F
Girls,75.07,6,Saddie Randolph,New London West Rusk,68.67,83.91,45.36,97.52,226.8,Single-ply,SBD,F
Girls,75.07,DQ,Chloey Dalrymple,Kemp,71.21,,,,,Single-ply,SBD,F
Girls,75.07,DQ,Katie Melton,Gladewater Union Grove,72.03,97.52,58.97,,,Single-ply,SBD,F
Girls,82.33,1,Desere Cooper,Joaquin,80.92,154.22,79.38,167.83,401.43,Single-ply,SBD,F
Girls,82.33,2,Morgan Gann,New London West Rusk,81.83,122.47,56.7,120.2,299.37,Single-ply,SBD,F
Girls,82.33,3,McKenna Manes,Diana New Diana,77.11,113.4,65.77,117.93,297.1,Single-ply,SBD,F
Girls,82.33,4,MaKayla Henry,Diana New Diana,77.11,108.86,54.43,97.52,260.82,Single-ply,SBD,F
Girls,82.33,5,Carlie Hennessey,Mineola,81.83,83.91,52.16,108.86,244.94,Single-ply,SBD,F
Girls,82.33,6,Amber Largent,Hawkins,75.57,86.18,49.9,102.06,238.14,Single-ply,SBD,F
Girls,90.04,1,Victoria Lane,Grapeland,83.82,38.56,27.22,65.77,131.54,Single-ply,SBD,F
Girls,90.04,DQ,Amanda Torres,Hawkins,87.91,115.67,,,,Single-ply,SBD,F
Girls,90.04,DQ,Jamie Scruggs,Joaquin,87.91,,,,,Single-ply,SBD,F
Girls,100.02,1,Bailey Wilder,Gladewater Union Grove,92.99,151.95,83.91,142.88,378.75,Single-ply,SBD,F
Girls,100.02,2,Jessica Baeza,Kemp,92.17,124.74,70.31,108.86,303.91,Single-ply,SBD,F
Girls,100.02,DQ,Bailey Palmertree,Diana New Diana,90.63,120.2,,,,Single-ply,SBD,F
Girls,100.02,DQ,Destiney Greene,White Oak,96.71,65.77,,,,Single-ply,SBD,F
Girls,117.71,1,Katie Casey,Shelbyville,101.6,190.51,81.65,170.1,442.25,Single-ply,SBD,F
Girls,117.71,DQ,Mya Rose,Hawkins,108.5,115.67,56.7,,,Single-ply,SBD,F
Girls,117.71+,1,Andrea Beasley,Kemp,121.2,163.29,99.79,149.69,412.77,Single-ply,SBD,F
Girls,117.71+,2,Jayce Amos,Gladewater Union Grove,129.36,181.44,72.57,111.13,365.14,Single-ply,SBD,F
Girls,117.71+,DQ,Chaila Barron,White Oak,118.66,61.23,,,,Single-ply,SBD,F
