Division,WeightClassKg,Place,Name,Team,BodyweightKg,Best3SquatKg,Best3BenchKg,Best3DeadliftKg,TotalKg,Equipment,Event,Sex
Boys,51.71,1,Rudy Sanchez,Somerset,50.8,142.88,79.38,142.88,365.14,Single-ply,SBD,M
Boys,51.71,2,Joey Longoria,Pearsall,51.07,136.08,72.57,149.69,358.34,Single-ply,SBD,M
Boys,51.71,3,Mark Jaquez,Uvalde,51.35,131.54,61.23,142.88,335.66,Single-ply,SBD,M
Boys,51.71,4,Brian Lazo,Crystal City,51.71,120.2,68.04,133.81,322.05,Single-ply,SBD,M
Boys,51.71,5,Ricardo Martinez,Pearsall,47.9,90.72,45.36,97.52,233.6,Single-ply,SBD,M
Boys,51.71,6,Jacob Foster,Center Point,47.45,79.38,43.09,99.79,222.26,Single-ply,SBD,M
Boys,51.71,DQ,Johnny Gomez,Rocksprings,51.17,,,,,Single-ply,SBD,M
Boys,55.79,1,Christian Campos,Uvalde,55.25,133.81,74.84,154.22,362.87,Single-ply,SBD,M
Boys,55.79,2,Cristian Martinez,Hondo,55.79,136.08,65.77,136.08,337.93,Single-ply,SBD,M
Boys,55.79,3,Virgil Luna,Crystal City,55.16,83.91,52.16,115.67,251.74,Single-ply,SBD,M
Boys,55.79,4,EJ Chavez,Uvalde,55.34,79.38,52.16,102.06,233.6,Single-ply,SBD,M
Boys,59.87,1,JR Velasquez,Rocksprings,58.79,167.83,124.74,154.22,446.79,Single-ply,SBD,M
Boys,59.87,2,Eli Luna,Somerset,59.24,165.56,92.99,174.63,433.18,Single-ply,SBD,M
Boys,59.87,3,Matthew Hughes,Del Rio,59.87,149.69,104.33,165.56,419.57,Single-ply,SBD,M
Boys,59.87,4,Silverio Mendoza,Crystal City,59.15,149.69,92.99,149.69,392.36,Single-ply,SBD,M
Boys,59.87,5,Fabian Apaez,Somerset,59.42,129.27,74.84,129.27,333.39,Single-ply,SBD,M
Boys,59.87,6,Joe Reyes,La Pryor,57.7,120.2,88.45,122.47,331.12,Single-ply,SBD,M
Boys,59.87,7,Fernando Estrada,San Antonio Brooks Academy,58.88,92.99,49.9,106.59,249.48,Single-ply,SBD,M
Boys,67.13,1,Orlando Gutierrez,Crystal City,66.13,238.14,92.99,204.12,535.24,Single-ply,SBD,M
Boys,67.13,2,Julian Rico,Somerset,64.5,204.12,111.13,183.7,498.95,Single-ply,SBD,M
Boys,67.13,3,John Gamez,San Antonio Brooks Academy,67.04,176.9,102.06,179.17,458.13,Single-ply,SBD,M
Boys,67.13,4,Mario Cabrera,Somerset,66.77,183.7,83.91,185.97,453.59,Single-ply,SBD,M
Boys,67.13,5,Gabriel Martinez,Pearsall,66.13,158.76,70.31,179.17,408.23,Single-ply,SBD,M
Boys,67.13,6,Eladio Arreola,Center Point,65.41,149.69,83.91,145.15,378.75,Single-ply,SBD,M
Boys,67.13,7,Abraham Davila,Uvalde,66.68,145.15,77.11,154.22,376.48,Single-ply,SBD,M
Boys,67.13,8,Jose Ramirez,San Antonio Southside,61.14,149.69,72.57,142.88,365.14,Single-ply,SBD,M
Boys,67.13,9,Richard Munoz,Carrizo Springs,63.68,136.08,83.91,142.88,362.87,Single-ply,SBD,M
Boys,67.13,10,Aaron Urrutia,Del Rio,60.96,113.4,81.65,149.69,344.73,Single-ply,SBD,M
Boys,67.13,11,Ernest Garza,Knippa,60.96,113.4,70.31,115.67,299.37,Single-ply,SBD,M
Boys,67.13,12,Carson Hiebert,Knippa,63.41,102.06,65.77,113.4,281.23,Single-ply,SBD,M
Boys,74.84,1,Ismael Franco,Crystal City,69.4,235.87,149.69,242.67,628.23,Single-ply,SBD,M
Boys,74.84,2,Gilibaldo Garcia,San Antonio Brooks Academy,73.3,233.6,129.27,235.87,598.74,Single-ply,SBD,M
Boys,74.84,3,Cesar Gonzalez,Somerset,72.94,235.87,113.4,229.06,578.33,Single-ply,SBD,M
Boys,74.84,4,Diego Pérez,Rocksprings,74.12,190.51,131.54,183.7,505.76,Single-ply,SBD,M
Boys,74.84,5,Chance Cabiness,Center Point,72.21,185.97,102.06,185.97,474,Single-ply,SBD,M
Boys,74.84,6,Joseph Hidalgo,Somerset,71.76,158.76,120.2,170.1,449.06,Single-ply,SBD,M
Boys,74.84,7,Eden Fuentes,Pearsall,72.94,158.76,70.31,179.17,408.23,Single-ply,SBD,M
Boys,74.84,8,Ricardo Lopez,La Pryor,70.31,142.88,74.84,151.95,369.68,Single-ply,SBD,M
Boys,74.84,9,Daniel Almedia,Uvalde,73.94,92.99,81.65,170.1,344.73,Single-ply,SBD,M
Boys,74.84,10,Larry Allen,Knippa,68.04,97.52,79.38,113.4,290.3,Single-ply,SBD,M
Boys,74.84,11,Ethan Whitehead,Knippa,71.94,77.11,65.77,124.74,267.62,Single-ply,SBD,M
Boys,74.84,12,Jacob Cantu,San Antonio Southwest,74.48,77.11,63.5,106.59,247.21,Single-ply,SBD,M
Boys,82.1,1,Roy DeLeon,Somerset,76.38,240.4,147.42,247.21,635.03,Single-ply,SBD,M
Boys,82.1,2,Eric Gonzalez,Carrizo Springs,80.1,224.53,129.27,217.72,571.53,Single-ply,SBD,M
Boys,82.1,3,Alejandro Flores,Del Rio,80.29,213.19,136.08,208.65,557.92,Single-ply,SBD,M
Boys,82.1,4,Gavin Vara,Uvalde,80.83,183.7,97.52,204.12,485.34,Single-ply,SBD,M
Boys,82.1,5,Josiah Carrizales,Uvalde,81.28,170.1,108.86,192.78,471.74,Single-ply,SBD,M
Boys,82.1,6,Daniel Jiminez Guzman,San Antonio Southside,82.01,197.31,102.06,167.83,467.2,Single-ply,SBD,M
Boys,82.1,7,Ricky Gonzalez,Del Rio,82.1,165.56,120.2,167.83,453.59,Single-ply,SBD,M
Boys,82.1,8,Isaiah Forman,San Antonio Southside,81.65,165.56,111.13,172.37,449.06,Single-ply,SBD,M
Boys,82.1,9,Cesar Franco,Crystal City,75.39,183.7,86.18,176.9,446.79,Single-ply,SBD,M
Boys,82.1,10,Ricardo Aguilar,Pearsall,81.74,179.17,77.11,183.7,439.98,Single-ply,SBD,M
Boys,82.1,11,Marcos Cruz,Carrizo Springs,82.1,179.17,83.91,174.63,437.72,Single-ply,SBD,M
Boys,82.1,12,Ritchie Perez,La Pryor,82.1,154.22,102.06,165.56,421.84,Single-ply,SBD,M
Boys,82.1,13,Ray Leal,Pearsall,78.2,151.95,70.31,172.37,394.63,Single-ply,SBD,M
Boys,82.1,14,Atlee McGuire,Knippa,77.29,115.67,81.65,129.27,326.59,Single-ply,SBD,M
Boys,89.81,1,Joseph Bueno,Somerset,89.45,272.16,142.88,265.35,680.39,Single-ply,SBD,M
Boys,89.81,2,Elias Torres,Somerset,85.09,229.06,142.88,197.31,569.26,Single-ply,SBD,M
Boys,89.81,3,Michael Gonzalez,Somerset,82.55,208.65,145.15,210.92,564.72,Single-ply,SBD,M
Boys,89.81,4,Josiah Marquez,Pearsall,87.63,210.92,102.06,192.78,505.76,Single-ply,SBD,M
Boys,89.81,5,Paulo Valadez,Center Point,82.55,192.78,120.2,170.1,483.08,Single-ply,SBD,M
Boys,89.81,6,Alex Luna,Crystal City,89.27,174.63,124.74,181.44,480.81,Single-ply,SBD,M
Boys,89.81,7,Jose Herrera,Somerset,83.46,149.69,106.59,208.65,464.93,Single-ply,SBD,M
Boys,89.81,8,Daniel Sambrano,La Pryor,86.73,163.29,104.33,172.37,439.98,Single-ply,SBD,M
Boys,89.81,9,Andrew Quijano,San Antonio Southside,87.27,154.22,102.06,163.29,419.57,Single-ply,SBD,M
Boys,89.81,10,George Garza,Uvalde,88.9,117.93,74.84,163.29,356.07,Single-ply,SBD,M
Boys,89.81,11,Brandon Ahern,San Antonio Southwest,87.36,99.79,61.23,122.47,283.5,Single-ply,SBD,M
Boys,99.79,1,Manuel Garcia,Somerset,92.62,249.48,142.88,229.06,621.42,Single-ply,SBD,M
Boys,99.79,2,Manny Arguijo,Del Rio,90.36,235.87,151.95,206.38,594.21,Single-ply,SBD,M
Boys,99.79,3,Mario Medoza,Carrizo Springs,95.44,190.51,124.74,215.46,530.7,Single-ply,SBD,M
Boys,99.79,4,Eligah H Cortez,Uvalde,99.34,226.8,108.86,192.78,528.44,Single-ply,SBD,M
Boys,99.79,5,Ricardo Castaneda,Crystal City,98.88,197.31,117.93,204.12,519.36,Single-ply,SBD,M
Boys,99.79,6,Cesar Mendiola,Uvalde,98.93,156.49,77.11,163.29,396.89,Single-ply,SBD,M
Boys,99.79,7,Malachi Lopez,Pearsall,93.53,122.47,86.18,142.88,351.53,Single-ply,SBD,M
Boys,99.79,8,Phillip Valles,Carrizo Springs,94.17,106.59,74.84,136.08,317.51,Single-ply,SBD,M
Boys,99.79,9,Ezekiel Gonzalez,San Antonio Southwest,96.34,99.79,77.11,108.86,285.76,Single-ply,SBD,M
Boys,99.79,DQ,Sebastian Alaquinez,San Antonio Southwest,90.17,,,,,Single-ply,SBD,M
Boys,109.77,1,Eddie Moreno,Somerset,109.77,281.23,197.31,226.8,705.34,Single-ply,SBD,M
Boys,109.77,2,Jose Mendoza,Del Rio,107.77,249.48,161.03,226.8,637.3,Single-ply,SBD,M
Boys,109.77,3,Matthew Williams,Uvalde,108.91,233.6,129.27,204.12,566.99,Single-ply,SBD,M
Boys,109.77,4,Dizan Rodriguez,Del Rio,101.33,210.92,142.88,204.12,557.92,Single-ply,SBD,M
Boys,109.77,5,Irwin Plata,Uvalde,108.95,231.33,97.52,201.85,530.7,Single-ply,SBD,M
Boys,109.77,6,Joe Gutierrez,Crystal City,103.6,222.26,104.33,183.7,510.29,Single-ply,SBD,M
Boys,109.77,7,Daniel Ramos,Somerset,109.32,204.12,136.08,158.76,498.95,Single-ply,SBD,M
Boys,109.77,8,Elias Rios,Hondo,109.32,195.04,106.59,185.97,487.61,Single-ply,SBD,M
Boys,109.77,9,Daniel Garza,Carrizo Springs,101.97,142.88,115.67,158.76,417.3,Single-ply,SBD,M
Boys,109.77,10,Kollin Meeks,Pearsall,104.87,174.63,92.99,142.88,410.5,Single-ply,SBD,M
Boys,109.77,11,Abraham Rosas,Del Rio,107.59,131.54,86.18,192.78,410.5,Single-ply,SBD,M
Boys,109.77,12,Colton Reddick,Carrizo Springs,105.32,117.93,52.16,124.74,294.84,Single-ply,SBD,M
Boys,124.74,1,Jason Carrillo,Rocksprings,121.56,265.35,170.1,217.72,653.17,Single-ply,SBD,M
Boys,124.74,2,Reynaldo Mendoza,Crystal City,112.85,254.01,127.01,215.46,596.47,Single-ply,SBD,M
Boys,124.74,3,Brandon Orosco,Carrizo Springs,119.57,240.4,136.08,204.12,580.6,Single-ply,SBD,M
Boys,124.74,4,Mark Ruis,Crystal City,117.3,247.21,113.4,185.97,546.58,Single-ply,SBD,M
Boys,124.74,5,Sammy Lara,Uvalde,124.28,195.04,136.08,204.12,535.24,Single-ply,SBD,M
Boys,124.74,6,Vincent Tello,San Antonio Brooks Academy,122.74,199.58,111.13,190.51,501.22,Single-ply,SBD,M
Boys,124.74,7,Gabriel Aguirre,Del Rio,114.03,129.27,61.23,156.49,347,Single-ply,SBD,M
Boys,124.74,8,Nicholas Aguilon,San Antonio Southwest,115.85,83.91,63.5,140.61,288.03,Single-ply,SBD,M
Boys,124.74,9,Zane Artz,San Antonio Southwest,112.76,92.99,52.16,106.59,251.74,Single-ply,SBD,M
Boys,124.74+,1,Joseph Rodriguez,Del Rio,162.2,226.8,158.76,249.48,635.03,Single-ply,SBD,M
Boys,124.74+,2,Sebastian Ramirez,Somerset,132.27,249.48,142.88,210.92,603.28,Single-ply,SBD,M
Boys,124.74+,3,Isaiah Reyna,Somerset,144.15,249.48,102.06,219.99,571.53,Single-ply,SBD,M
Boys,124.74+,4,Jeremiah Price,San Antonio Southwest,133.17,215.46,142.88,204.12,562.45,Single-ply,SBD,M
Boys,124.74+,5,Ronnie Galindo,Del Rio,134.72,188.24,99.79,183.7,471.74,Single-ply,SBD,M
Boys,124.74+,6,Adrian Gomez,Knippa,130.63,172.37,115.67,165.56,453.59,Single-ply,SBD,M
Boys,124.74+,7,Gerry Gonzalez,Del Rio,127.01,161.03,90.72,183.7,435.45,Single-ply,SBD,M
Boys,124.74+,8,Christian Ramirez,Del Rio,137.17,136.08,102.06,163.29,401.43,Single-ply,SBD,M
Boys,124.74+,DQ,Abee Hinojosa,Del Rio,135.9,238.14,124.74,,,Single-ply,SBD,M
