Division,WeightClassKg,Place,Name,Team,BodyweightKg,Best3SquatKg,Best3BenchKg,Best3DeadliftKg,TotalKg,Equipment,Event,Sex
Boys,55.79,1,Emmet Halm,Dallas Jesuit,54.7,127.01,77.11,149.69,353.8,Single-ply,SBD,M
Boys,55.79,2,Will Nickols,Dallas Jesuit,54.98,133.81,74.84,142.88,351.53,Single-ply,SBD,M
Boys,55.79,3,Drake Fucals,Cedar Hill,53.89,136.08,72.57,136.08,344.73,Single-ply,SBD,M
Boys,55.79,DQ,Dan O'Brien,Dallas Jesuit,55.43,97.52,61.23,,,Single-ply,SBD,M
Boys,55.79,DQ,Azyyah Wallace,Irving MacArthur,52.25,97.52,,122.47,,Single-ply,SBD,M
Boys,59.87,1,Nash Corcoran,Dallas Jesuit,58.06,133.81,52.16,138.35,324.32,Single-ply,SBD,M
Boys,67.13,1,Daniel Van Amerongen,Dallas Jesuit,66.95,188.24,102.06,197.31,487.61,Single-ply,SBD,M
Boys,67.13,2,Tj Bellah,Oakridge School,66.59,127.01,70.31,172.37,369.68,Single-ply,SBD,M
Boys,67.13,3,Tre Howard,Irving MacArthur,65.86,133.81,72.57,151.95,358.34,Single-ply,SBD,M
Boys,67.13,4,Chris Fagan,Cedar Hill,61.23,138.35,81.65,122.47,342.46,Single-ply,SBD,M
Boys,67.13,5,Toan Nguyen,Oakridge School,64.32,102.06,56.7,124.74,283.5,Single-ply,SBD,M
Boys,74.84,1,Trevion Scott,Cedar Hill,73.03,195.04,113.4,181.44,489.88,Single-ply,SBD,M
Boys,74.84,2,William Courtney,Dallas Jesuit,72.48,167.83,90.72,197.31,455.86,Single-ply,SBD,M
Boys,74.84,3,Josh Sproulls,Plano John Paul II,74.66,174.63,97.52,181.44,453.59,Single-ply,SBD,M
Boys,74.84,4,Cc Hallmon,Cedar Hill,74.66,158.76,95.25,183.7,437.72,Single-ply,SBD,M
Boys,74.84,5,Kamden Benjamin,Cedar Hill,67.59,149.69,88.45,147.42,385.55,Single-ply,SBD,M
Boys,74.84,6,Nick Drkulec,Oakridge School,69.22,120.2,90.72,129.27,340.19,Single-ply,SBD,M
Boys,74.84,7,Lawrence Thiele,Plano John Paul II,74.66,102.06,72.57,120.2,294.84,Single-ply,SBD,M
Boys,74.84,8,Luis Ramírez,Oakridge School,72.3,106.59,54.43,117.93,278.96,Single-ply,SBD,M
Boys,74.84,9,Shane Kelly,Oakridge School,70.67,92.99,58.97,111.13,263.08,Single-ply,SBD,M
Boys,74.84,10,Thomas White,Oakridge School,67.86,90.72,49.9,115.67,256.28,Single-ply,SBD,M
Boys,82.1,1,Jalen Thomas,Cedar Hill,76.2,185.97,113.4,167.83,467.2,Single-ply,SBD,M
Boys,82.1,2,Alan Habashy,Plano John Paul II,76.2,136.08,97.52,190.51,424.11,Single-ply,SBD,M
Boys,82.1,3,James Burnett,Oakridge School,81.47,124.74,79.38,158.76,362.87,Single-ply,SBD,M
Boys,82.1,4,Anthony Lu,Oakridge School,80.38,129.27,72.57,156.49,358.34,Single-ply,SBD,M
Boys,82.1,5,Joseph Buskmiller,Dallas Jesuit,79.74,111.13,79.38,158.76,349.27,Single-ply,SBD,M
Boys,82.1,6,Abel Gebremariam,Plano John Paul II,79.11,113.4,83.91,142.88,340.19,Single-ply,SBD,M
Boys,82.1,7,Carter Benton,Plano John Paul II,78.47,106.59,70.31,136.08,312.98,Single-ply,SBD,M
Boys,82.1,8,Colin Record,Plano John Paul II,80.47,104.33,70.31,136.08,310.71,Single-ply,SBD,M
Boys,82.1,9,Preston Tran,Oakridge School,76.2,120.2,54.43,124.74,299.37,Single-ply,SBD,M
Boys,82.1,DQ,Anthony Sinacola,Plano John Paul II,79.38,92.99,81.65,111.13,,Single-ply,SBD,M
Boys,82.1,DQ,Jerry DeCarlo,Plano John Paul II,81.01,63.5,58.97,108.86,,Single-ply,SBD,M
Boys,82.1,DQ,Jared Burkhart,Plano John Paul II,77.29,90.72,,124.74,,Single-ply,SBD,M
Boys,82.1,DQ,David Ritter,Dallas Jesuit,81.19,142.88,,170.1,,Single-ply,SBD,M
Boys,89.81,1,Kijohn McCoy,Cedar Hill,85.18,204.12,104.33,215.46,523.9,Single-ply,SBD,M
Boys,89.81,2,Cauren Lynch,Irving MacArthur,89.27,197.31,97.52,217.72,512.56,Single-ply,SBD,M
Boys,89.81,3,Daniel Sylvia,Irving MacArthur,84.91,183.7,106.59,183.7,474,Single-ply,SBD,M
Boys,89.81,4,Chris Jones,Irving MacArthur,85.64,170.1,95.25,158.76,424.11,Single-ply,SBD,M
Boys,89.81,5,Jacob Choudhry,Oakridge School,83.1,142.88,77.11,142.88,362.87,Single-ply,SBD,M
Boys,89.81,DQ,Nick Horne,Plano John Paul II,82.37,111.13,65.77,136.08,,Single-ply,SBD,M
Boys,89.81,DQ,Kris Marin,Irving MacArthur,89.36,174.63,,,,Single-ply,SBD,M
Boys,99.79,1,Lyn Gaines,Oakridge School,97.52,154.22,79.38,181.44,415.04,Single-ply,SBD,M
Boys,99.79,DQ,Jose Bardares,Irving MacArthur,90.9,,,170.1,,Single-ply,SBD,M
Boys,99.79,DQ,Christian Hernandez,Cedar Hill,92.17,206.38,,206.38,,Single-ply,SBD,M
Boys,109.77,1,Branson Hickman,Dallas Jesuit,109.77,192.78,129.27,188.24,510.29,Single-ply,SBD,M
Boys,109.77,2,Gabe Morales,Dallas Jesuit,101.24,174.63,97.52,165.56,437.72,Single-ply,SBD,M
Boys,109.77,3,Nathan Brown,Plano John Paul II,108.41,102.06,70.31,111.13,283.5,Single-ply,SBD,M
Boys,109.77,DQ,Mystery Fields,Cedar Hill,101.51,,111.13,183.7,,Single-ply,SBD,M
Boys,124.74,1,Daveon Wells,Cedar Hill,115.12,206.38,115.67,226.8,548.85,Single-ply,SBD,M
Boys,124.74,2,Ethan Lane,Dallas Jesuit,115.67,215.46,120.2,204.12,539.77,Single-ply,SBD,M
Boys,124.74,3,Abel Garcia,Irving MacArthur,121.56,215.46,124.74,163.29,503.49,Single-ply,SBD,M
Boys,124.74,DQ,Kenny Singleton,Irving MacArthur,115.03,238.14,138.35,,,Single-ply,SBD,M
Boys,124.74+,1,David Morales,Dallas Jesuit,128.46,195.04,120.2,190.51,505.76,Single-ply,SBD,M
Boys,124.74+,2,Steve Carter,Cedar Hill,135.81,158.76,122.47,195.04,476.27,Single-ply,SBD,M
Boys,124.74+,3,Jeremiah Clark,Irving MacArthur,135.4,165.56,124.74,174.63,464.93,Single-ply,SBD,M
