Place,Sex,Name,Event,Division,WeightClassKg,Equipment,State,BodyweightKg,Squat1Kg,Squat2Kg,Squat3Kg,Best3SquatKg,Bench1Kg,Bench2Kg,Bench3Kg,Best3BenchKg,Deadlift1Kg,Deadlift2Kg,Deadlift3Kg,Best3DeadliftKg,TotalKg,BirthYear
1,M,Charlie Anderson,B,MR-M4,83,Raw,MI,81.4,,,,,107.5,120,-125,120,,,,,120,1961
1,M,Charlie Anderson,B,MR-O,83,Raw,MI,81.4,,,,,107.5,120,-125,120,,,,,120,1961
1,M,Anthony Leone,SBD,MR-Jr,66,Raw,MI,61.5,97.5,107.5,115,115,82.5,87.5,-92.5,87.5,140,150,160,160,362.5,1995
1,M,Joey Burke,SBD,MR-Jr,74,Raw,MI,73.2,180,190,-202.5,190,120,-127.5,127.5,127.5,225,-235,237.5,237.5,555,1994
2,M,Anthony Rios,SBD,MR-Jr,74,Raw,MI,72.1,187.5,197.5,202.5,202.5,117.5,-125,,117.5,187.5,197.5,207.5,207.5,527.5,1993
1,M,AJ Rodriguez,SBD,MR-Jr,83,Raw,MI,80.9,225,232.5,240,240,137.5,145,152.5,152.5,235,247.5,-275,247.5,640,1992
2,M,Drake Wednig,SBD,MR-Jr,83,Raw,MI,80.5,152.5,167.5,175,175,92.5,100,-107.5,100,195,210,222.5,222.5,497.5,1995
1,M,Joaquin Jacquez,SBD,MR-Jr,93,Raw,MI,91.7,185,200,215,215,110,-130,132.5,132.5,195,215,227.5,227.5,575,1993
2,M,Francesco Pollaccia,SBD,MR-Jr,93,Raw,MI,87.3,177.5,187.5,200,200,122.5,130,132.5,132.5,205,220,230,230,562.5,1994
3,M,Kyle Prellwitz,SBD,MR-Jr,93,Raw,MI,89.5,145,162.5,175,175,102.5,107.5,112.5,112.5,220,237.5,247.5,247.5,535,1993
1,M,Jordan Bywater,SBD,MR-Jr,105,Raw,MI,101.9,242.5,265,-272.5,265,170,-177.5,,170,272.5,-287.5,287.5,287.5,722.5,1993
1,M,Dan Rooyakker,SBD,MR-Jr,120,Raw,MI,118.3,265,270,-275,270,165,177.5,185,185,265,272.5,282.5,282.5,737.5,1993
DQ,M,Blake Atwell,SBD,MR-Jr,120,Raw,MI,118.2,312.5,-317.5,,312.5,-190,-190,,,,,,,,1993
1,M,Conan Stoehr,SBD,MR-M1,120+,Raw,MI,126.6,242.5,247.5,255,255,165,-175,-175,165,272.5,277.5,-285,277.5,697.5,1974
1,M,Luke Arends,SBD,MR-O,66,Raw,MI,59.2,127.5,137.5,142.5,142.5,90,95,-100,95,175,185,190,190,427.5,1995
2,M,Anthony Leone,SBD,MR-O,66,Raw,MI,61.5,97.5,107.5,115,115,82.5,87.5,-92.5,87.5,140,150,160,160,362.5,1995
1,M,Joey Burke,SBD,MR-O,74,Raw,MI,73.2,180,190,-202.5,190,120,-127.5,127.5,127.5,225,-235,237.5,237.5,555,1994
2,M,Anthony Rios,SBD,MR-O,74,Raw,MI,72.1,187.5,197.5,202.5,202.5,117.5,-125,,117.5,187.5,197.5,207.5,207.5,527.5,1993
3,M,David Hudson,SBD,MR-O,74,Raw,MI,72.4,170,185,190,190,97.5,-100,-100,97.5,177.5,197.5,212.5,212.5,500,1996
4,M,Miguel Prieto,SBD,MR-O,74,Raw,MI,72.9,-165,165,-170,165,105,110,-112.5,110,190,197.5,215,215,490,1995
5,M,Zach Idyle,SBD,MR-O,74,Raw,MI,72.8,150,157.5,167.5,167.5,107.5,110,115,115,160,167.5,177.5,177.5,460,1998
1,M,AJ Rodriguez,SBD,MR-O,83,Raw,MI,80.9,225,232.5,240,240,137.5,145,152.5,152.5,235,247.5,-275,247.5,640,1992
2,M,Jeff Tirrell,SBD,MR-O,83,Raw,MI,81.8,190,202.5,215,215,127.5,135,142.5,142.5,235,247.5,257.5,257.5,615,1986
3,M,Cody Stoddard,SBD,MR-O,83,Raw,MI,80.3,192.5,197.5,205,205,105,112.5,-122.5,112.5,237.5,245,255,255,572.5,1992
4,M,Rob Cady,SBD,MR-O,83,Raw,MI,82.4,175,187.5,190,190,130,140,-145,140,185,197.5,207.5,207.5,537.5,1990
5,M,Drake Wednig,SBD,MR-O,83,Raw,MI,80.5,152.5,167.5,175,175,92.5,100,-107.5,100,195,210,222.5,222.5,497.5,1995
6,M,Trevor Downie,SBD,MR-O,83,Raw,MI,81.7,177.5,187.5,192.5,192.5,97.5,105,107.5,107.5,182.5,195,-200,195,495,1999
1,M,Jordan Myers,SBD,MR-O,93,Raw,MI,91.5,-175,185,190,190,135,145,-147.5,145,,,280,280,615,1990
2,M,Joaquin Jacquez,SBD,MR-O,93,Raw,MI,91.7,185,200,215,215,110,-130,132.5,132.5,195,215,227.5,227.5,575,1993
3,M,Casey Goodenough,SBD,MR-O,93,Raw,MI,90.8,167.5,182.5,185,185,130,142.5,-147.5,142.5,240,-265,-265,240,567.5,1989
4,M,Matthew Lawrey,SBD,MR-O,93,Raw,MI,87.3,-175,-180,180,180,127.5,-132.5,-132.5,127.5,227.5,237.5,-250,237.5,545,1994
5,M,Dane Roach,SBD,MR-O,93,Raw,MI,89.3,170,180,185,185,125,132.5,,132.5,212.5,220,227.5,227.5,545,1991
6,M,Elliot Kusey,SBD,MR-O,93,Raw,MI,90.4,-182.5,182.5,190,190,102.5,-115,-115,102.5,227.5,240,252.5,252.5,545,1995
7,M,Kyle Prellwitz,SBD,MR-O,93,Raw,MI,89.5,145,162.5,175,175,102.5,107.5,112.5,112.5,220,237.5,247.5,247.5,535,1993
8,M,Nicholas Gayeski,SBD,MR-O,93,Raw,MI,92.1,137.5,147.5,160,160,95,100,-105,100,165,175,182.5,182.5,442.5,1999
DQ,M,Malik Green,SBD,MR-O,93,Raw,MI,90.9,-200,-205,-207.5,,102.5,105,-137.5,105,272.5,-275,280,280,,1996
1,M,Darius Kellar,SBD,MR-O,105,Raw,MI,103.6,277.5,-292.5,292.5,292.5,-167.5,167.5,-180,167.5,287.5,-317.5,332.5,332.5,792.5,1989
2,M,Jordan Bywater,SBD,MR-O,105,Raw,MI,101.9,242.5,265,-272.5,265,170,-177.5,,170,272.5,-287.5,287.5,287.5,722.5,1993
3,M,Matthew McHugh,SBD,MR-O,105,Raw,MI,104.7,242.5,255,-265,255,-177.5,187.5,190,190,265,272.5,277.5,277.5,722.5,1989
4,M,Kevin Nicotera,SBD,MR-O,105,Raw,MI,102.3,230,-240,-240,230,135,140,-147.5,140,265,277.5,-287.5,277.5,647.5,1989
5,M,Ian Taylor,SBD,MR-O,105,Raw,MI,97.8,217.5,-227.5,-227.5,217.5,127.5,-137.5,,127.5,272.5,287.5,-295,287.5,632.5,1992
6,M,Dan Tinkle,SBD,MR-O,105,Raw,MI,100.7,192.5,200,210,210,150,157.5,165,165,225,240,245,245,620,1990
7,M,Nathan Hamp,SBD,MR-O,105,Raw,MI,102.6,190,210,215,215,120,127.5,135,135,212.5,227.5,237.5,237.5,587.5,1987
8,M,Brandon Graveline,SBD,MR-O,105,Raw,MI,102.6,-190,200,212.5,212.5,145,155,-162.5,155,217.5,-230,-230,217.5,585,1983
9,M,Casey Coleman,SBD,MR-O,105,Raw,MI,98.5,187.5,200,-215,200,132.5,-142.5,142.5,142.5,210,225,237.5,237.5,580,1989
10,M,Nick Diener,SBD,MR-O,105,Raw,MI,104.5,165,180,192.5,192.5,110,-117.5,117.5,117.5,215,230,245,245,555,1987
11,M,Julius Gewarges,SBD,MR-O,105,Raw,MI,99.2,147.5,160,167.5,167.5,122.5,130,132.5,132.5,180,190,200,200,500,1990
1,M,Isiah Grice,SBD,MR-O,120,Raw,MI,117.7,267.5,280,290,290,185,197.5,-210,197.5,310,320,-330,320,807.5,1990
2,M,Dan Rooyakker,SBD,MR-O,120,Raw,MI,118.3,265,270,-275,270,165,177.5,185,185,265,272.5,282.5,282.5,737.5,1993
DQ,M,Blake Atwell,SBD,MR-O,120,Raw,MI,118.2,312.5,-317.5,,312.5,-190,-190,,,,,,,,1993
1,M,Conan Stoehr,SBD,MR-O,120+,Raw,MI,126.6,242.5,247.5,255,255,165,-175,-175,165,272.5,277.5,-285,277.5,697.5,1974
2,M,Kevin Remer,SBD,MR-O,120+,Raw,MI,122.6,220,237.5,240,240,127.5,137.5,-142.5,137.5,262.5,275,277.5,277.5,655,1978
3,M,Erik Mason,SBD,MR-O,120+,Raw,MI,148.6,230,247.5,-260,247.5,137.5,-140,140,140,230,255,262.5,262.5,650,1992
4,M,Alex Pierson,SBD,MR-O,120+,Raw,IN,157.7,-180,-180,185,185,122.5,-132.5,137.5,137.5,225,235,-242.5,235,557.5,1988
1,M,David Hudson,SBD,MR-T,74,Raw,MI,71.4,170,185,190,190,97.5,-100,-100,97.5,177.5,197.5,212.5,212.5,500,1996
2,M,Zach Idyle,SBD,MR-T,74,Raw,MI,72.8,150,157.5,167.5,167.5,107.5,110,115,115,160,167.5,177.5,177.5,460,1998
1,M,Trevor Downie,SBD,MR-T,83,Raw,MI,81.7,177.5,187.5,192.5,192.5,97.5,105,107.5,107.5,182.5,195,-200,195,495,1999
1,M,Nicholas Gayeski,SBD,MR-T,93,Raw,MI,92.1,137.5,147.5,160,160,95,100,-105,100,165,175,182.5,182.5,442.5,1999
1,F,Amber Harvey,SBD,FR-Jr,52,Raw,MI,51.5,60,65,-75,65,35,-40,,35,80,87.5,95,95,195,1996
1,F,Lauren Witnauer,SBD,FR-Jr,52,Raw,MI,51.2,92.5,97.5,-105,97.5,57.5,62.5,65,65,80,85,90,90,252.5,1993
2,F,Jessica Kallie,SBD,FR-Jr,52,Raw,MI,52,-82.5,82.5,87.5,87.5,40,-47.5,-47.5,40,97.5,105,-115,105,232.5,1993
1,F,Jenna-Lynn Joyce,SBD,FR-Jr,57,Raw,MI,52.9,77.5,85,-92.5,85,52.5,60,-65,60,112.5,-122.5,122.5,122.5,267.5,1993
1,F,Ashley Bogan,SBD,FR-Jr,63,Raw,MI,61.9,122.5,130,132.5,132.5,60,65,70,70,137.5,147.5,155,155,357.5,1995
2,F,Madison Kohler,SBD,FR-Jr,63,Raw,MI,62.2,102.5,107.5,-120,107.5,62.5,-67.5,-67.5,62.5,107.5,-110,115,115,285,1995
1,F,Gina Hensley,SBD,FR-Jr,72,Raw,MI,71.2,135,145,-150,145,75,80,-82.5,80,175,185,190,190,415,1995
2,F,Christina Choulagh,SBD,FR-Jr,72,Raw,MI,69.8,127.5,-137.5,-137.5,127.5,62.5,70,77.5,77.5,140,152.5,165,165,370,1994
3,F,Leigha Ballien,SBD,FR-Jr,72,Raw,MI,71.3,125,132.5,-140,132.5,65,-70,70,70,145,152.5,160,160,362.5,1993
1,F,Kelsey Schrand,SBD,FR-Jr,84,Raw,MI,77.8,85,90,100,100,47.5,52.5,57.5,57.5,105,-135,137.5,137.5,295,1995
2,F,Kristen Gliniecki,SBD,FR-Jr,84,Raw,MI,75.8,37.5,45,57.5,57.5,35,40,45,45,75,85,97.5,97.5,200,1992
1,F,Tonya Armour,SBD,FR-M2,63,Raw,MI,61.4,70,80,87.5,87.5,40,45,-52.5,45,90,95,102.5,102.5,235,1969
1,F,Tonya Robinson,SBD,FR-M2,84,Raw,MI,79.9,100,105,-112.5,105,47.5,-52.5,52.5,52.5,107.5,115,127.5,127.5,285,1970
1,F,Christine McDunnough,SBD,FR-M3,47,Raw,MI,45.9,70,80,-87.5,80,37.5,42.5,-47.5,42.5,80,90,97.5,97.5,220,1964
1,F,Paula Jurado,SBD,FR-M3,84,Raw,MI,73.7,70,77.5,85,85,57.5,60,62.5,62.5,115,125,130,130,277.5,1963
1,F,Suzanne Anderson,SBD,FR-M4,72,Raw,MI,69.3,-65,65,-75,65,50,60,-62.5,60,100,112.5,117.5,117.5,242.5,1961
1,F,Christine McDunnough,SBD,FR-O,47,Raw,MI,45.9,70,80,-87.5,80,37.5,42.5,-47.5,42.5,80,90,97.5,97.5,220,1964
1,F,Lauren Witnauer,SBD,FR-O,52,Raw,MI,51.2,92.5,97.5,-105,97.5,57.5,62.5,65,65,80,85,90,90,252.5,1993
2,F,Jessica Kallie,SBD,FR-O,52,Raw,MI,52,-82.5,82.5,87.5,87.5,40,-47.5,-47.5,40,97.5,105,-115,105,232.5,1993
3,F,Amber Harvey,SBD,FR-O,52,Raw,MI,51.5,60,65,-75,65,35,-40,,35,80,87.5,95,95,195,1996
1,F,Jenna-Lynn Joyce,SBD,FR-O,57,Raw,MI,52.9,77.5,85,-92.5,85,52.5,60,-65,60,112.5,-122.5,122.5,122.5,267.5,1993
1,F,Megan Baker,SBD,FR-O,63,Raw,MI,62.8,127.5,135,140,140,80,82.5,-85,82.5,122.5,135,142.5,142.5,365,1989
2,F,Ashley Bogan,SBD,FR-O,63,Raw,MI,61.9,122.5,130,132.5,132.5,60,65,70,70,137.5,147.5,155,155,357.5,1995
3,F,Kathleen McLeod,SBD,FR-O,63,Raw,MI,59.4,115,120,-122.5,120,62.5,65,-67.5,65,-157.5,157.5,165,165,350,1985
4,F,Sarah Bodary,SBD,FR-O,63,Raw,MI,61.5,115,122.5,125,125,77.5,87.5,-90,87.5,122.5,137.5,-142.5,137.5,350,1989
5,F,Courtney Bishop,SBD,FR-O,63,Raw,MI,62.8,120,125,130,130,55,57.5,60,60,132.5,137.5,147.5,147.5,337.5,1991
6,F,Kelly Mureiko,SBD,FR-O,63,Raw,MI,62.2,90,100,110,110,57.5,62.5,65,65,135,142.5,147.5,147.5,322.5,1980
7,F,Ariel Crumes,SBD,FR-O,63,Raw,MI,62.5,112.5,115,125,125,52.5,-60,-60,52.5,127.5,-142.5,142.5,142.5,320,1997
8,F,Hannah Mathie,SBD,FR-O,63,Raw,MI,61.4,122.5,125,-130,125,57.5,60,-65,60,115,122.5,127.5,127.5,312.5,1996
9,F,Emma Stoetzel,SBD,FR-O,63,Raw,MI,57.7,87.5,95,102.5,102.5,47.5,52.5,-57.5,52.5,110,120,130,130,285,1996
10,F,Madison Kohler,SBD,FR-O,63,Raw,MI,62.2,102.5,107.5,-120,107.5,62.5,-67.5,-67.5,62.5,107.5,-110,115,115,285,1995
11,F,Jessica Ouimet,SBD,FR-O,63,Raw,MI,62.5,85,92.5,-97.5,92.5,57.5,60,-65,60,110,120,130,130,282.5,1984
12,F,Tonya Armour,SBD,FR-O,63,Raw,MI,62.8,70,80,87.5,87.5,40,45,-52.5,45,90,95,102.5,102.5,235,1969
13,F,Jessica Delegrade,SBD,FR-O,63,Raw,MI,59.2,70,80,90,90,37.5,42.5,-47.5,42.5,80,90,97.5,97.5,230,1982
14,F,Hannah Hopkins,SB,FR-O,63,Raw,MI,58.5,122.5,130,-135,130,-55,57.5,,57.5,,,,,187.5,1999
1,F,Gina Hensley,SBD,FR-O,72,Raw,MI,71.2,135,145,-150,145,75,80,-82.5,80,175,185,190,190,415,1995
2,F,Joanna Valdez,SBD,FR-O,72,Raw,MI,70.7,135,145,152.5,152.5,75,80,82.5,82.5,137.5,147.5,155,155,390,1990
3,F,Christina Choulagh,SBD,FR-O,72,Raw,MI,69.8,127.5,-137.5,-137.5,127.5,62.5,70,77.5,77.5,140,152.5,165,165,370,1994
4,F,Leigha Ballien,SBD,FR-O,72,Raw,MI,71.3,125,132.5,-140,132.5,65,-70,70,70,145,152.5,160,160,362.5,1993
5,F,Amy Vance,SBD,FR-O,72,Raw,IN,68.3,125,132.5,135,135,65,70,77.5,77.5,132.5,140,147.5,147.5,360,1976
6,F,Alexandra Toma,SBD,FR-O,72,Raw,MI,71.3,127.5,-137.5,-137.5,127.5,52.5,-57.5,57.5,57.5,140,152.5,-165,152.5,337.5,1991
7,F,Suzanne Anderson,SBD,FR-O,72,Raw,MI,69.3,-65,65,-75,65,50,60,-62.5,60,100,112.5,117.5,117.5,242.5,1961
8,F,Kim Blaha,SBD,FR-O,72,Raw,MI,65.1,60,70,82.5,82.5,42.5,47.5,52.5,52.5,90,102.5,105,105,240,1987
9,F,Robin Forstat,SBD,FR-O,72,Raw,MI,69.3,47.5,55,60,60,40,45,47.5,47.5,75,90,-102.5,90,197.5,1956
1,F,Autumn Wilson,SBD,FR-O,84,Raw,MI,75.8,142.5,147.5,-152.5,147.5,75,-85,-85,75,142.5,150,162.5,162.5,385,1996
2,F,Jenna Fox,SBD,FR-O,84,Raw,MI,72.6,110,117.5,-122.5,117.5,60,67.5,-72.5,67.5,137.5,150,165,165,350,1991
3,F,Jessica Galati,SBD,FR-O,84,Raw,MI,79.4,117.5,125,-130,125,70,72.5,75,75,137.5,142.5,150,150,350,1986
4,F,Stephanie Lozen,SBD,FR-O,84,Raw,MI,82.5,95,105,112.5,112.5,85,-92.5,-92.5,85,107.5,-117.5,125,125,322.5,1980
5,F,Kelsey Schrand,SBD,FR-O,84,Raw,MI,77.8,85,90,100,100,47.5,52.5,57.5,57.5,105,-135,137.5,137.5,295,1995
6,F,Tonya Robinson,SBD,FR-O,84,Raw,MI,79.9,100,105,-112.5,105,47.5,-52.5,52.5,52.5,107.5,115,127.5,127.5,285,1970
7,F,Paula Jurado,SBD,FR-O,84,Raw,MI,73.7,70,77.5,85,85,57.5,60,62.5,62.5,115,125,130,130,277.5,1963
8,F,Kristen Gliniecki,SBD,FR-O,84,Raw,MI,75.8,37.5,45,57.5,57.5,35,40,45,45,75,85,97.5,97.5,200,1992
1,F,Amy Poplata,SBD,FR-O,84+,Raw,MI,88,137.5,142.5,150,150,87.5,92.5,-95,92.5,150,157.5,-167.5,157.5,400,1985
1,F,Ariel Crumes,SBD,FR-T,63,Raw,MI,62.5,112.5,115,125,125,52.5,-60,-60,52.5,127.5,-142.5,142.5,142.5,320,1997
2,F,Hannah Mathie,SBD,FR-T,63,Raw,MI,61.4,122.5,125,-130,125,57.5,60,-65,60,115,122.5,127.5,127.5,312.5,1996
3,F,Emma Stoetzel,SBD,FR-T,63,Raw,MI,57.7,87.5,95,102.5,102.5,47.5,52.5,-57.5,52.5,110,120,130,130,285,1996
4,F,Hannah Hopkins,SB,FR-T,63,Raw,MI,58.5,122.5,130,-135,130,-55,57.5,,57.5,,,,,187.5,1999
