Division,WeightClassKg,Place,Name,Team,BodyweightKg,Best3SquatKg,Best3BenchKg,Best3DeadliftKg,TotalKg,Equipment,Event,Sex
Boys,51.71,1,Stevie Solis,PSJA Memorial,51.07,163.29,86.18,172.37,421.84,Single-ply,SBD,M
Boys,51.71,2,Cesar Casas,Hidalgo Early College,51.71,158.76,88.45,158.76,405.97,Single-ply,SBD,M
Boys,51.71,3,Pablo Gutierrez,Weslaco East,51.07,136.08,83.91,151.95,371.95,Single-ply,SBD,M
Boys,51.71,DQ,Lopez Christian,PSJA North,49.8,,,,,Single-ply,SBD,M
Boys,55.79,1,Rudy Garay,Los Fresnos,52.34,226.8,117.93,188.24,532.97,Single-ply,SBD,M
Boys,55.79,2,Rolando Borjas,Los Fresnos,54.7,213.19,113.4,206.38,532.97,Single-ply,SBD,M
Boys,55.79,3,Omar Puente,Los Fresnos,54.98,188.24,111.13,188.24,487.61,Single-ply,SBD,M
Boys,59.87,4,Marcos Oyervides,PSJA,55.88,183.7,92.99,165.56,442.25,Single-ply,SBD,M
Boys,55.79,5,Daniel Rodriguez,PSJA,55.07,161.03,92.99,179.17,433.18,Single-ply,SBD,M
Boys,55.79,6,Robert de la Cerda,Mercedes,55.7,149.69,95.25,172.37,417.3,Single-ply,SBD,M
Boys,55.79,7,Eddie Garza,PSJA Southwest,54.88,111.13,61.23,115.67,288.03,Single-ply,SBD,M
Boys,55.79,DQ,Austin Soto,Mission,55.25,188.24,97.52,,,Single-ply,SBD,M
Boys,59.87,1,Jesse Casarez,Mercedes,59.87,206.38,99.79,170.1,476.27,Single-ply,SBD,M
Boys,59.87,2,Isaac Diez,PSJA,58.69,183.7,106.59,145.15,435.45,Single-ply,SBD,M
Boys,59.87,3,Martin Saldana,PSJA Southwest,59.78,156.49,79.38,149.69,385.55,Single-ply,SBD,M
Boys,67.13,4,Robert Aranda,Mission Veterans Memorial,59.96,154.22,81.65,136.08,371.95,Single-ply,SBD,M
Boys,67.13,5,Miguel Cantu,Mission,59.96,136.08,92.99,131.54,360.61,Single-ply,SBD,M
Boys,59.87,6,Lorenzo Huerta,PSJA Southwest,59.65,129.27,74.84,145.15,349.27,Single-ply,SBD,M
Boys,67.13,DQ,Carlos Castillo,Los Fresnos,60.1,183.7,,,,Single-ply,SBD,M
Boys,67.13,1,Justin Gonzalez,Weslaco,64.59,199.58,97.52,195.04,492.15,Single-ply,SBD,M
Boys,67.13,2,Edward Palomin,Weslaco,65.77,190.51,106.59,195.04,492.15,Single-ply,SBD,M
Boys,67.13,3,Joe Bazaldua,Mercedes,65.23,190.51,108.86,190.51,489.88,Single-ply,SBD,M
Boys,67.13,4,Julian Morales,Weslaco,65.23,197.31,83.91,197.31,478.54,Single-ply,SBD,M
Boys,67.13,5,Jesse Villareal,PSJA Southwest,67.04,181.44,83.91,172.37,437.72,Single-ply,SBD,M
Boys,67.13,6,Christian de la Garza,Mission Veterans Memorial,63.87,99.79,65.77,127.01,292.57,Single-ply,SBD,M
Boys,67.13,7,Anthony Vela,Mercedes,63.05,104.33,68.04,108.86,281.23,Single-ply,SBD,M
Boys,74.84,1,Gus Sanchez,Los Fresnos,73.57,265.35,136.08,238.14,639.57,Single-ply,SBD,M
Boys,74.84,2,Isaac Garza,PSJA Memorial,71.35,219.99,140.61,215.46,576.06,Single-ply,SBD,M
Boys,74.84,3,DJ Martinez,PSJA Memorial,74.39,217.72,129.27,222.26,569.26,Single-ply,SBD,M
Boys,74.84,4,Aric Hernandez,Weslaco,74.75,206.38,120.2,233.6,560.19,Single-ply,SBD,M
Boys,74.84,5,Derek Andrade,Weslaco East,73.57,204.12,117.93,235.87,557.92,Single-ply,SBD,M
Boys,74.84,6,Robert Cantu,Mission Sharyland,70.67,192.78,111.13,208.65,512.56,Single-ply,SBD,M
Boys,74.84,7,Noel Zuniga,PSJA,70.94,206.38,104.33,197.31,508.02,Single-ply,SBD,M
Boys,74.84,8,Juan Servantes,PSJA Memorial,72.71,179.17,97.52,183.7,460.4,Single-ply,SBD,M
Boys,74.84,9,Marcos Lopez,Donna,68.22,181.44,99.79,167.83,449.06,Single-ply,SBD,M
Boys,74.84,10,Rene Codina,Mission Veterans Memorial,73.03,165.56,102.06,165.56,433.18,Single-ply,SBD,M
Boys,74.84,11,Mario Breck,PSJA North,72.85,165.56,99.79,154.22,419.57,Single-ply,SBD,M
Boys,74.84,12,Omar Alejos,PSJA Southwest,72.57,161.03,90.72,154.22,405.97,Single-ply,SBD,M
Boys,74.84,13,Daniel Rodriguez,Mission Veterans Memorial,70.76,129.27,88.45,145.15,362.87,Single-ply,SBD,M
Boys,82.1,1,Eliseo Garza,Los Fresnos,81.83,249.48,147.42,249.48,646.37,Single-ply,SBD,M
Boys,82.1,2,Luis Muñoz,Hidalgo Early College,81.83,251.74,147.42,219.99,619.15,Single-ply,SBD,M
Boys,89.81,3,Matt Galvan,San Benito,82.19,226.8,129.27,226.8,582.87,Single-ply,SBD,M
Boys,82.1,4,Teo Fonseca,PSJA,81.28,242.67,129.27,199.58,571.53,Single-ply,SBD,M
Boys,82.1,5,Danny Cruz,Donna,76.48,222.26,124.74,213.19,560.19,Single-ply,SBD,M
Boys,82.1,6,Wence Anzaldua,Hidalgo Early College,76.29,226.8,127.01,204.12,557.92,Single-ply,SBD,M
Boys,82.1,7,Baldo Candaloza,Weslaco East,81.28,208.65,122.47,222.26,553.38,Single-ply,SBD,M
Boys,82.1,8,JD Elizondo,PSJA,79.74,206.38,142.88,181.44,530.7,Single-ply,SBD,M
Boys,82.1,9,Randy de la Garza,Mission,80.83,199.58,129.27,183.7,512.56,Single-ply,SBD,M
Boys,82.1,10,Joe Garcia,Donna,81.37,192.78,120.2,199.58,512.56,Single-ply,SBD,M
Boys,82.1,11,Marco Villarreal,Mission Sharyland,78.93,197.31,120.2,185.97,503.49,Single-ply,SBD,M
Boys,82.1,12,Jesse Vega,Mercedes,80.56,192.78,122.47,176.9,492.15,Single-ply,SBD,M
Boys,82.1,13,Rick Garza,Mercedes,81.1,185.97,129.27,174.63,489.88,Single-ply,SBD,M
Boys,82.1,14,Alberto Roque,Mission,80.56,176.9,104.33,185.97,467.2,Single-ply,SBD,M
Boys,82.1,15,AJ Alvarez,Donna,80.47,165.56,99.79,176.9,442.25,Single-ply,SBD,M
Boys,82.1,16,Sabas Garcia,Mission,77.75,154.22,95.25,172.37,421.84,Single-ply,SBD,M
Boys,82.1,DQ,Geraldo Perez,Mercedes,82.1,233.6,,,,Single-ply,SBD,M
Boys,89.81,1,Ramiro Flores,Los Fresnos,88.18,272.16,161.03,240.4,673.58,Single-ply,SBD,M
Boys,99.79,2,Steven Estevanes,Weslaco East,90.04,267.62,158.76,240.4,666.78,Single-ply,SBD,M
Boys,89.81,3,Sylvano Cruces,Los Fresnos,87.27,233.6,136.08,233.6,603.28,Single-ply,SBD,M
Boys,89.81,4,Garcia Gilbert,Mission Sharyland,87.72,244.94,122.47,219.99,587.4,Single-ply,SBD,M
Boys,89.81,5,Ej Ruiz,PSJA North,86.91,204.12,122.47,217.72,544.31,Single-ply,SBD,M
Boys,89.81,6,Lee Gamez,Mercedes,88.9,215.46,113.4,197.31,526.17,Single-ply,SBD,M
Boys,89.81,7,Michael Saldana,Hidalgo Early College,84.55,188.24,111.13,199.58,498.95,Single-ply,SBD,M
Boys,89.81,8,Jorge Berrones,PSJA North,88.18,185.97,102.06,158.76,446.79,Single-ply,SBD,M
Boys,89.81,9,Faustino Saldana,PSJA Southwest,86.64,183.7,97.52,149.69,430.91,Single-ply,SBD,M
Boys,89.81,10,Charles Ybarra,Mission,83.82,122.47,63.5,131.54,317.51,Single-ply,SBD,M
Boys,89.81,DQ,Javier Perez,PSJA Memorial,85.28,233.6,122.47,,,Single-ply,SBD,M
Boys,89.81,DQ,Andrew Garza,Edcouch-Elsa,82.74,181.44,,204.12,,Single-ply,SBD,M
Boys,99.79,1,Robert Castillo,PSJA,98.16,290.3,174.63,285.76,750.7,Single-ply,SBD,M
Boys,109.77,2,Jesus Morales #3,Weslaco East,99.97,272.16,165.56,217.72,655.44,Single-ply,SBD,M
Boys,99.79,3,Mauricio Verdin,Weslaco,99.25,290.3,129.27,233.6,653.17,Single-ply,SBD,M
Boys,99.79,4,Victor Aguilar,Mercedes,98.52,244.94,149.69,219.99,614.62,Single-ply,SBD,M
Boys,99.79,5,Jaime Huerta,San Benito,97.43,204.12,129.27,201.85,535.24,Single-ply,SBD,M
Boys,99.79,6,Mario Vera,Edcouch-Elsa,93.8,197.31,124.74,195.04,517.1,Single-ply,SBD,M
Boys,99.79,7,Jose Aldana,Mission,93.8,183.7,120.2,188.24,492.15,Single-ply,SBD,M
Boys,109.77,8,Julio Davila,PSJA North,99.97,170.1,106.59,174.63,451.32,Single-ply,SBD,M
Boys,99.79,9,Gus Hernandez,PSJA North,96.07,161.03,81.65,181.44,424.11,Single-ply,SBD,M
Boys,99.79,10,Jonathan Soto,PSJA Southwest,99.34,158.76,106.59,149.69,415.04,Single-ply,SBD,M
Boys,99.79,11,Joe Martinez,PSJA Southwest,95.25,142.88,81.65,172.37,396.89,Single-ply,SBD,M
Boys,99.79,12,Jose Rodriguez,PSJA Southwest,95.25,158.76,77.11,145.15,381.02,Single-ply,SBD,M
Boys,99.79,13,Javier Olmedo,Mission,98.52,151.95,90.72,136.08,378.75,Single-ply,SBD,M
Boys,99.79,DQ,William Relko,Mission,99.25,,,,,Single-ply,SBD,M
Boys,99.79,DQ,Blake Flores,PSJA Memorial,94.8,222.26,,217.72,,Single-ply,SBD,M
Boys,109.77,1,Sergio Guevara,Donna,107.23,274.42,165.56,254.01,694,Single-ply,SBD,M
Boys,109.77,2,Sam Salazar,Weslaco East,108.23,249.48,163.29,229.06,641.83,Single-ply,SBD,M
Boys,109.77,3,Julio Rivas,San Benito,100.88,217.72,136.08,231.33,585.13,Single-ply,SBD,M
Boys,109.77,4,Sebastian Garza,PSJA Memorial,104.92,217.72,142.88,215.46,576.06,Single-ply,SBD,M
Boys,109.77,5,Shawn Garcia,PSJA,104.6,215.46,129.27,206.38,551.11,Single-ply,SBD,M
Boys,109.77,6,Joe Martinez,Edcouch-Elsa,106.78,226.8,104.33,215.46,546.58,Single-ply,SBD,M
Boys,109.77,7,Justin Garza,PSJA North,108.14,208.65,113.4,181.44,503.49,Single-ply,SBD,M
Boys,109.77,8,Gilbert Galvan,PSJA Southwest,109.68,190.51,102.06,188.24,480.81,Single-ply,SBD,M
Boys,109.77,DQ,Christian Garza,Weslaco East,106.78,,,,,Single-ply,SBD,M
Boys,109.77,DQ,Nate Gurez,Edcouch-Elsa,107.5,,,,,Single-ply,SBD,M
Boys,109.77,DQ,Marcleo Campos,Mercedes,108.95,,,,,Single-ply,SBD,M
Boys,109.77,DQ,Reuben Rubio,Mercedes,105.05,,,,,Single-ply,SBD,M
Boys,124.74,1,Roy Valdez,Los Fresnos,121.02,285.76,149.69,244.94,680.39,Single-ply,SBD,M
Boys,124.74,2,Robert Lugo,Weslaco,122.2,290.3,138.35,233.6,662.24,Single-ply,SBD,M
Boys,124.74,3,Alejandro Villarreal,Hidalgo Early College,124.47,272.16,151.95,235.87,659.98,Single-ply,SBD,M
Boys,124.74,4,Robert Garcia,Mission Sharyland,116.21,267.62,142.88,222.26,632.76,Single-ply,SBD,M
Boys,124.74,5,Andrew Cruz,PSJA North,114.31,254.01,151.95,213.19,619.15,Single-ply,SBD,M
Boys,124.74,6,Pedro Lozano,San Benito,119.48,240.4,142.88,231.33,614.62,Single-ply,SBD,M
Boys,124.74+,7,Ezequiel Lopez,San Benito,124.96,251.74,136.08,219.99,607.81,Single-ply,SBD,M
Boys,124.74,8,Joshua Cavazos,Mission Sharyland,118.75,238.14,127.01,222.26,587.4,Single-ply,SBD,M
Boys,124.74,9,Abel Cruces,Los Fresnos,123.29,219.99,163.29,199.58,582.87,Single-ply,SBD,M
Boys,124.74,10,Francisco Cavazos,Mission Veterans Memorial,111.58,210.92,106.59,224.53,542.04,Single-ply,SBD,M
Boys,124.74,11,Isaac Escobedo,PSJA Memorial,122.92,208.65,136.08,185.97,530.7,Single-ply,SBD,M
Boys,124.74,12,Samuel Garcia,Mission Sharyland,121.2,192.78,95.25,174.63,462.66,Single-ply,SBD,M
Boys,124.74,13,Diego Deluna,Mission Veterans Memorial,117.93,124.74,95.25,124.74,344.73,Single-ply,SBD,M
Boys,124.74,DQ,Art Camarillo,PSJA North,122.56,242.67,,,,Single-ply,SBD,M
Boys,124.74+,DQ,Marco Herrera,PSJA,124.83,272.16,,,,Single-ply,SBD,M
Boys,124.74,DQ,Mike Garza,Mission Veterans Memorial,114.58,165.56,,,,Single-ply,SBD,M
Boys,124.74+,1,Juan Zuniga,Mission,125.74,272.16,158.76,213.19,644.1,Single-ply,SBD,M
Boys,124.74+,2,Alexander Yanez,Mission,130.82,249.48,149.69,222.26,621.42,Single-ply,SBD,M
Boys,124.74+,3,Abraham Mariguel,Mission Veterans Memorial,176.9,226.8,136.08,213.19,576.06,Single-ply,SBD,M
Boys,124.74+,4,Adrian Alcantar,PSJA Memorial,127.05,244.94,136.08,190.51,571.53,Single-ply,SBD,M
Boys,124.74+,5,Ricardo Zamora,PSJA,133.54,249.48,115.67,206.38,571.53,Single-ply,SBD,M
Boys,124.74+,6,Danny Young,Mercedes,130.91,240.4,113.4,213.19,566.99,Single-ply,SBD,M
Boys,124.74+,7,Alvin Lufton,Edcouch-Elsa,134.81,206.38,113.4,213.19,532.97,Single-ply,SBD,M
Boys,124.74+,DQ,Rey Guajardo,PSJA,154.4,,,,,Single-ply,SBD,M
