Division,WeightClassKg,Place,Name,Team,BodyweightKg,Best3SquatKg,Best3BenchKg,Best3DeadliftKg,TotalKg,Equipment,Event,Sex
Boys,51.71,1,Jason Ayers,Lampasas,51.71,136.08,74.84,154.22,365.14,Single-ply,SBD,M
Boys,55.79,2,Wrenn Bagley,Salado,51.89,102.06,61.23,108.86,272.16,Single-ply,SBD,M
Boys,51.71,3,Brian Elliston,Brady,50.98,90.72,52.16,104.33,247.21,Single-ply,SBD,M
Boys,55.79,1,Jonathan Flores,Lampasas,53.98,129.27,83.91,163.29,376.48,Single-ply,SBD,M
Boys,55.79,2,Dakota Cavazos,Lampasas,55.43,124.74,79.38,122.47,326.59,Single-ply,SBD,M
Boys,55.79,3,Jacob Delafuente,Brady,55.38,113.4,68.04,136.08,317.51,Single-ply,SBD,M
Boys,59.87,4,Cutter Hudgens,Salado,56.02,99.79,56.7,124.74,281.23,Single-ply,SBD,M
Boys,55.79,5,Chase Harwell,Salado,53.57,108.86,52.16,115.67,276.69,Single-ply,SBD,M
Boys,55.79,6,Jordin Belmarez,Burnet,53.61,102.06,49.9,102.06,254.01,Single-ply,SBD,M
Boys,55.79,7,Garrett Schwertner,Brady,53.71,81.65,47.63,113.4,242.67,Single-ply,SBD,M
Boys,67.13,1,Dalton Dewveall,Llano,59.92,136.08,88.45,167.83,392.36,Single-ply,SBD,M
Boys,59.87,2,Anthony Montes,Lampasas,58.47,133.81,81.65,142.88,358.34,Single-ply,SBD,M
Boys,59.87,3,Mason Matthews,Gatesville,56.97,117.93,63.5,136.08,317.51,Single-ply,SBD,M
Boys,59.87,4,Noah McVicker,Lago Vista,58.69,115.67,58.97,136.08,310.71,Single-ply,SBD,M
Boys,59.87,5,Jose Briggs,Burnet,59.06,99.79,58.97,136.08,294.84,Single-ply,SBD,M
Boys,67.13,6,Daniel Kelso,Lago Vista,60.1,108.86,58.97,127.01,294.84,Single-ply,SBD,M
Boys,59.87,7,Damian Gamboa,Florence,57.97,127.01,,,127.01,Single-ply,S,M
Boys,67.13,1,Kaden Trice,Salado,67.04,183.7,95.25,183.7,462.66,Single-ply,SBD,M
Boys,67.13,2,Chance Alvarez,Gatesville,66.5,161.03,104.33,192.78,458.13,Single-ply,SBD,M
Boys,67.13,3,Dorian Jimenez,Brady,64.5,170.1,92.99,181.44,444.52,Single-ply,SBD,M
Boys,74.84,4,Coby Chambliss,Salado,67.36,172.37,97.52,170.1,439.98,Single-ply,SBD,M
Boys,74.84,5,Brent Greenwood,Llano,67.18,163.29,99.79,154.22,417.3,Single-ply,SBD,M
Boys,67.13,6,D'shawn Williams,Lampasas,63.19,158.76,95.25,149.69,403.7,Single-ply,SBD,M
Boys,67.13,7,Clay Stamper,Lago Vista,64.18,129.27,90.72,158.76,378.75,Single-ply,SBD,M
Boys,67.13,8,Dalton Cook,Lampasas,66.95,142.88,83.91,151.95,378.75,Single-ply,SBD,M
Boys,67.13,9,Cade Depoy,Salado,65.23,142.88,83.91,147.42,374.21,Single-ply,SBD,M
Boys,67.13,10,Casey Sisson,Bangs,64.14,122.47,77.11,156.49,356.07,Single-ply,SBD,M
Boys,67.13,11,Shiloh Fraughton,Lampasas,63.09,131.54,77.11,140.61,349.27,Single-ply,SBD,M
Boys,67.13,12,Connor Reighley,Lago Vista,60.69,129.27,65.77,151.95,347,Single-ply,SBD,M
Boys,67.13,13,Caleb Smith,Marble Falls,65.41,117.93,77.11,142.88,337.93,Single-ply,SBD,M
Boys,67.13,14,Nathan Briley,Gordon,62.32,124.74,74.84,136.08,335.66,Single-ply,SBD,M
Boys,67.13,15,Evan Gravell,Bangs,61.46,108.86,86.18,138.35,333.39,Single-ply,SBD,M
Boys,67.13,16,Bailey Janisch,Gatesville,66.5,124.74,70.31,124.74,319.78,Single-ply,SBD,M
Boys,67.13,17,Brandon Eppers,Marble Falls,61.05,117.93,56.7,131.54,306.17,Single-ply,SBD,M
Boys,67.13,18,Justin Trussell,Florence,65.95,102.06,58.97,122.47,283.5,Single-ply,SBD,M
Boys,67.13,19,Moe Bryson,Lago Vista,66.95,124.74,,,124.74,Single-ply,S,M
Boys,67.13,20,Cordell Brice,Lampasas,65.91,113.4,,,113.4,Single-ply,S,M
Boys,74.84,1,Trevor Penny,Llano,67.63,188.24,104.33,197.31,489.88,Single-ply,SBD,M
Boys,74.84,2,Jacob Carpeno,Lago Vista,74.12,183.7,97.52,204.12,485.34,Single-ply,SBD,M
Boys,74.84,3,Ryan Hill,Lago Vista,70.9,195.04,106.59,174.63,476.27,Single-ply,SBD,M
Boys,74.84,4,Mason Greenwood,Llano,72.94,172.37,99.79,176.9,449.06,Single-ply,SBD,M
Boys,74.84,5,Tyler Stairs,Salado,74.66,174.63,92.99,170.1,437.72,Single-ply,SBD,M
Boys,74.84,6,Nathan Keese,Lampasas,69.49,158.76,90.72,163.29,412.77,Single-ply,SBD,M
Boys,74.84,7,Freddie White,Liberty Hill,67.81,172.37,88.45,149.69,410.5,Single-ply,SBD,M
Boys,74.84,8,Josh Johnson,Gatesville,73.84,161.03,90.72,142.88,394.63,Single-ply,SBD,M
Boys,74.84,9,Abram Ruiz,Brady,74.62,145.15,70.31,176.9,392.36,Single-ply,SBD,M
Boys,82.1,10,Imanol Martinez,Brady,74.89,149.69,74.84,158.76,383.29,Single-ply,SBD,M
Boys,82.1,11,Chris Hall,Florence,75.02,156.49,79.38,147.42,383.29,Single-ply,SBD,M
Boys,74.84,12,Cooper Womack,Salado,74.03,149.69,65.77,151.95,367.41,Single-ply,SBD,M
Boys,74.84,13,Jarron Kirklin,Brady,68.95,127.01,72.57,165.56,365.14,Single-ply,SBD,M
Boys,74.84,14,Jacob Williams,Gatesville,73.21,136.08,,,136.08,Single-ply,S,M
Boys,74.84,15,Gabe Torres,Marble Falls,73.53,124.74,,,124.74,Single-ply,S,M
Boys,82.1,1,Van Shamblin,Liberty Hill,76.88,229.06,113.4,192.78,535.24,Single-ply,SBD,M
Boys,82.1,2,Tanner Vrabel,Liberty Hill,80.01,192.78,117.93,213.19,523.9,Single-ply,SBD,M
Boys,82.1,3,Chase Mackey,Gordon,80.01,183.7,108.86,215.46,508.02,Single-ply,SBD,M
Boys,82.1,4,Jace Hankins,Lampasas,80.92,181.44,115.67,208.65,505.76,Single-ply,SBD,M
Boys,82.1,5,Chase Coffman,Gordon,81.28,185.97,102.06,195.04,483.08,Single-ply,SBD,M
Boys,82.1,6,Hayden Ebeling,Salado,81.96,165.56,120.2,197.31,483.08,Single-ply,SBD,M
Boys,82.1,7,Brock Foster,Burnet,76.2,176.9,99.79,201.85,478.54,Single-ply,SBD,M
Boys,82.1,8,Drake Hall,Burnet,78.93,170.1,117.93,190.51,478.54,Single-ply,SBD,M
Boys,82.1,9,Mason Campbell,Burnet,79.38,174.63,95.25,185.97,455.86,Single-ply,SBD,M
Boys,82.1,10,Colton Cunningham,Liberty Hill,76.7,170.1,104.33,179.17,453.59,Single-ply,SBD,M
Boys,82.1,11,Garrett Pluhar,Florence,81.6,176.9,99.79,172.37,449.06,Single-ply,SBD,M
Boys,82.1,12,Chase Walston,Brady,76.7,176.9,106.59,158.76,442.25,Single-ply,SBD,M
Boys,82.1,13,Garrett Gray,Florence,80.74,176.9,92.99,163.29,433.18,Single-ply,SBD,M
Boys,82.1,14,Bradley Yarbrough,Salado,79.79,165.56,88.45,165.56,419.57,Single-ply,SBD,M
Boys,82.1,15,Zac Menkin,Lago Vista,78.29,136.08,90.72,172.37,399.16,Single-ply,SBD,M
Boys,82.1,16,Rafael Tovar,Lampasas,80.92,145.15,88.45,163.29,396.89,Single-ply,SBD,M
Boys,82.1,17,Daniel Sparks,Marble Falls,81.83,142.88,74.84,154.22,371.95,Single-ply,SBD,M
Boys,82.1,18,Levi Rainwater,Lampasas,76.48,113.4,77.11,124.74,315.25,Single-ply,SBD,M
Boys,82.1,19,Josh Petty,Llano,76.43,115.67,74.84,122.47,312.98,Single-ply,SBD,M
Boys,82.1,20,Seth Cozby,Marble Falls,77.43,151.95,,,151.95,Single-ply,S,M
Boys,99.79,1,Jared McHazlett,Burnet,89.86,226.8,124.74,238.14,589.67,Single-ply,SBD,M
Boys,89.81,2,Jerry Trejo,Brady,84.64,206.38,136.08,215.46,557.92,Single-ply,SBD,M
Boys,89.81,3,Cullen Ferrill,Burnet,86.41,217.72,111.13,199.58,528.44,Single-ply,SBD,M
Boys,89.81,4,Dylan Dulkoski,Lampasas,84.69,188.24,115.67,188.24,492.15,Single-ply,SBD,M
Boys,89.81,5,Cohen Cockburn,Lampasas,88.77,181.44,97.52,208.65,487.61,Single-ply,SBD,M
Boys,89.81,6,Javier Hernandez,Brady,82.37,172.37,106.59,204.12,483.08,Single-ply,SBD,M
Boys,89.81,7,Cody Carrow,Lago Vista,88.18,174.63,129.27,165.56,469.47,Single-ply,SBD,M
Boys,89.81,8,Jack Brewer,Liberty Hill,84.78,170.1,108.86,174.63,453.59,Single-ply,SBD,M
Boys,89.81,9,Tate Hill,Salado,83.96,161.03,90.72,195.04,446.79,Single-ply,SBD,M
Boys,89.81,10,Blake Carr,Lago Vista,88.36,151.95,111.13,176.9,439.98,Single-ply,SBD,M
Boys,89.81,11,Willy Bonilla,Florence,87.86,165.56,99.79,163.29,428.64,Single-ply,SBD,M
Boys,89.81,12,McKenzie Nielson,Lampasas,89.63,161.03,86.18,176.9,424.11,Single-ply,SBD,M
Boys,89.81,13,Ben Walling,Llano,82.6,154.22,92.99,165.56,412.77,Single-ply,SBD,M
Boys,89.81,14,Logan Trotter,Lampasas,88,154.22,90.72,163.29,408.23,Single-ply,SBD,M
Boys,89.81,15,Gabe Kane,Salado,86.45,151.95,81.65,172.37,405.97,Single-ply,SBD,M
Boys,89.81,16,Andy Becker,Liberty Hill,83.51,147.42,102.06,154.22,403.7,Single-ply,SBD,M
Boys,89.81,17,Tristan Briggs,Burnet,89.54,129.27,92.99,163.29,385.55,Single-ply,SBD,M
Boys,99.79,18,Robert Atkinson,Marble Falls,89.99,127.01,,,127.01,Single-ply,S,M
Boys,99.79,1,Dakota Corbut,Liberty Hill,95.71,224.53,136.08,229.06,589.67,Single-ply,SBD,M
Boys,99.79,2,Sam Jackson,Gatesville,97.48,204.12,138.35,204.12,546.58,Single-ply,SBD,M
Boys,99.79,3,Adam Prado,Lampasas,98.84,204.12,138.35,181.44,523.9,Single-ply,SBD,M
Boys,99.79,4,Joe Barron,Florence,98.7,204.12,102.06,210.92,517.1,Single-ply,SBD,M
Boys,99.79,5,Austin Moore,Burnet,92.26,199.58,113.4,190.51,503.49,Single-ply,SBD,M
Boys,99.79,6,Lance Spakes,Salado,96.84,201.85,117.93,158.76,478.54,Single-ply,SBD,M
Boys,99.79,7,Dalton Mayberry,Marble Falls,90.99,195.04,83.91,192.78,471.74,Single-ply,SBD,M
Boys,99.79,8,Justin Wilson,Liberty Hill,91.72,156.49,113.4,183.7,453.59,Single-ply,SBD,M
Boys,99.79,9,Dakoda Trull,Llano,94.08,167.83,104.33,176.9,449.06,Single-ply,SBD,M
Boys,99.79,10,Michael Harris,Burnet,99.06,156.49,95.25,195.04,446.79,Single-ply,SBD,M
Boys,99.79,11,Kyle Huppee,Liberty Hill,97.79,170.1,106.59,158.76,435.45,Single-ply,SBD,M
Boys,99.79,12,Noah Von Benzerath,Lampasas,92.17,154.22,97.52,176.9,428.64,Single-ply,SBD,M
Boys,99.79,13,Miguel Leon,Brady,93.21,149.69,108.86,154.22,412.77,Single-ply,SBD,M
Boys,109.77,1,Daegan Fowler,Lago Vista,107.64,219.99,156.49,251.74,628.23,Single-ply,SBD,M
Boys,109.77,2,Kirkland Weaver,Brady,108.23,254.01,140.61,231.33,625.96,Single-ply,SBD,M
Boys,109.77,3,Brandon Taylor,Gatesville,102.38,217.72,106.59,219.99,544.31,Single-ply,SBD,M
Boys,109.77,4,Quenton McKinnerney,Bangs,105.28,226.8,124.74,192.78,544.31,Single-ply,SBD,M
Boys,109.77,5,Anthony Hallmark,Marble Falls,105.01,226.8,111.13,197.31,535.24,Single-ply,SBD,M
Boys,109.77,6,Bailey Cloughly,Liberty Hill,108.18,204.12,120.2,192.78,517.1,Single-ply,SBD,M
Boys,109.77,7,Alex Roman,Marble Falls,103.42,195.04,106.59,199.58,501.22,Single-ply,SBD,M
Boys,109.77,8,Caul Smith,Lampasas,102.19,190.51,111.13,176.9,478.54,Single-ply,SBD,M
Boys,109.77,9,Eric Williams,Lampasas,108.95,154.22,108.86,195.04,458.13,Single-ply,SBD,M
Boys,109.77,10,Chris Sangasy,Florence,102.83,190.51,81.65,140.61,412.77,Single-ply,SBD,M
Boys,109.77,11,Paul Peralta,Lampasas,102.56,127.01,106.59,163.29,396.89,Single-ply,SBD,M
Boys,124.74,1,Jake Sanders,Liberty Hill,118.84,244.94,147.42,226.8,619.15,Single-ply,SBD,M
Boys,124.74+,2,Colten Wood,Florence,124.87,231.33,140.61,219.99,591.94,Single-ply,SBD,M
Boys,124.74,3,Chris Bullington,Gatesville,119.79,226.8,131.54,197.31,555.65,Single-ply,SBD,M
Boys,124.74,4,Bailey Adair,Gatesville,112.63,210.92,133.81,181.44,526.17,Single-ply,SBD,M
Boys,124.74,5,Alex Gamboa,Florence,116.17,217.72,97.52,179.17,494.42,Single-ply,SBD,M
Boys,124.74,6,Juan Mungia,Llano,111.9,185.97,124.74,176.9,487.61,Single-ply,SBD,M
Boys,124.74,7,Matthew Downey,Marble Falls,114.12,176.9,92.99,190.51,460.4,Single-ply,SBD,M
Boys,124.74,8,Jacob Scott,Burnet,111.22,176.9,97.52,172.37,446.79,Single-ply,SBD,M
Boys,124.74+,1,Jake Dibble,Lampasas,163.52,294.84,183.7,260.82,739.36,Single-ply,SBD,M
Boys,124.74+,2,Kelby Stewart,Florence,142.61,290.3,140.61,238.14,669.05,Single-ply,SBD,M
Boys,124.74+,3,Jordan Westbrook,Gatesville,126.05,244.94,158.76,240.4,644.1,Single-ply,SBD,M
Boys,124.74+,4,Garrett Carlson,Llano,137.89,217.72,133.81,201.85,553.38,Single-ply,SBD,M
Boys,124.74+,5,Chris Nix,Lampasas,131.22,195.04,122.47,215.46,532.97,Single-ply,SBD,M
Boys,124.74+,6,Kelton Parson,Bangs,135.35,215.46,136.08,174.63,526.17,Single-ply,SBD,M
Boys,124.74+,7,Michael Hall,Marble Falls,131.04,204.12,95.25,204.12,503.49,Single-ply,SBD,M
Boys,,NS,Jacob Taylor,Gatesville,,,,,,Single-ply,SBD,M
