Name,Event,Equipment,Country,Age,BodyweightKg,Sex,Division,WeightClassKg,Bench1Kg,Bench2Kg,Bench3Kg,Bench4Kg,Best3BenchKg,TotalKg,Place
Leo Tili,B,Raw,Canada,35,145,M,mik39,140+,212.5,232.5,-235,,232.5,232.5,1
Mike Guay,B,Multi-ply,Canada,22,138,M,Jr,140,317.5,345,367.5,,367.5,367.5,1
Bill Crawford,B,Multi-ply,USA,38,134,M,39-49,140,367.5,387.5,400,,400,400,1
Joffrey Laurin,B,Multi-ply,Canada,24,98.3,M,Open,100,235,255,-265,,255,255,1
Ross Saldan,B,Multi-ply,Canada,57,107.1,M,50-69,110,205,-227.5,-227.5,,205,205,1
Shany Gilbert,B,Multi-ply,Canada,20,80.9,F,Jr,82.5,167.5,175,185,-190,185,185,1
Cheryl McKenzie,B,Multi-ply,Canada,49,74.6,F,49-59,75,115,-127.5,127.5,-137.5,127.5,127.5,1
Shawna Geraghty-Saldan,B,Multi-ply,Canada,29,59.2,F,Open,60,92.5,102.5,107.5,112.5,107.5,107.5,1
Joanick Boilard,B,Multi-ply,Canada,27,94.8,M,Open,100,-237.5,-250,-250,,,,DQ
